{"ResultList":[
{
"trid":1,"testlnk":0,"referencelnk":44,"mcdetaillnk":1,
"beamlnk":42,"targetlnk":82,"observablelnk":8,"secondarylnk":211,"reactionlnk":1,
"datatable":{
"dtid":1,"datatypeslnk":2,
"title":"Production of pi+ in pi+ on Pb interactions at 3GeV/c, 0.05<theta<0.1 [rad]",
"npoints":0,
"nbins":[4],
"axisTitle":["momentum of pi+ [GeV/c]","Cross section [mb/(GeV/c/rad)]"],
"val":
[200, 41, 90, 290],
"errStatPlus":
[30, 5.5, 5.5, 15],
"errStatMinus":
[30, 5.5, 5.5, 15],
"errSysPlus":
[0., 0., 0., 0.],
"errSysMinus":
[0., 0., 0., 0.],
"binMin":
[0.5, 1, 1.5, 2],
"binMax":
[1, 1.5, 2, 2.5]
},
"imageblobslnk":NULL,"scoreslnk":2,"accesslnk":1,
"parnames":["theta interval for secondary particle"], "parvalues":["0.05-0.1"]
},
{
"trid":1,"testlnk":0,"referencelnk":44,"mcdetaillnk":1,
"beamlnk":42,"targetlnk":82,"observablelnk":8,"secondarylnk":211,"reactionlnk":1,
"datatable":{
"dtid":1,"datatypeslnk":2,
"title":"Production of pi+ in pi+ on Pb interactions at 3GeV/c, 0.1<theta<0.15 [rad]",
"npoints":0,
"nbins":[4],
"axisTitle":["momentum of pi+ [GeV/c]","Cross section [mb/(GeV/c/rad)]"],
"val":
[80, 180, 510, 680],
"errStatPlus":
[20, 30, 40, 45],
"errStatMinus":
[20, 30, 40, 45],
"errSysPlus":
[0., 0., 0., 0.],
"errSysMinus":
[0., 0., 0., 0.],
"binMin":
[0.5, 1, 1.5, 2],
"binMax":
[1, 1.5, 2, 2.5]
},
"imageblobslnk":NULL,"scoreslnk":2,"accesslnk":1,
"parnames":["theta interval for secondary particle"], "parvalues":["0.1-0.15"]
},
{
"trid":1,"testlnk":0,"referencelnk":44,"mcdetaillnk":1,
"beamlnk":42,"targetlnk":82,"observablelnk":8,"secondarylnk":211,"reactionlnk":1,
"datatable":{
"dtid":1,"datatypeslnk":2,
"title":"Production of pi+ in pi+ on Pb interactions at 3GeV/c, 0.15<theta<0.2 [rad]",
"npoints":0,
"nbins":[4],
"axisTitle":["momentum of pi+ [GeV/c]","Cross section [mb/(GeV/c/rad)]"],
"val":
[180, 260, 310, 260],
"errStatPlus":
[30, 25, 30, 25],
"errStatMinus":
[30, 25, 30, 25],
"errSysPlus":
[0., 0., 0., 0.],
"errSysMinus":
[0., 0., 0., 0.],
"binMin":
[0.5, 1, 1.5, 2],
"binMax":
[1, 1.5, 2, 2.5]
},
"imageblobslnk":NULL,"scoreslnk":2,"accesslnk":1,
"parnames":["theta interval for secondary particle"], "parvalues":["0.15-0.2"]
},
{
"trid":1,"testlnk":0,"referencelnk":44,"mcdetaillnk":1,
"beamlnk":42,"targetlnk":82,"observablelnk":8,"secondarylnk":211,"reactionlnk":1,
"datatable":{
"dtid":1,"datatypeslnk":2,
"title":"Production of pi+ in pi+ on Pb interactions at 3GeV/c, 0.2<theta<0.25 [rad]",
"npoints":0,
"nbins":[4],
"axisTitle":["momentum of pi+ [GeV/c]","Cross section [mb/(GeV/c/rad)]"],
"val":
[260, 110, 160, 50],
"errStatPlus":
[70, 20, 25, 15],
"errStatMinus":
[70, 20, 25, 15],
"errSysPlus":
[0., 0., 0., 0.],
"errSysMinus":
[0., 0., 0., 0.],
"binMin":
[0.5, 1, 1.5, 2],
"binMax":
[1, 1.5, 2, 2.5]
},
"imageblobslnk":NULL,"scoreslnk":2,"accesslnk":1,
"parnames":["theta interval for secondary particle"], "parvalues":["0.2-0.25"]
},
{
"trid":1,"testlnk":0,"referencelnk":45,"mcdetaillnk":1,
"beamlnk":42,"targetlnk":82,"observablelnk":8,"secondarylnk":211,"reactionlnk":1,
"datatable":{
"dtid":1,"datatypeslnk":2,
"title":"Production of pi+ in pi+ on Pb interactions at 3GeV/c, 0.35<theta<0.55 [rad]",
"npoints":0,
"nbins":[10],
"axisTitle":["momentum of pi+ [GeV/c]","Cross section [mb/(GeV/c/rad)]"],
"val":
[520, 880, 850, 1010, 1010, 1030, 1080, 1000, 770, 550],
"errStatPlus":
[105, 75, 40, 50, 35, 40, 35, 35, 40, 40],
"errStatMinus":
[105, 75, 40, 50, 35, 40, 35, 35, 40, 40],
"errSysPlus":
[0., 0., 0., 0., 0., 0., 0., 0., 0., 0.],
"errSysMinus":
[0., 0., 0., 0., 0., 0., 0., 0., 0., 0.],
"binMin":
[0.15, 0.2, 0.25, 0.3, 0.35, 0.4, 0.45, 0.5, 0.6, 0.7],
"binMax":
[0.2, 0.25, 0.3, 0.35, 0.4, 0.45, 0.5, 0.6, 0.7, 0.8]
},
"imageblobslnk":NULL,"scoreslnk":2,"accesslnk":1,
"parnames":["theta interval for secondary particle"], "parvalues":["0.35-0.55"]
},
{
"trid":1,"testlnk":0,"referencelnk":45,"mcdetaillnk":1,
"beamlnk":42,"targetlnk":82,"observablelnk":8,"secondarylnk":211,"reactionlnk":1,
"datatable":{
"dtid":1,"datatypeslnk":2,
"title":"Production of pi+ in pi+ on Pb interactions at 3GeV/c, 0.55<theta<0.75 [rad]",
"npoints":0,
"nbins":[11],
"axisTitle":["momentum of pi+ [GeV/c]","Cross section [mb/(GeV/c/rad)]"],
"val":
[650, 1050, 1240, 1280, 1220, 1230, 1100, 1060, 850, 550, 340],
"errStatPlus":
[145, 80, 70, 40, 45, 35, 30, 35, 35, 35, 35],
"errStatMinus":
[145, 80, 70, 40, 45, 35, 30, 35, 35, 35, 35],
"errSysPlus":
[0., 0., 0., 0., 0., 0., 0., 0., 0., 0., 0.],
"errSysMinus":
[0., 0., 0., 0., 0., 0., 0., 0., 0., 0., 0.],
"binMin":
[0.1, 0.15, 0.2, 0.25, 0.3, 0.35, 0.4, 0.45, 0.5, 0.6, 0.7],
"binMax":
[0.15, 0.2, 0.25, 0.3, 0.35, 0.4, 0.45, 0.5, 0.6, 0.7, 0.8]
},
"imageblobslnk":NULL,"scoreslnk":2,"accesslnk":1,
"parnames":["theta interval for secondary particle"], "parvalues":["0.55-0.75"]
},
{
"trid":1,"testlnk":0,"referencelnk":45,"mcdetaillnk":1,
"beamlnk":42,"targetlnk":82,"observablelnk":8,"secondarylnk":211,"reactionlnk":1,
"datatable":{
"dtid":1,"datatypeslnk":2,
"title":"Production of pi+ in pi+ on Pb interactions at 3GeV/c, 0.75<theta<0.95 [rad]",
"npoints":0,
"nbins":[10],
"axisTitle":["momentum of pi+ [GeV/c]","Cross section [mb/(GeV/c/rad)]"],
"val":
[1010, 1390, 1460, 1200, 1350, 1000, 890, 840, 610, 390],
"errStatPlus":
[115, 55, 55, 40, 40, 30, 25, 25, 25, 25],
"errStatMinus":
[115, 55, 55, 40, 40, 30, 25, 25, 25, 25],
"errSysPlus":
[0., 0., 0., 0., 0., 0., 0., 0., 0., 0.],
"errSysMinus":
[0., 0., 0., 0., 0., 0., 0., 0., 0., 0.],
"binMin":
[0.1, 0.15, 0.2, 0.25, 0.3, 0.35, 0.4, 0.45, 0.5, 0.6],
"binMax":
[0.15, 0.2, 0.25, 0.3, 0.35, 0.4, 0.45, 0.5, 0.6, 0.7]
},
"imageblobslnk":NULL,"scoreslnk":2,"accesslnk":1,
"parnames":["theta interval for secondary particle"], "parvalues":["0.75-0.95"]
},
{
"trid":1,"testlnk":0,"referencelnk":45,"mcdetaillnk":1,
"beamlnk":42,"targetlnk":82,"observablelnk":8,"secondarylnk":211,"reactionlnk":1,
"datatable":{
"dtid":1,"datatypeslnk":2,
"title":"Production of pi+ in pi+ on Pb interactions at 3GeV/c, 0.95<theta<1.15 [rad]",
"npoints":0,
"nbins":[9],
"axisTitle":["momentum of pi+ [GeV/c]","Cross section [mb/(GeV/c/rad)]"],
"val":
[1080, 1540, 1370, 1090, 870, 680, 650, 500, 310],
"errStatPlus":
[105, 50, 45, 35, 30, 25, 20, 20, 20],
"errStatMinus":
[105, 50, 45, 35, 30, 25, 20, 20, 20],
"errSysPlus":
[0., 0., 0., 0., 0., 0., 0., 0., 0.],
"errSysMinus":
[0., 0., 0., 0., 0., 0., 0., 0., 0.],
"binMin":
[0.1, 0.15, 0.2, 0.25, 0.3, 0.35, 0.4, 0.45, 0.5],
"binMax":
[0.15, 0.2, 0.25, 0.3, 0.35, 0.4, 0.45, 0.5, 0.6]
},
"imageblobslnk":NULL,"scoreslnk":2,"accesslnk":1,
"parnames":["theta interval for secondary particle"], "parvalues":["0.95-1.15"]
},
{
"trid":1,"testlnk":0,"referencelnk":45,"mcdetaillnk":1,
"beamlnk":42,"targetlnk":82,"observablelnk":8,"secondarylnk":211,"reactionlnk":1,
"datatable":{
"dtid":1,"datatypeslnk":2,
"title":"Production of pi+ in pi+ on Pb interactions at 3GeV/c, 1.15<theta<1.35 [rad]",
"npoints":0,
"nbins":[8],
"axisTitle":["momentum of pi+ [GeV/c]","Cross section [mb/(GeV/c/rad)]"],
"val":
[1100, 1590, 1300, 860, 720, 580, 470, 360],
"errStatPlus":
[100, 65, 45, 35, 25, 20, 15, 15],
"errStatMinus":
[100, 65, 45, 35, 25, 20, 15, 15],
"errSysPlus":
[0., 0., 0., 0., 0., 0., 0., 0.],
"errSysMinus":
[0., 0., 0., 0., 0., 0., 0., 0.],
"binMin":
[0.1, 0.15, 0.2, 0.25, 0.3, 0.35, 0.4, 0.45],
"binMax":
[0.15, 0.2, 0.25, 0.3, 0.35, 0.4, 0.45, 0.5]
},
"imageblobslnk":NULL,"scoreslnk":2,"accesslnk":1,
"parnames":["theta interval for secondary particle"], "parvalues":["1.15-1.35"]
},
{
"trid":1,"testlnk":0,"referencelnk":45,"mcdetaillnk":1,
"beamlnk":42,"targetlnk":82,"observablelnk":8,"secondarylnk":211,"reactionlnk":1,
"datatable":{
"dtid":1,"datatypeslnk":2,
"title":"Production of pi+ in pi+ on Pb interactions at 3GeV/c, 1.35<theta<1.55 [rad]",
"npoints":0,
"nbins":[8],
"axisTitle":["momentum of pi+ [GeV/c]","Cross section [mb/(GeV/c/rad)]"],
"val":
[1160, 1560, 1230, 810, 590, 460, 300, 230],
"errStatPlus":
[110, 65, 40, 30, 20, 15, 10, 10],
"errStatMinus":
[110, 65, 40, 30, 20, 15, 10, 10],
"errSysPlus":
[0., 0., 0., 0., 0., 0., 0., 0.],
"errSysMinus":
[0., 0., 0., 0., 0., 0., 0., 0.],
"binMin":
[0.1, 0.15, 0.2, 0.25, 0.3, 0.35, 0.4, 0.45],
"binMax":
[0.15, 0.2, 0.25, 0.3, 0.35, 0.4, 0.45, 0.5]
},
"imageblobslnk":NULL,"scoreslnk":2,"accesslnk":1,
"parnames":["theta interval for secondary particle"], "parvalues":["1.35-1.55"]
},
{
"trid":1,"testlnk":0,"referencelnk":45,"mcdetaillnk":1,
"beamlnk":42,"targetlnk":82,"observablelnk":8,"secondarylnk":211,"reactionlnk":1,
"datatable":{
"dtid":1,"datatypeslnk":2,
"title":"Production of pi+ in pi+ on Pb interactions at 3GeV/c, 1.55<theta<1.75 [rad]",
"npoints":0,
"nbins":[8],
"axisTitle":["momentum of pi+ [GeV/c]","Cross section [mb/(GeV/c/rad)]"],
"val":
[1240, 1490, 1060, 710, 510, 310, 190, 140],
"errStatPlus":
[130, 50, 40, 25, 20, 15, 10, 10],
"errStatMinus":
[130, 50, 40, 25, 20, 15, 10, 10],
"errSysPlus":
[0., 0., 0., 0., 0., 0., 0., 0.],
"errSysMinus":
[0., 0., 0., 0., 0., 0., 0., 0.],
"binMin":
[0.1, 0.15, 0.2, 0.25, 0.3, 0.35, 0.4, 0.45],
"binMax":
[0.15, 0.2, 0.25, 0.3, 0.35, 0.4, 0.45, 0.5]
},
"imageblobslnk":NULL,"scoreslnk":2,"accesslnk":1,
"parnames":["theta interval for secondary particle"], "parvalues":["1.55-1.75"]
},
{
"trid":1,"testlnk":0,"referencelnk":45,"mcdetaillnk":1,
"beamlnk":42,"targetlnk":82,"observablelnk":8,"secondarylnk":211,"reactionlnk":1,
"datatable":{
"dtid":1,"datatypeslnk":2,
"title":"Production of pi+ in pi+ on Pb interactions at 3GeV/c, 1.75<theta<1.95 [rad]",
"npoints":0,
"nbins":[8],
"axisTitle":["momentum of pi+ [GeV/c]","Cross section [mb/(GeV/c/rad)]"],
"val":
[1150, 1320, 870, 520, 340, 210, 130, 80],
"errStatPlus":
[100, 35, 30, 20, 15, 15, 10, 5],
"errStatMinus":
[100, 35, 30, 20, 15, 15, 10, 5],
"errSysPlus":
[0., 0., 0., 0., 0., 0., 0., 0.],
"errSysMinus":
[0., 0., 0., 0., 0., 0., 0., 0.],
"binMin":
[0.1, 0.15, 0.2, 0.25, 0.3, 0.35, 0.4, 0.45],
"binMax":
[0.15, 0.2, 0.25, 0.3, 0.35, 0.4, 0.45, 0.5]
},
"imageblobslnk":NULL,"scoreslnk":2,"accesslnk":1,
"parnames":["theta interval for secondary particle"], "parvalues":["1.75-1.95"]
},
{
"trid":1,"testlnk":0,"referencelnk":45,"mcdetaillnk":1,
"beamlnk":42,"targetlnk":82,"observablelnk":8,"secondarylnk":211,"reactionlnk":1,
"datatable":{
"dtid":1,"datatypeslnk":2,
"title":"Production of pi+ in pi+ on Pb interactions at 3GeV/c, 1.95<theta<2.15 [rad]",
"npoints":0,
"nbins":[8],
"axisTitle":["momentum of pi+ [GeV/c]","Cross section [mb/(GeV/c/rad)]"],
"val":
[770, 1010, 680, 320, 240, 160, 120, 70],
"errStatPlus":
[65, 35, 30, 15, 10, 10, 10, 5],
"errStatMinus":
[65, 35, 30, 15, 10, 10, 10, 5],
"errSysPlus":
[0., 0., 0., 0., 0., 0., 0., 0.],
"errSysMinus":
[0., 0., 0., 0., 0., 0., 0., 0.],
"binMin":
[0.1, 0.15, 0.2, 0.25, 0.3, 0.35, 0.4, 0.45],
"binMax":
[0.15, 0.2, 0.25, 0.3, 0.35, 0.4, 0.45, 0.5]
},
"imageblobslnk":NULL,"scoreslnk":2,"accesslnk":1,
"parnames":["theta interval for secondary particle"], "parvalues":["1.95-2.15"]
},
{
"trid":1,"testlnk":0,"referencelnk":44,"mcdetaillnk":1,
"beamlnk":43,"targetlnk":82,"observablelnk":8,"secondarylnk":211,"reactionlnk":1,
"datatable":{
"dtid":1,"datatypeslnk":2,
"title":"Production of pi+ in pi+ on Pb interactions at 5GeV/c, 0.05<theta<0.1 [rad]",
"npoints":0,
"nbins":[8],
"axisTitle":["momentum of pi+ [GeV/c]","Cross section [mb/(GeV/c/rad)]"],
"val":
[630, 380, 420, 710, 740, 880, 1030, 770],
"errStatPlus":
[55, 35, 40, 40, 35, 60, 45, 60],
"errStatMinus":
[55, 35, 40, 40, 35, 60, 45, 60],
"errSysPlus":
[0., 0., 0., 0., 0., 0., 0., 0.],
"errSysMinus":
[0., 0., 0., 0., 0., 0., 0., 0.],
"binMin":
[0.5, 1, 1.5, 2, 2.5, 3, 3.5, 4],
"binMax":
[1, 1.5, 2, 2.5, 3, 3.5, 4, 5]
},
"imageblobslnk":NULL,"scoreslnk":2,"accesslnk":1,
"parnames":["theta interval for secondary particle"], "parvalues":["0.05-0.1"]
},
{
"trid":1,"testlnk":0,"referencelnk":44,"mcdetaillnk":1,
"beamlnk":43,"targetlnk":82,"observablelnk":8,"secondarylnk":211,"reactionlnk":1,
"datatable":{
"dtid":1,"datatypeslnk":2,
"title":"Production of pi+ in pi+ on Pb interactions at 5GeV/c, 0.1<theta<0.15 [rad]",
"npoints":0,
"nbins":[8],
"axisTitle":["momentum of pi+ [GeV/c]","Cross section [mb/(GeV/c/rad)]"],
"val":
[870, 360, 540, 510, 480, 650, 570, 350],
"errStatPlus":
[70, 35, 40, 30, 35, 40, 35, 65],
"errStatMinus":
[70, 35, 40, 30, 35, 40, 35, 65],
"errSysPlus":
[0., 0., 0., 0., 0., 0., 0., 0.],
"errSysMinus":
[0., 0., 0., 0., 0., 0., 0., 0.],
"binMin":
[0.5, 1, 1.5, 2, 2.5, 3, 3.5, 4],
"binMax":
[1, 1.5, 2, 2.5, 3, 3.5, 4, 5]
},
"imageblobslnk":NULL,"scoreslnk":2,"accesslnk":1,
"parnames":["theta interval for secondary particle"], "parvalues":["0.1-0.15"]
},
{
"trid":1,"testlnk":0,"referencelnk":44,"mcdetaillnk":1,
"beamlnk":43,"targetlnk":82,"observablelnk":8,"secondarylnk":211,"reactionlnk":1,
"datatable":{
"dtid":1,"datatypeslnk":2,
"title":"Production of pi+ in pi+ on Pb interactions at 5GeV/c, 0.15<theta<0.2 [rad]",
"npoints":0,
"nbins":[8],
"axisTitle":["momentum of pi+ [GeV/c]","Cross section [mb/(GeV/c/rad)]"],
"val":
[780, 630, 370, 390, 180, 200, 140, 90],
"errStatPlus":
[70, 50, 30, 35, 20, 30, 20, 25],
"errStatMinus":
[70, 50, 30, 35, 20, 30, 20, 25],
"errSysPlus":
[0., 0., 0., 0., 0., 0., 0., 0.],
"errSysMinus":
[0., 0., 0., 0., 0., 0., 0., 0.],
"binMin":
[0.5, 1, 1.5, 2, 2.5, 3, 3.5, 4],
"binMax":
[1, 1.5, 2, 2.5, 3, 3.5, 4, 5]
},
"imageblobslnk":NULL,"scoreslnk":2,"accesslnk":1,
"parnames":["theta interval for secondary particle"], "parvalues":["0.15-0.2"]
},
{
"trid":1,"testlnk":0,"referencelnk":44,"mcdetaillnk":1,
"beamlnk":43,"targetlnk":82,"observablelnk":8,"secondarylnk":211,"reactionlnk":1,
"datatable":{
"dtid":1,"datatypeslnk":2,
"title":"Production of pi+ in pi+ on Pb interactions at 5GeV/c, 0.2<theta<0.25 [rad]",
"npoints":0,
"nbins":[8],
"axisTitle":["momentum of pi+ [GeV/c]","Cross section [mb/(GeV/c/rad)]"],
"val":
[550, 390, 310, 220, 160, 70, 30, 30],
"errStatPlus":
[50, 40, 35, 30, 25, 15, 10, 10],
"errStatMinus":
[50, 40, 35, 30, 25, 15, 10, 10],
"errSysPlus":
[0., 0., 0., 0., 0., 0., 0., 0.],
"errSysMinus":
[0., 0., 0., 0., 0., 0., 0., 0.],
"binMin":
[0.5, 1, 1.5, 2, 2.5, 3, 3.5, 4],
"binMax":
[1, 1.5, 2, 2.5, 3, 3.5, 4, 5]
},
"imageblobslnk":NULL,"scoreslnk":2,"accesslnk":1,
"parnames":["theta interval for secondary particle"], "parvalues":["0.2-0.25"]
},
{
"trid":1,"testlnk":0,"referencelnk":45,"mcdetaillnk":1,
"beamlnk":43,"targetlnk":82,"observablelnk":8,"secondarylnk":211,"reactionlnk":1,
"datatable":{
"dtid":1,"datatypeslnk":2,
"title":"Production of pi+ in pi+ on Pb interactions at 5GeV/c, 0.35<theta<0.55 [rad]",
"npoints":0,
"nbins":[10],
"axisTitle":["momentum of pi+ [GeV/c]","Cross section [mb/(GeV/c/rad)]"],
"val":
[1380, 1590, 2040, 2010, 1820, 1790, 1940, 1870, 1650, 1310],
"errStatPlus":
[175, 105, 95, 60, 50, 60, 55, 50, 70, 95],
"errStatMinus":
[175, 105, 95, 60, 50, 60, 55, 50, 70, 95],
"errSysPlus":
[0., 0., 0., 0., 0., 0., 0., 0., 0., 0.],
"errSysMinus":
[0., 0., 0., 0., 0., 0., 0., 0., 0., 0.],
"binMin":
[0.15, 0.2, 0.25, 0.3, 0.35, 0.4, 0.45, 0.5, 0.6, 0.7],
"binMax":
[0.2, 0.25, 0.3, 0.35, 0.4, 0.45, 0.5, 0.6, 0.7, 0.8]
},
"imageblobslnk":NULL,"scoreslnk":2,"accesslnk":1,
"parnames":["theta interval for secondary particle"], "parvalues":["0.35-0.55"]
},
{
"trid":1,"testlnk":0,"referencelnk":45,"mcdetaillnk":1,
"beamlnk":43,"targetlnk":82,"observablelnk":8,"secondarylnk":211,"reactionlnk":1,
"datatable":{
"dtid":1,"datatypeslnk":2,
"title":"Production of pi+ in pi+ on Pb interactions at 5GeV/c, 0.55<theta<0.75 [rad]",
"npoints":0,
"nbins":[11],
"axisTitle":["momentum of pi+ [GeV/c]","Cross section [mb/(GeV/c/rad)]"],
"val":
[920, 1550, 2150, 2060, 2010, 2000, 1910, 1850, 1600, 990, 620],
"errStatPlus":
[185, 110, 85, 65, 50, 70, 50, 45, 55, 70, 60],
"errStatMinus":
[185, 110, 85, 65, 50, 70, 50, 45, 55, 70, 60],
"errSysPlus":
[0., 0., 0., 0., 0., 0., 0., 0., 0., 0., 0.],
"errSysMinus":
[0., 0., 0., 0., 0., 0., 0., 0., 0., 0., 0.],
"binMin":
[0.1, 0.15, 0.2, 0.25, 0.3, 0.35, 0.4, 0.45, 0.5, 0.6, 0.7],
"binMax":
[0.15, 0.2, 0.25, 0.3, 0.35, 0.4, 0.45, 0.5, 0.6, 0.7, 0.8]
},
"imageblobslnk":NULL,"scoreslnk":2,"accesslnk":1,
"parnames":["theta interval for secondary particle"], "parvalues":["0.55-0.75"]
},
{
"trid":1,"testlnk":0,"referencelnk":45,"mcdetaillnk":1,
"beamlnk":43,"targetlnk":82,"observablelnk":8,"secondarylnk":211,"reactionlnk":1,
"datatable":{
"dtid":1,"datatypeslnk":2,
"title":"Production of pi+ in pi+ on Pb interactions at 5GeV/c, 0.75<theta<0.95 [rad]",
"npoints":0,
"nbins":[10],
"axisTitle":["momentum of pi+ [GeV/c]","Cross section [mb/(GeV/c/rad)]"],
"val":
[1170, 1960, 2080, 1920, 1780, 1670, 1480, 1270, 910, 510],
"errStatPlus":
[155, 75, 85, 75, 50, 45, 35, 35, 40, 40],
"errStatMinus":
[155, 75, 85, 75, 50, 45, 35, 35, 40, 40],
"errSysPlus":
[0., 0., 0., 0., 0., 0., 0., 0., 0., 0.],
"errSysMinus":
[0., 0., 0., 0., 0., 0., 0., 0., 0., 0.],
"binMin":
[0.1, 0.15, 0.2, 0.25, 0.3, 0.35, 0.4, 0.45, 0.5, 0.6],
"binMax":
[0.15, 0.2, 0.25, 0.3, 0.35, 0.4, 0.45, 0.5, 0.6, 0.7]
},
"imageblobslnk":NULL,"scoreslnk":2,"accesslnk":1,
"parnames":["theta interval for secondary particle"], "parvalues":["0.75-0.95"]
},
{
"trid":1,"testlnk":0,"referencelnk":45,"mcdetaillnk":1,
"beamlnk":43,"targetlnk":82,"observablelnk":8,"secondarylnk":211,"reactionlnk":1,
"datatable":{
"dtid":1,"datatypeslnk":2,
"title":"Production of pi+ in pi+ on Pb interactions at 5GeV/c, 0.95<theta<1.15 [rad]",
"npoints":0,
"nbins":[9],
"axisTitle":["momentum of pi+ [GeV/c]","Cross section [mb/(GeV/c/rad)]"],
"val":
[1450, 2130, 1990, 1610, 1330, 1140, 930, 750, 450],
"errStatPlus":
[145, 65, 60, 60, 45, 35, 25, 30, 25],
"errStatMinus":
[145, 65, 60, 60, 45, 35, 25, 30, 25],
"errSysPlus":
[0., 0., 0., 0., 0., 0., 0., 0., 0.],
"errSysMinus":
[0., 0., 0., 0., 0., 0., 0., 0., 0.],
"binMin":
[0.1, 0.15, 0.2, 0.25, 0.3, 0.35, 0.4, 0.45, 0.5],
"binMax":
[0.15, 0.2, 0.25, 0.3, 0.35, 0.4, 0.45, 0.5, 0.6]
},
"imageblobslnk":NULL,"scoreslnk":2,"accesslnk":1,
"parnames":["theta interval for secondary particle"], "parvalues":["0.95-1.15"]
},
{
"trid":1,"testlnk":0,"referencelnk":45,"mcdetaillnk":1,
"beamlnk":43,"targetlnk":82,"observablelnk":8,"secondarylnk":211,"reactionlnk":1,
"datatable":{
"dtid":1,"datatypeslnk":2,
"title":"Production of pi+ in pi+ on Pb interactions at 5GeV/c, 1.15<theta<1.35 [rad]",
"npoints":0,
"nbins":[8],
"axisTitle":["momentum of pi+ [GeV/c]","Cross section [mb/(GeV/c/rad)]"],
"val":
[1640, 2190, 1960, 1330, 1020, 840, 670, 480],
"errStatPlus":
[150, 70, 60, 45, 35, 25, 25, 25],
"errStatMinus":
[150, 70, 60, 45, 35, 25, 25, 25],
"errSysPlus":
[0., 0., 0., 0., 0., 0., 0., 0.],
"errSysMinus":
[0., 0., 0., 0., 0., 0., 0., 0.],
"binMin":
[0.1, 0.15, 0.2, 0.25, 0.3, 0.35, 0.4, 0.45],
"binMax":
[0.15, 0.2, 0.25, 0.3, 0.35, 0.4, 0.45, 0.5]
},
"imageblobslnk":NULL,"scoreslnk":2,"accesslnk":1,
"parnames":["theta interval for secondary particle"], "parvalues":["1.15-1.35"]
},
{
"trid":1,"testlnk":0,"referencelnk":45,"mcdetaillnk":1,
"beamlnk":43,"targetlnk":82,"observablelnk":8,"secondarylnk":211,"reactionlnk":1,
"datatable":{
"dtid":1,"datatypeslnk":2,
"title":"Production of pi+ in pi+ on Pb interactions at 5GeV/c, 1.35<theta<1.55 [rad]",
"npoints":0,
"nbins":[8],
"axisTitle":["momentum of pi+ [GeV/c]","Cross section [mb/(GeV/c/rad)]"],
"val":
[1570, 2100, 1760, 1130, 760, 570, 410, 290],
"errStatPlus":
[160, 90, 50, 40, 35, 20, 15, 15],
"errStatMinus":
[160, 90, 50, 40, 35, 20, 15, 15],
"errSysPlus":
[0., 0., 0., 0., 0., 0., 0., 0.],
"errSysMinus":
[0., 0., 0., 0., 0., 0., 0., 0.],
"binMin":
[0.1, 0.15, 0.2, 0.25, 0.3, 0.35, 0.4, 0.45],
"binMax":
[0.15, 0.2, 0.25, 0.3, 0.35, 0.4, 0.45, 0.5]
},
"imageblobslnk":NULL,"scoreslnk":2,"accesslnk":1,
"parnames":["theta interval for secondary particle"], "parvalues":["1.35-1.55"]
},
{
"trid":1,"testlnk":0,"referencelnk":45,"mcdetaillnk":1,
"beamlnk":43,"targetlnk":82,"observablelnk":8,"secondarylnk":211,"reactionlnk":1,
"datatable":{
"dtid":1,"datatypeslnk":2,
"title":"Production of pi+ in pi+ on Pb interactions at 5GeV/c, 1.55<theta<1.75 [rad]",
"npoints":0,
"nbins":[8],
"axisTitle":["momentum of pi+ [GeV/c]","Cross section [mb/(GeV/c/rad)]"],
"val":
[1470, 1870, 1430, 840, 580, 410, 280, 180],
"errStatPlus":
[150, 75, 45, 30, 20, 15, 15, 10],
"errStatMinus":
[150, 75, 45, 30, 20, 15, 15, 10],
"errSysPlus":
[0., 0., 0., 0., 0., 0., 0., 0.],
"errSysMinus":
[0., 0., 0., 0., 0., 0., 0., 0.],
"binMin":
[0.1, 0.15, 0.2, 0.25, 0.3, 0.35, 0.4, 0.45],
"binMax":
[0.15, 0.2, 0.25, 0.3, 0.35, 0.4, 0.45, 0.5]
},
"imageblobslnk":NULL,"scoreslnk":2,"accesslnk":1,
"parnames":["theta interval for secondary particle"], "parvalues":["1.55-1.75"]
},
{
"trid":1,"testlnk":0,"referencelnk":45,"mcdetaillnk":1,
"beamlnk":43,"targetlnk":82,"observablelnk":8,"secondarylnk":211,"reactionlnk":1,
"datatable":{
"dtid":1,"datatypeslnk":2,
"title":"Production of pi+ in pi+ on Pb interactions at 5GeV/c, 1.75<theta<1.95 [rad]",
"npoints":0,
"nbins":[8],
"axisTitle":["momentum of pi+ [GeV/c]","Cross section [mb/(GeV/c/rad)]"],
"val":
[1550, 1590, 1030, 590, 410, 320, 190, 110],
"errStatPlus":
[120, 45, 40, 25, 15, 15, 15, 10],
"errStatMinus":
[120, 45, 40, 25, 15, 15, 15, 10],
"errSysPlus":
[0., 0., 0., 0., 0., 0., 0., 0.],
"errSysMinus":
[0., 0., 0., 0., 0., 0., 0., 0.],
"binMin":
[0.1, 0.15, 0.2, 0.25, 0.3, 0.35, 0.4, 0.45],
"binMax":
[0.15, 0.2, 0.25, 0.3, 0.35, 0.4, 0.45, 0.5]
},
"imageblobslnk":NULL,"scoreslnk":2,"accesslnk":1,
"parnames":["theta interval for secondary particle"], "parvalues":["1.75-1.95"]
},
{
"trid":1,"testlnk":0,"referencelnk":45,"mcdetaillnk":1,
"beamlnk":43,"targetlnk":82,"observablelnk":8,"secondarylnk":211,"reactionlnk":1,
"datatable":{
"dtid":1,"datatypeslnk":2,
"title":"Production of pi+ in pi+ on Pb interactions at 5GeV/c, 1.95<theta<2.15 [rad]",
"npoints":0,
"nbins":[8],
"axisTitle":["momentum of pi+ [GeV/c]","Cross section [mb/(GeV/c/rad)]"],
"val":
[1310, 1390, 770, 390, 280, 200, 150, 90],
"errStatPlus":
[100, 35, 35, 20, 10, 10, 10, 10],
"errStatMinus":
[100, 35, 35, 20, 10, 10, 10, 10],
"errSysPlus":
[0., 0., 0., 0., 0., 0., 0., 0.],
"errSysMinus":
[0., 0., 0., 0., 0., 0., 0., 0.],
"binMin":
[0.1, 0.15, 0.2, 0.25, 0.3, 0.35, 0.4, 0.45],
"binMax":
[0.15, 0.2, 0.25, 0.3, 0.35, 0.4, 0.45, 0.5]
},
"imageblobslnk":NULL,"scoreslnk":2,"accesslnk":1,
"parnames":["theta interval for secondary particle"], "parvalues":["1.95-2.15"]
},
{
"trid":1,"testlnk":0,"referencelnk":44,"mcdetaillnk":1,
"beamlnk":44,"targetlnk":82,"observablelnk":8,"secondarylnk":211,"reactionlnk":1,
"datatable":{
"dtid":1,"datatypeslnk":2,
"title":"Production of pi+ in pi+ on Pb interactions at 8GeV/c, 0.05<theta<0.1 [rad]",
"npoints":0,
"nbins":[10],
"axisTitle":["momentum of pi+ [GeV/c]","Cross section [mb/(GeV/c/rad)]"],
"val":
[900, 780, 770, 820, 740, 610, 680, 890, 720, -1000],
"errStatPlus":
[75, 55, 50, 80, 60, 45, 40, 35, 55, -500],
"errStatMinus":
[75, 55, 50, 80, 60, 45, 40, 35, 55, -500],
"errSysPlus":
[0., 0., 0., 0., 0., 0., 0., 0., 0., 0.],
"errSysMinus":
[0., 0., 0., 0., 0., 0., 0., 0., 0., 0.],
"binMin":
[0.5, 1, 1.5, 2, 2.5, 3, 3.5, 4, 5, 6.5],
"binMax":
[1, 1.5, 2, 2.5, 3, 3.5, 4, 5, 6.5, 8]
},
"imageblobslnk":NULL,"scoreslnk":2,"accesslnk":1,
"parnames":["theta interval for secondary particle"], "parvalues":["0.05-0.1"]
},
{
"trid":1,"testlnk":0,"referencelnk":44,"mcdetaillnk":1,
"beamlnk":44,"targetlnk":82,"observablelnk":8,"secondarylnk":211,"reactionlnk":1,
"datatable":{
"dtid":1,"datatypeslnk":2,
"title":"Production of pi+ in pi+ on Pb interactions at 8GeV/c, 0.1<theta<0.15 [rad]",
"npoints":0,
"nbins":[10],
"axisTitle":["momentum of pi+ [GeV/c]","Cross section [mb/(GeV/c/rad)]"],
"val":
[1400, 1000, 1070, 890, 490, 570, 400, 290, 120, -1000],
"errStatPlus":
[90, 155, 295, 180, 215, 60, 30, 25, 15, -500],
"errStatMinus":
[90, 155, 295, 180, 215, 60, 30, 25, 15, -500],
"errSysPlus":
[0., 0., 0., 0., 0., 0., 0., 0., 0., 0.],
"errSysMinus":
[0., 0., 0., 0., 0., 0., 0., 0., 0., 0.],
"binMin":
[0.5, 1, 1.5, 2, 2.5, 3, 3.5, 4, 5, 6.5],
"binMax":
[1, 1.5, 2, 2.5, 3, 3.5, 4, 5, 6.5, 8]
},
"imageblobslnk":NULL,"scoreslnk":2,"accesslnk":1,
"parnames":["theta interval for secondary particle"], "parvalues":["0.1-0.15"]
},
{
"trid":1,"testlnk":0,"referencelnk":44,"mcdetaillnk":1,
"beamlnk":44,"targetlnk":82,"observablelnk":8,"secondarylnk":211,"reactionlnk":1,
"datatable":{
"dtid":1,"datatypeslnk":2,
"title":"Production of pi+ in pi+ on Pb interactions at 8GeV/c, 0.15<theta<0.2 [rad]",
"npoints":0,
"nbins":[10],
"axisTitle":["momentum of pi+ [GeV/c]","Cross section [mb/(GeV/c/rad)]"],
"val":
[1350, 830, 610, 530, 300, 260, 120, 80, 31, -1000],
"errStatPlus":
[95, 55, 45, 40, 35, 25, 15, 10, 5, -500],
"errStatMinus":
[95, 55, 45, 40, 35, 25, 15, 10, 5, -500],
"errSysPlus":
[0., 0., 0., 0., 0., 0., 0., 0., 0., 0.],
"errSysMinus":
[0., 0., 0., 0., 0., 0., 0., 0., 0., 0.],
"binMin":
[0.5, 1, 1.5, 2, 2.5, 3, 3.5, 4, 5, 6.5],
"binMax":
[1, 1.5, 2, 2.5, 3, 3.5, 4, 5, 6.5, 8]
},
"imageblobslnk":NULL,"scoreslnk":2,"accesslnk":1,
"parnames":["theta interval for secondary particle"], "parvalues":["0.15-0.2"]
},
{
"trid":1,"testlnk":0,"referencelnk":44,"mcdetaillnk":1,
"beamlnk":44,"targetlnk":82,"observablelnk":8,"secondarylnk":211,"reactionlnk":1,
"datatable":{
"dtid":1,"datatypeslnk":2,
"title":"Production of pi+ in pi+ on Pb interactions at 8GeV/c, 0.2<theta<0.25 [rad]",
"npoints":0,
"nbins":[10],
"axisTitle":["momentum of pi+ [GeV/c]","Cross section [mb/(GeV/c/rad)]"],
"val":
[860, 420, 430, 310, 230, 110, 100, 80, 20, -1000],
"errStatPlus":
[75, 45, 50, 40, 35, 20, 15, 15, 10, -500],
"errStatMinus":
[75, 45, 50, 40, 35, 20, 15, 15, 10, -500],
"errSysPlus":
[0., 0., 0., 0., 0., 0., 0., 0., 0., 0.],
"errSysMinus":
[0., 0., 0., 0., 0., 0., 0., 0., 0., 0.],
"binMin":
[0.5, 1, 1.5, 2, 2.5, 3, 3.5, 4, 5, 6.5],
"binMax":
[1, 1.5, 2, 2.5, 3, 3.5, 4, 5, 6.5, 8]
},
"imageblobslnk":NULL,"scoreslnk":2,"accesslnk":1,
"parnames":["theta interval for secondary particle"], "parvalues":["0.2-0.25"]
},
{
"trid":1,"testlnk":0,"referencelnk":45,"mcdetaillnk":1,
"beamlnk":44,"targetlnk":82,"observablelnk":8,"secondarylnk":211,"reactionlnk":1,
"datatable":{
"dtid":1,"datatypeslnk":2,
"title":"Production of pi+ in pi+ on Pb interactions at 8GeV/c, 0.35<theta<0.55 [rad]",
"npoints":0,
"nbins":[10],
"axisTitle":["momentum of pi+ [GeV/c]","Cross section [mb/(GeV/c/rad)]"],
"val":
[1600, 2250, 2800, 2630, 2620, 2710, 2620, 2650, 2440, 1690],
"errStatPlus":
[190, 125, 95, 85, 60, 80, 55, 65, 110, 130],
"errStatMinus":
[190, 125, 95, 85, 60, 80, 55, 65, 110, 130],
"errSysPlus":
[0., 0., 0., 0., 0., 0., 0., 0., 0., 0.],
"errSysMinus":
[0., 0., 0., 0., 0., 0., 0., 0., 0., 0.],
"binMin":
[0.15, 0.2, 0.25, 0.3, 0.35, 0.4, 0.45, 0.5, 0.6, 0.7],
"binMax":
[0.2, 0.25, 0.3, 0.35, 0.4, 0.45, 0.5, 0.6, 0.7, 0.8]
},
"imageblobslnk":NULL,"scoreslnk":2,"accesslnk":1,
"parnames":["theta interval for secondary particle"], "parvalues":["0.35-0.55"]
},
{
"trid":1,"testlnk":0,"referencelnk":45,"mcdetaillnk":1,
"beamlnk":44,"targetlnk":82,"observablelnk":8,"secondarylnk":211,"reactionlnk":1,
"datatable":{
"dtid":1,"datatypeslnk":2,
"title":"Production of pi+ in pi+ on Pb interactions at 8GeV/c, 0.55<theta<0.75 [rad]",
"npoints":0,
"nbins":[11],
"axisTitle":["momentum of pi+ [GeV/c]","Cross section [mb/(GeV/c/rad)]"],
"val":
[1040, 2190, 2740, 2860, 2800, 2500, 2480, 2320, 1840, 1300, 830],
"errStatPlus":
[210, 125, 100, 90, 80, 60, 75, 55, 65, 80, 85],
"errStatMinus":
[210, 125, 100, 90, 80, 60, 75, 55, 65, 80, 85],
"errSysPlus":
[0., 0., 0., 0., 0., 0., 0., 0., 0., 0., 0.],
"errSysMinus":
[0., 0., 0., 0., 0., 0., 0., 0., 0., 0., 0.],
"binMin":
[0.1, 0.15, 0.2, 0.25, 0.3, 0.35, 0.4, 0.45, 0.5, 0.6, 0.7],
"binMax":
[0.15, 0.2, 0.25, 0.3, 0.35, 0.4, 0.45, 0.5, 0.6, 0.7, 0.8]
},
"imageblobslnk":NULL,"scoreslnk":2,"accesslnk":1,
"parnames":["theta interval for secondary particle"], "parvalues":["0.55-0.75"]
},
{
"trid":1,"testlnk":0,"referencelnk":45,"mcdetaillnk":1,
"beamlnk":44,"targetlnk":82,"observablelnk":8,"secondarylnk":211,"reactionlnk":1,
"datatable":{
"dtid":1,"datatypeslnk":2,
"title":"Production of pi+ in pi+ on Pb interactions at 8GeV/c, 0.75<theta<0.95 [rad]",
"npoints":0,
"nbins":[10],
"axisTitle":["momentum of pi+ [GeV/c]","Cross section [mb/(GeV/c/rad)]"],
"val":
[1550, 2340, 2570, 2230, 2210, 2140, 1830, 1610, 1140, 640],
"errStatPlus":
[185, 75, 85, 65, 60, 50, 40, 40, 55, 50],
"errStatMinus":
[185, 75, 85, 65, 60, 50, 40, 40, 55, 50],
"errSysPlus":
[0., 0., 0., 0., 0., 0., 0., 0., 0., 0.],
"errSysMinus":
[0., 0., 0., 0., 0., 0., 0., 0., 0., 0.],
"binMin":
[0.1, 0.15, 0.2, 0.25, 0.3, 0.35, 0.4, 0.45, 0.5, 0.6],
"binMax":
[0.15, 0.2, 0.25, 0.3, 0.35, 0.4, 0.45, 0.5, 0.6, 0.7]
},
"imageblobslnk":NULL,"scoreslnk":2,"accesslnk":1,
"parnames":["theta interval for secondary particle"], "parvalues":["0.75-0.95"]
},
{
"trid":1,"testlnk":0,"referencelnk":45,"mcdetaillnk":1,
"beamlnk":44,"targetlnk":82,"observablelnk":8,"secondarylnk":211,"reactionlnk":1,
"datatable":{
"dtid":1,"datatypeslnk":2,
"title":"Production of pi+ in pi+ on Pb interactions at 8GeV/c, 0.95<theta<1.15 [rad]",
"npoints":0,
"nbins":[9],
"axisTitle":["momentum of pi+ [GeV/c]","Cross section [mb/(GeV/c/rad)]"],
"val":
[1650, 2430, 2350, 1860, 1590, 1400, 1160, 900, 620],
"errStatPlus":
[145, 95, 70, 60, 55, 35, 30, 25, 30],
"errStatMinus":
[145, 95, 70, 60, 55, 35, 30, 25, 30],
"errSysPlus":
[0., 0., 0., 0., 0., 0., 0., 0., 0.],
"errSysMinus":
[0., 0., 0., 0., 0., 0., 0., 0., 0.],
"binMin":
[0.1, 0.15, 0.2, 0.25, 0.3, 0.35, 0.4, 0.45, 0.5],
"binMax":
[0.15, 0.2, 0.25, 0.3, 0.35, 0.4, 0.45, 0.5, 0.6]
},
"imageblobslnk":NULL,"scoreslnk":2,"accesslnk":1,
"parnames":["theta interval for secondary particle"], "parvalues":["0.95-1.15"]
},
{
"trid":1,"testlnk":0,"referencelnk":45,"mcdetaillnk":1,
"beamlnk":44,"targetlnk":82,"observablelnk":8,"secondarylnk":211,"reactionlnk":1,
"datatable":{
"dtid":1,"datatypeslnk":2,
"title":"Production of pi+ in pi+ on Pb interactions at 8GeV/c, 1.15<theta<1.35 [rad]",
"npoints":0,
"nbins":[8],
"axisTitle":["momentum of pi+ [GeV/c]","Cross section [mb/(GeV/c/rad)]"],
"val":
[1840, 2650, 2270, 1750, 1270, 1030, 760, 560],
"errStatPlus":
[170, 85, 60, 50, 45, 30, 25, 20],
"errStatMinus":
[170, 85, 60, 50, 45, 30, 25, 20],
"errSysPlus":
[0., 0., 0., 0., 0., 0., 0., 0.],
"errSysMinus":
[0., 0., 0., 0., 0., 0., 0., 0.],
"binMin":
[0.1, 0.15, 0.2, 0.25, 0.3, 0.35, 0.4, 0.45],
"binMax":
[0.15, 0.2, 0.25, 0.3, 0.35, 0.4, 0.45, 0.5]
},
"imageblobslnk":NULL,"scoreslnk":2,"accesslnk":1,
"parnames":["theta interval for secondary particle"], "parvalues":["1.15-1.35"]
},
{
"trid":1,"testlnk":0,"referencelnk":45,"mcdetaillnk":1,
"beamlnk":44,"targetlnk":82,"observablelnk":8,"secondarylnk":211,"reactionlnk":1,
"datatable":{
"dtid":1,"datatypeslnk":2,
"title":"Production of pi+ in pi+ on Pb interactions at 8GeV/c, 1.35<theta<1.55 [rad]",
"npoints":0,
"nbins":[8],
"axisTitle":["momentum of pi+ [GeV/c]","Cross section [mb/(GeV/c/rad)]"],
"val":
[1770, 2390, 1920, 1220, 840, 620, 460, 310],
"errStatPlus":
[200, 100, 60, 40, 30, 20, 15, 15],
"errStatMinus":
[200, 100, 60, 40, 30, 20, 15, 15],
"errSysPlus":
[0., 0., 0., 0., 0., 0., 0., 0.],
"errSysMinus":
[0., 0., 0., 0., 0., 0., 0., 0.],
"binMin":
[0.1, 0.15, 0.2, 0.25, 0.3, 0.35, 0.4, 0.45],
"binMax":
[0.15, 0.2, 0.25, 0.3, 0.35, 0.4, 0.45, 0.5]
},
"imageblobslnk":NULL,"scoreslnk":2,"accesslnk":1,
"parnames":["theta interval for secondary particle"], "parvalues":["1.35-1.55"]
},
{
"trid":1,"testlnk":0,"referencelnk":45,"mcdetaillnk":1,
"beamlnk":44,"targetlnk":82,"observablelnk":8,"secondarylnk":211,"reactionlnk":1,
"datatable":{
"dtid":1,"datatypeslnk":2,
"title":"Production of pi+ in pi+ on Pb interactions at 8GeV/c, 1.55<theta<1.75 [rad]",
"npoints":0,
"nbins":[8],
"axisTitle":["momentum of pi+ [GeV/c]","Cross section [mb/(GeV/c/rad)]"],
"val":
[1700, 2130, 1680, 920, 620, 460, 300, 200],
"errStatPlus":
[165, 80, 55, 35, 25, 15, 15, 10],
"errStatMinus":
[165, 80, 55, 35, 25, 15, 15, 10],
"errSysPlus":
[0., 0., 0., 0., 0., 0., 0., 0.],
"errSysMinus":
[0., 0., 0., 0., 0., 0., 0., 0.],
"binMin":
[0.1, 0.15, 0.2, 0.25, 0.3, 0.35, 0.4, 0.45],
"binMax":
[0.15, 0.2, 0.25, 0.3, 0.35, 0.4, 0.45, 0.5]
},
"imageblobslnk":NULL,"scoreslnk":2,"accesslnk":1,
"parnames":["theta interval for secondary particle"], "parvalues":["1.55-1.75"]
},
{
"trid":1,"testlnk":0,"referencelnk":45,"mcdetaillnk":1,
"beamlnk":44,"targetlnk":82,"observablelnk":8,"secondarylnk":211,"reactionlnk":1,
"datatable":{
"dtid":1,"datatypeslnk":2,
"title":"Production of pi+ in pi+ on Pb interactions at 8GeV/c, 1.75<theta<1.95 [rad]",
"npoints":0,
"nbins":[8],
"axisTitle":["momentum of pi+ [GeV/c]","Cross section [mb/(GeV/c/rad)]"],
"val":
[1690, 1800, 1180, 670, 420, 250, 150, 80],
"errStatPlus":
[120, 50, 35, 25, 20, 15, 15, 5],
"errStatMinus":
[120, 50, 35, 25, 20, 15, 15, 5],
"errSysPlus":
[0., 0., 0., 0., 0., 0., 0., 0.],
"errSysMinus":
[0., 0., 0., 0., 0., 0., 0., 0.],
"binMin":
[0.1, 0.15, 0.2, 0.25, 0.3, 0.35, 0.4, 0.45],
"binMax":
[0.15, 0.2, 0.25, 0.3, 0.35, 0.4, 0.45, 0.5]
},
"imageblobslnk":NULL,"scoreslnk":2,"accesslnk":1,
"parnames":["theta interval for secondary particle"], "parvalues":["1.75-1.95"]
},
{
"trid":1,"testlnk":0,"referencelnk":45,"mcdetaillnk":1,
"beamlnk":44,"targetlnk":82,"observablelnk":8,"secondarylnk":211,"reactionlnk":1,
"datatable":{
"dtid":1,"datatypeslnk":2,
"title":"Production of pi+ in pi+ on Pb interactions at 8GeV/c, 1.95<theta<2.15 [rad]",
"npoints":0,
"nbins":[8],
"axisTitle":["momentum of pi+ [GeV/c]","Cross section [mb/(GeV/c/rad)]"],
"val":
[1290, 1390, 790, 450, 300, 170, 100, 70],
"errStatPlus":
[95, 35, 35, 20, 15, 10, 5, 5],
"errStatMinus":
[95, 35, 35, 20, 15, 10, 5, 5],
"errSysPlus":
[0., 0., 0., 0., 0., 0., 0., 0.],
"errSysMinus":
[0., 0., 0., 0., 0., 0., 0., 0.],
"binMin":
[0.1, 0.15, 0.2, 0.25, 0.3, 0.35, 0.4, 0.45],
"binMax":
[0.15, 0.2, 0.25, 0.3, 0.35, 0.4, 0.45, 0.5]
},
"imageblobslnk":NULL,"scoreslnk":2,"accesslnk":1,
"parnames":["theta interval for secondary particle"], "parvalues":["1.95-2.15"]
},
{
"trid":1,"testlnk":0,"referencelnk":44,"mcdetaillnk":1,
"beamlnk":45,"targetlnk":82,"observablelnk":8,"secondarylnk":211,"reactionlnk":1,
"datatable":{
"dtid":1,"datatypeslnk":2,
"title":"Production of pi+ in pi+ on Pb interactions at 12GeV/c, 0.05<theta<0.1 [rad]",
"npoints":0,
"nbins":[10],
"axisTitle":["momentum of pi+ [GeV/c]","Cross section [mb/(GeV/c/rad)]"],
"val":
[2890, 820, 1540, 730, 1640, 1550, 1380, 730, -1000, 140],
"errStatPlus":
[550, 210, 325, 180, 1350, 265, 230, 120, -500, 75],
"errStatMinus":
[550, 210, 325, 180, 1350, 265, 230, 120, -500, 75],
"errSysPlus":
[0., 0., 0., 0., 0., 0., 0., 0., 0., 0.],
"errSysMinus":
[0., 0., 0., 0., 0., 0., 0., 0., 0., 0.],
"binMin":
[0.5, 1, 1.5, 2, 2.5, 3, 3.5, 4, 5, 6.5],
"binMax":
[1, 1.5, 2, 2.5, 3, 3.5, 4, 5, 6.5, 8]
},
"imageblobslnk":NULL,"scoreslnk":2,"accesslnk":1,
"parnames":["theta interval for secondary particle"], "parvalues":["0.05-0.1"]
},
{
"trid":1,"testlnk":0,"referencelnk":44,"mcdetaillnk":1,
"beamlnk":45,"targetlnk":82,"observablelnk":8,"secondarylnk":211,"reactionlnk":1,
"datatable":{
"dtid":1,"datatypeslnk":2,
"title":"Production of pi+ in pi+ on Pb interactions at 12GeV/c, 0.1<theta<0.15 [rad]",
"npoints":0,
"nbins":[10],
"axisTitle":["momentum of pi+ [GeV/c]","Cross section [mb/(GeV/c/rad)]"],
"val":
[2460, 2030, 540, 1200, 880, 700, 530, 390, 240, 27],
"errStatPlus":
[455, 365, 155, 325, 265, 185, 130, 100, 80, 17.5],
"errStatMinus":
[455, 365, 155, 325, 265, 185, 130, 100, 80, 17.5],
"errSysPlus":
[0., 0., 0., 0., 0., 0., 0., 0., 0., 0.],
"errSysMinus":
[0., 0., 0., 0., 0., 0., 0., 0., 0., 0.],
"binMin":
[0.5, 1, 1.5, 2, 2.5, 3, 3.5, 4, 5, 6.5],
"binMax":
[1, 1.5, 2, 2.5, 3, 3.5, 4, 5, 6.5, 8]
},
"imageblobslnk":NULL,"scoreslnk":2,"accesslnk":1,
"parnames":["theta interval for secondary particle"], "parvalues":["0.1-0.15"]
},
{
"trid":1,"testlnk":0,"referencelnk":44,"mcdetaillnk":1,
"beamlnk":45,"targetlnk":82,"observablelnk":8,"secondarylnk":211,"reactionlnk":1,
"datatable":{
"dtid":1,"datatypeslnk":2,
"title":"Production of pi+ in pi+ on Pb interactions at 12GeV/c, 0.15<theta<0.2 [rad]",
"npoints":0,
"nbins":[10],
"axisTitle":["momentum of pi+ [GeV/c]","Cross section [mb/(GeV/c/rad)]"],
"val":
[2460, 970, 190, 450, 210, 127, 145, 20, 57, 60],
"errStatPlus":
[540, 300, 145, 205, 125, 92.5, 81, 24, 106, 365],
"errStatMinus":
[540, 300, 145, 205, 125, 92.5, 81, 24, 106, 365],
"errSysPlus":
[0., 0., 0., 0., 0., 0., 0., 0., 0., 0.],
"errSysMinus":
[0., 0., 0., 0., 0., 0., 0., 0., 0., 0.],
"binMin":
[0.5, 1, 2.5, 3, 3.5, 4, 5, 6.5, 0.5, 1],
"binMax":
[1, 1.5, 3, 3.5, 4, 5, 6.5, 8, 1, 1.5]
},
"imageblobslnk":NULL,"scoreslnk":2,"accesslnk":1,
"parnames":["theta interval for secondary particle"], "parvalues":["0.15-0.2"]
},
{
"trid":1,"testlnk":0,"referencelnk":44,"mcdetaillnk":1,
"beamlnk":45,"targetlnk":82,"observablelnk":8,"secondarylnk":211,"reactionlnk":1,
"datatable":{
"dtid":1,"datatypeslnk":2,
"title":"Production of pi+ in pi+ on Pb interactions at 12GeV/c, 0.2<theta<0.25 [rad]",
"npoints":0,
"nbins":[10],
"axisTitle":["momentum of pi+ [GeV/c]","Cross section [mb/(GeV/c/rad)]"],
"val":
[2180, 2250, 130, 75, 26, -1000, 80, -1000, -1000, -1000],
"errStatPlus":
[310, 495, 325, 179.5, 244, -500, 120, -500, -500, -500],
"errStatMinus":
[310, 495, 325, 179.5, 244, -500, 120, -500, -500, -500],
"errSysPlus":
[0., 0., 0., 0., 0., 0., 0., 0., 0., 0.],
"errSysMinus":
[0., 0., 0., 0., 0., 0., 0., 0., 0., 0.],
"binMin":
[1.5, 2, 2.5, 3, 3.5, 4, 5, 6.5, 6.5, 6.5],
"binMax":
[2, 2.5, 3, 3.5, 4, 5, 6.5, 8, 8, 8]
},
"imageblobslnk":NULL,"scoreslnk":2,"accesslnk":1,
"parnames":["theta interval for secondary particle"], "parvalues":["0.2-0.25"]
},
{
"trid":1,"testlnk":0,"referencelnk":45,"mcdetaillnk":1,
"beamlnk":45,"targetlnk":82,"observablelnk":8,"secondarylnk":211,"reactionlnk":1,
"datatable":{
"dtid":1,"datatypeslnk":2,
"title":"Production of pi+ in pi+ on Pb interactions at 12GeV/c, 0.35<theta<0.55 [rad]",
"npoints":0,
"nbins":[10],
"axisTitle":["momentum of pi+ [GeV/c]","Cross section [mb/(GeV/c/rad)]"],
"val":
[1760, 3000, 3510, 2680, 3030, 3240, 3280, 3140, 2580, 1910],
"errStatPlus":
[290, 285, 280, 200, 215, 255, 200, 185, 200, 170],
"errStatMinus":
[290, 285, 280, 200, 215, 255, 200, 185, 200, 170],
"errSysPlus":
[0., 0., 0., 0., 0., 0., 0., 0., 0., 0.],
"errSysMinus":
[0., 0., 0., 0., 0., 0., 0., 0., 0., 0.],
"binMin":
[0.15, 0.2, 0.25, 0.3, 0.35, 0.4, 0.45, 0.5, 0.6, 0.7],
"binMax":
[0.2, 0.25, 0.3, 0.35, 0.4, 0.45, 0.5, 0.6, 0.7, 0.8]
},
"imageblobslnk":NULL,"scoreslnk":2,"accesslnk":1,
"parnames":["theta interval for secondary particle"], "parvalues":["0.35-0.55"]
},
{
"trid":1,"testlnk":0,"referencelnk":45,"mcdetaillnk":1,
"beamlnk":45,"targetlnk":82,"observablelnk":8,"secondarylnk":211,"reactionlnk":1,
"datatable":{
"dtid":1,"datatypeslnk":2,
"title":"Production of pi+ in pi+ on Pb interactions at 12GeV/c, 0.55<theta<0.75 [rad]",
"npoints":0,
"nbins":[11],
"axisTitle":["momentum of pi+ [GeV/c]","Cross section [mb/(GeV/c/rad)]"],
"val":
[1330, 1900, 2820, 3190, 2930, 2660, 2880, 2870, 1750, 1470, 1230],
"errStatPlus":
[345, 210, 285, 220, 220, 185, 215, 190, 150, 115, 125],
"errStatMinus":
[345, 210, 285, 220, 220, 185, 215, 190, 150, 115, 125],
"errSysPlus":
[0., 0., 0., 0., 0., 0., 0., 0., 0., 0., 0.],
"errSysMinus":
[0., 0., 0., 0., 0., 0., 0., 0., 0., 0., 0.],
"binMin":
[0.1, 0.15, 0.2, 0.25, 0.3, 0.35, 0.4, 0.45, 0.5, 0.6, 0.7],
"binMax":
[0.15, 0.2, 0.25, 0.3, 0.35, 0.4, 0.45, 0.5, 0.6, 0.7, 0.8]
},
"imageblobslnk":NULL,"scoreslnk":2,"accesslnk":1,
"parnames":["theta interval for secondary particle"], "parvalues":["0.55-0.75"]
},
{
"trid":1,"testlnk":0,"referencelnk":45,"mcdetaillnk":1,
"beamlnk":45,"targetlnk":82,"observablelnk":8,"secondarylnk":211,"reactionlnk":1,
"datatable":{
"dtid":1,"datatypeslnk":2,
"title":"Production of pi+ in pi+ on Pb interactions at 12GeV/c, 0.75<theta<0.95 [rad]",
"npoints":0,
"nbins":[10],
"axisTitle":["momentum of pi+ [GeV/c]","Cross section [mb/(GeV/c/rad)]"],
"val":
[2100, 2860, 3050, 2890, 2250, 2720, 2060, 950, 720, 750],
"errStatPlus":
[325, 230, 215, 205, 165, 205, 200, 120, 60, 75],
"errStatMinus":
[325, 230, 215, 205, 165, 205, 200, 120, 60, 75],
"errSysPlus":
[0., 0., 0., 0., 0., 0., 0., 0., 0., 0.],
"errSysMinus":
[0., 0., 0., 0., 0., 0., 0., 0., 0., 0.],
"binMin":
[0.1, 0.15, 0.2, 0.25, 0.3, 0.35, 0.4, 0.45, 0.5, 0.6],
"binMax":
[0.15, 0.2, 0.25, 0.3, 0.35, 0.4, 0.45, 0.5, 0.6, 0.7]
},
"imageblobslnk":NULL,"scoreslnk":2,"accesslnk":1,
"parnames":["theta interval for secondary particle"], "parvalues":["0.75-0.95"]
},
{
"trid":1,"testlnk":0,"referencelnk":45,"mcdetaillnk":1,
"beamlnk":45,"targetlnk":82,"observablelnk":8,"secondarylnk":211,"reactionlnk":1,
"datatable":{
"dtid":1,"datatypeslnk":2,
"title":"Production of pi+ in pi+ on Pb interactions at 12GeV/c, 0.95<theta<1.15 [rad]",
"npoints":0,
"nbins":[9],
"axisTitle":["momentum of pi+ [GeV/c]","Cross section [mb/(GeV/c/rad)]"],
"val":
[1520, 2440, 2750, 2810, 1920, 1230, 860, 880, 870],
"errStatPlus":
[230, 190, 210, 190, 155, 105, 75, 75, 85],
"errStatMinus":
[230, 190, 210, 190, 155, 105, 75, 75, 85],
"errSysPlus":
[0., 0., 0., 0., 0., 0., 0., 0., 0.],
"errSysMinus":
[0., 0., 0., 0., 0., 0., 0., 0., 0.],
"binMin":
[0.1, 0.15, 0.2, 0.25, 0.3, 0.35, 0.4, 0.45, 0.5],
"binMax":
[0.15, 0.2, 0.25, 0.3, 0.35, 0.4, 0.45, 0.5, 0.6]
},
"imageblobslnk":NULL,"scoreslnk":2,"accesslnk":1,
"parnames":["theta interval for secondary particle"], "parvalues":["0.95-1.15"]
},
{
"trid":1,"testlnk":0,"referencelnk":45,"mcdetaillnk":1,
"beamlnk":45,"targetlnk":82,"observablelnk":8,"secondarylnk":211,"reactionlnk":1,
"datatable":{
"dtid":1,"datatypeslnk":2,
"title":"Production of pi+ in pi+ on Pb interactions at 12GeV/c, 1.15<theta<1.35 [rad]",
"npoints":0,
"nbins":[8],
"axisTitle":["momentum of pi+ [GeV/c]","Cross section [mb/(GeV/c/rad)]"],
"val":
[1560, 2310, 3220, 1800, 1700, 1250, 770, 660],
"errStatPlus":
[225, 180, 235, 140, 130, 110, 80, 70],
"errStatMinus":
[225, 180, 235, 140, 130, 110, 80, 70],
"errSysPlus":
[0., 0., 0., 0., 0., 0., 0., 0.],
"errSysMinus":
[0., 0., 0., 0., 0., 0., 0., 0.],
"binMin":
[0.1, 0.15, 0.2, 0.25, 0.3, 0.35, 0.4, 0.45],
"binMax":
[0.15, 0.2, 0.25, 0.3, 0.35, 0.4, 0.45, 0.5]
},
"imageblobslnk":NULL,"scoreslnk":2,"accesslnk":1,
"parnames":["theta interval for secondary particle"], "parvalues":["1.15-1.35"]
},
{
"trid":1,"testlnk":0,"referencelnk":45,"mcdetaillnk":1,
"beamlnk":45,"targetlnk":82,"observablelnk":8,"secondarylnk":211,"reactionlnk":1,
"datatable":{
"dtid":1,"datatypeslnk":2,
"title":"Production of pi+ in pi+ on Pb interactions at 12GeV/c, 1.35<theta<1.55 [rad]",
"npoints":0,
"nbins":[8],
"axisTitle":["momentum of pi+ [GeV/c]","Cross section [mb/(GeV/c/rad)]"],
"val":
[1370, 2420, 1560, 1500, 1200, 590, 470, 390],
"errStatPlus":
[235, 195, 135, 140, 120, 75, 60, 60],
"errStatMinus":
[235, 195, 135, 140, 120, 75, 60, 60],
"errSysPlus":
[0., 0., 0., 0., 0., 0., 0., 0.],
"errSysMinus":
[0., 0., 0., 0., 0., 0., 0., 0.],
"binMin":
[0.1, 0.15, 0.2, 0.25, 0.3, 0.35, 0.4, 0.45],
"binMax":
[0.15, 0.2, 0.25, 0.3, 0.35, 0.4, 0.45, 0.5]
},
"imageblobslnk":NULL,"scoreslnk":2,"accesslnk":1,
"parnames":["theta interval for secondary particle"], "parvalues":["1.35-1.55"]
},
{
"trid":1,"testlnk":0,"referencelnk":45,"mcdetaillnk":1,
"beamlnk":45,"targetlnk":82,"observablelnk":8,"secondarylnk":211,"reactionlnk":1,
"datatable":{
"dtid":1,"datatypeslnk":2,
"title":"Production of pi+ in pi+ on Pb interactions at 12GeV/c, 1.55<theta<1.75 [rad]",
"npoints":0,
"nbins":[8],
"axisTitle":["momentum of pi+ [GeV/c]","Cross section [mb/(GeV/c/rad)]"],
"val":
[1100, 2030, 1710, 760, 480, 450, 460, 370],
"errStatPlus":
[195, 185, 160, 90, 60, 65, 75, 75],
"errStatMinus":
[195, 185, 160, 90, 60, 65, 75, 75],
"errSysPlus":
[0., 0., 0., 0., 0., 0., 0., 0.],
"errSysMinus":
[0., 0., 0., 0., 0., 0., 0., 0.],
"binMin":
[0.1, 0.15, 0.2, 0.25, 0.3, 0.35, 0.4, 0.45],
"binMax":
[0.15, 0.2, 0.25, 0.3, 0.35, 0.4, 0.45, 0.5]
},
"imageblobslnk":NULL,"scoreslnk":2,"accesslnk":1,
"parnames":["theta interval for secondary particle"], "parvalues":["1.55-1.75"]
},
{
"trid":1,"testlnk":0,"referencelnk":45,"mcdetaillnk":1,
"beamlnk":45,"targetlnk":82,"observablelnk":8,"secondarylnk":211,"reactionlnk":1,
"datatable":{
"dtid":1,"datatypeslnk":2,
"title":"Production of pi+ in pi+ on Pb interactions at 12GeV/c, 1.75<theta<1.95 [rad]",
"npoints":0,
"nbins":[8],
"axisTitle":["momentum of pi+ [GeV/c]","Cross section [mb/(GeV/c/rad)]"],
"val":
[1030, 1610, 1220, 610, 570, 350, 200, 110],
"errStatPlus":
[160, 140, 125, 80, 85, 65, 50, 40],
"errStatMinus":
[160, 140, 125, 80, 85, 65, 50, 40],
"errSysPlus":
[0., 0., 0., 0., 0., 0., 0., 0.],
"errSysMinus":
[0., 0., 0., 0., 0., 0., 0., 0.],
"binMin":
[0.1, 0.15, 0.2, 0.25, 0.3, 0.35, 0.4, 0.45],
"binMax":
[0.15, 0.2, 0.25, 0.3, 0.35, 0.4, 0.45, 0.5]
},
"imageblobslnk":NULL,"scoreslnk":2,"accesslnk":1,
"parnames":["theta interval for secondary particle"], "parvalues":["1.75-1.95"]
},
{
"trid":1,"testlnk":0,"referencelnk":45,"mcdetaillnk":1,
"beamlnk":45,"targetlnk":82,"observablelnk":8,"secondarylnk":211,"reactionlnk":1,
"datatable":{
"dtid":1,"datatypeslnk":2,
"title":"Production of pi+ in pi+ on Pb interactions at 12GeV/c, 1.95<theta<2.15 [rad]",
"npoints":0,
"nbins":[8],
"axisTitle":["momentum of pi+ [GeV/c]","Cross section [mb/(GeV/c/rad)]"],
"val":
[910, 1210, 1090, 740, 320, 150, 150, 140],
"errStatPlus":
[160, 125, 125, 110, 70, 45, 50, 60],
"errStatMinus":
[160, 125, 125, 110, 70, 45, 50, 60],
"errSysPlus":
[0., 0., 0., 0., 0., 0., 0., 0.],
"errSysMinus":
[0., 0., 0., 0., 0., 0., 0., 0.],
"binMin":
[0.1, 0.15, 0.2, 0.25, 0.3, 0.35, 0.4, 0.45],
"binMax":
[0.15, 0.2, 0.25, 0.3, 0.35, 0.4, 0.45, 0.5]
},
"imageblobslnk":NULL,"scoreslnk":2,"accesslnk":1,
"parnames":["theta interval for secondary particle"], "parvalues":["1.95-2.15"]
},
{
"trid":1,"testlnk":0,"referencelnk":44,"mcdetaillnk":1,
"beamlnk":42,"targetlnk":82,"observablelnk":8,"secondarylnk":-211,"reactionlnk":1,
"datatable":{
"dtid":1,"datatypeslnk":2,
"title":"Production of pi- in pi+ on Pb interactions at 3GeV/c, 0.05<theta<0.1 [rad]",
"npoints":0,
"nbins":[4],
"axisTitle":["momentum of pi- [GeV/c]","Cross section [mb/(GeV/c/rad)]"],
"val":
[260, 170, 270, 200],
"errStatPlus":
[35, 20, 25, 25],
"errStatMinus":
[35, 20, 25, 25],
"errSysPlus":
[0., 0., 0., 0.],
"errSysMinus":
[0., 0., 0., 0.],
"binMin":
[0.5, 1, 1.5, 2],
"binMax":
[1, 1.5, 2, 2.5]
},
"imageblobslnk":NULL,"scoreslnk":2,"accesslnk":1,
"parnames":["theta interval for secondary particle"], "parvalues":["0.05-0.1"]
},
{
"trid":1,"testlnk":0,"referencelnk":44,"mcdetaillnk":1,
"beamlnk":42,"targetlnk":82,"observablelnk":8,"secondarylnk":-211,"reactionlnk":1,
"datatable":{
"dtid":1,"datatypeslnk":2,
"title":"Production of pi- in pi+ on Pb interactions at 3GeV/c, 0.1<theta<0.15 [rad]",
"npoints":0,
"nbins":[4],
"axisTitle":["momentum of pi- [GeV/c]","Cross section [mb/(GeV/c/rad)]"],
"val":
[270, 70, 70, 42],
"errStatPlus":
[30, 10, 15, 6.5],
"errStatMinus":
[30, 10, 15, 6.5],
"errSysPlus":
[0., 0., 0., 0.],
"errSysMinus":
[0., 0., 0., 0.],
"binMin":
[0.5, 1, 1.5, 2],
"binMax":
[1, 1.5, 2, 2.5]
},
"imageblobslnk":NULL,"scoreslnk":2,"accesslnk":1,
"parnames":["theta interval for secondary particle"], "parvalues":["0.1-0.15"]
},
{
"trid":1,"testlnk":0,"referencelnk":44,"mcdetaillnk":1,
"beamlnk":42,"targetlnk":82,"observablelnk":8,"secondarylnk":-211,"reactionlnk":1,
"datatable":{
"dtid":1,"datatypeslnk":2,
"title":"Production of pi- in pi+ on Pb interactions at 3GeV/c, 0.15<theta<0.2 [rad]",
"npoints":0,
"nbins":[4],
"axisTitle":["momentum of pi- [GeV/c]","Cross section [mb/(GeV/c/rad)]"],
"val":
[330, 200, 110, 60],
"errStatPlus":
[45, 25, 15, 10],
"errStatMinus":
[45, 25, 15, 10],
"errSysPlus":
[0., 0., 0., 0.],
"errSysMinus":
[0., 0., 0., 0.],
"binMin":
[0.5, 1, 1.5, 2],
"binMax":
[1, 1.5, 2, 2.5]
},
"imageblobslnk":NULL,"scoreslnk":2,"accesslnk":1,
"parnames":["theta interval for secondary particle"], "parvalues":["0.15-0.2"]
},
{
"trid":1,"testlnk":0,"referencelnk":44,"mcdetaillnk":1,
"beamlnk":42,"targetlnk":82,"observablelnk":8,"secondarylnk":-211,"reactionlnk":1,
"datatable":{
"dtid":1,"datatypeslnk":2,
"title":"Production of pi- in pi+ on Pb interactions at 3GeV/c, 0.2<theta<0.25 [rad]",
"npoints":0,
"nbins":[4],
"axisTitle":["momentum of pi- [GeV/c]","Cross section [mb/(GeV/c/rad)]"],
"val":
[210, 140, 70, 70],
"errStatPlus":
[40, 25, 20, 20],
"errStatMinus":
[40, 25, 20, 20],
"errSysPlus":
[0., 0., 0., 0.],
"errSysMinus":
[0., 0., 0., 0.],
"binMin":
[0.5, 1, 1.5, 1.5],
"binMax":
[1, 1.5, 2, 2]
},
"imageblobslnk":NULL,"scoreslnk":2,"accesslnk":1,
"parnames":["theta interval for secondary particle"], "parvalues":["0.2-0.25"]
},
{
"trid":1,"testlnk":0,"referencelnk":45,"mcdetaillnk":1,
"beamlnk":42,"targetlnk":82,"observablelnk":8,"secondarylnk":-211,"reactionlnk":1,
"datatable":{
"dtid":1,"datatypeslnk":2,
"title":"Production of pi- in pi+ on Pb interactions at 3GeV/c, 0.35<theta<0.55 [rad]",
"npoints":0,
"nbins":[10],
"axisTitle":["momentum of pi- [GeV/c]","Cross section [mb/(GeV/c/rad)]"],
"val":
[750, 770, 910, 860, 720, 690, 660, 500, 450, 360],
"errStatPlus":
[110, 65, 50, 35, 25, 25, 25, 20, 20, 25],
"errStatMinus":
[110, 65, 50, 35, 25, 25, 25, 20, 20, 25],
"errSysPlus":
[0., 0., 0., 0., 0., 0., 0., 0., 0., 0.],
"errSysMinus":
[0., 0., 0., 0., 0., 0., 0., 0., 0., 0.],
"binMin":
[0.15, 0.2, 0.25, 0.3, 0.35, 0.4, 0.45, 0.5, 0.6, 0.7],
"binMax":
[0.2, 0.25, 0.3, 0.35, 0.4, 0.45, 0.5, 0.6, 0.7, 0.8]
},
"imageblobslnk":NULL,"scoreslnk":2,"accesslnk":1,
"parnames":["theta interval for secondary particle"], "parvalues":["0.35-0.55"]
},
{
"trid":1,"testlnk":0,"referencelnk":45,"mcdetaillnk":1,
"beamlnk":42,"targetlnk":82,"observablelnk":8,"secondarylnk":-211,"reactionlnk":1,
"datatable":{
"dtid":1,"datatypeslnk":2,
"title":"Production of pi- in pi+ on Pb interactions at 3GeV/c, 0.55<theta<0.75 [rad]",
"npoints":0,
"nbins":[11],
"axisTitle":["momentum of pi- [GeV/c]","Cross section [mb/(GeV/c/rad)]"],
"val":
[1030, 1140, 950, 890, 780, 770, 700, 610, 530, 410, 280],
"errStatPlus":
[145, 70, 45, 40, 30, 30, 25, 20, 20, 20, 20],
"errStatMinus":
[145, 70, 45, 40, 30, 30, 25, 20, 20, 20, 20],
"errSysPlus":
[0., 0., 0., 0., 0., 0., 0., 0., 0., 0., 0.],
"errSysMinus":
[0., 0., 0., 0., 0., 0., 0., 0., 0., 0., 0.],
"binMin":
[0.1, 0.15, 0.2, 0.25, 0.3, 0.35, 0.4, 0.45, 0.5, 0.6, 0.7],
"binMax":
[0.15, 0.2, 0.25, 0.3, 0.35, 0.4, 0.45, 0.5, 0.6, 0.7, 0.8]
},
"imageblobslnk":NULL,"scoreslnk":2,"accesslnk":1,
"parnames":["theta interval for secondary particle"], "parvalues":["0.55-0.75"]
},
{
"trid":1,"testlnk":0,"referencelnk":45,"mcdetaillnk":1,
"beamlnk":42,"targetlnk":82,"observablelnk":8,"secondarylnk":-211,"reactionlnk":1,
"datatable":{
"dtid":1,"datatypeslnk":2,
"title":"Production of pi- in pi+ on Pb interactions at 3GeV/c, 0.75<theta<0.95 [rad]",
"npoints":0,
"nbins":[10],
"axisTitle":["momentum of pi- [GeV/c]","Cross section [mb/(GeV/c/rad)]"],
"val":
[1170, 1150, 1080, 950, 760, 600, 550, 490, 390, 270],
"errStatPlus":
[115, 55, 45, 30, 25, 20, 20, 15, 15, 15],
"errStatMinus":
[115, 55, 45, 30, 25, 20, 20, 15, 15, 15],
"errSysPlus":
[0., 0., 0., 0., 0., 0., 0., 0., 0., 0.],
"errSysMinus":
[0., 0., 0., 0., 0., 0., 0., 0., 0., 0.],
"binMin":
[0.1, 0.15, 0.2, 0.25, 0.3, 0.35, 0.4, 0.45, 0.5, 0.6],
"binMax":
[0.15, 0.2, 0.25, 0.3, 0.35, 0.4, 0.45, 0.5, 0.6, 0.7]
},
"imageblobslnk":NULL,"scoreslnk":2,"accesslnk":1,
"parnames":["theta interval for secondary particle"], "parvalues":["0.75-0.95"]
},
{
"trid":1,"testlnk":0,"referencelnk":45,"mcdetaillnk":1,
"beamlnk":42,"targetlnk":82,"observablelnk":8,"secondarylnk":-211,"reactionlnk":1,
"datatable":{
"dtid":1,"datatypeslnk":2,
"title":"Production of pi- in pi+ on Pb interactions at 3GeV/c, 0.95<theta<1.15 [rad]",
"npoints":0,
"nbins":[9],
"axisTitle":["momentum of pi- [GeV/c]","Cross section [mb/(GeV/c/rad)]"],
"val":
[1460, 1220, 920, 760, 590, 510, 440, 360, 280],
"errStatPlus":
[105, 45, 35, 25, 20, 15, 15, 10, 10],
"errStatMinus":
[105, 45, 35, 25, 20, 15, 15, 10, 10],
"errSysPlus":
[0., 0., 0., 0., 0., 0., 0., 0., 0.],
"errSysMinus":
[0., 0., 0., 0., 0., 0., 0., 0., 0.],
"binMin":
[0.1, 0.15, 0.2, 0.25, 0.3, 0.35, 0.4, 0.45, 0.5],
"binMax":
[0.15, 0.2, 0.25, 0.3, 0.35, 0.4, 0.45, 0.5, 0.6]
},
"imageblobslnk":NULL,"scoreslnk":2,"accesslnk":1,
"parnames":["theta interval for secondary particle"], "parvalues":["0.95-1.15"]
},
{
"trid":1,"testlnk":0,"referencelnk":45,"mcdetaillnk":1,
"beamlnk":42,"targetlnk":82,"observablelnk":8,"secondarylnk":-211,"reactionlnk":1,
"datatable":{
"dtid":1,"datatypeslnk":2,
"title":"Production of pi- in pi+ on Pb interactions at 3GeV/c, 1.15<theta<1.35 [rad]",
"npoints":0,
"nbins":[8],
"axisTitle":["momentum of pi- [GeV/c]","Cross section [mb/(GeV/c/rad)]"],
"val":
[1420, 1260, 840, 620, 500, 380, 300, 250],
"errStatPlus":
[115, 45, 30, 25, 20, 15, 10, 10],
"errStatMinus":
[115, 45, 30, 25, 20, 15, 10, 10],
"errSysPlus":
[0., 0., 0., 0., 0., 0., 0., 0.],
"errSysMinus":
[0., 0., 0., 0., 0., 0., 0., 0.],
"binMin":
[0.1, 0.15, 0.2, 0.25, 0.3, 0.35, 0.4, 0.45],
"binMax":
[0.15, 0.2, 0.25, 0.3, 0.35, 0.4, 0.45, 0.5]
},
"imageblobslnk":NULL,"scoreslnk":2,"accesslnk":1,
"parnames":["theta interval for secondary particle"], "parvalues":["1.15-1.35"]
},
{
"trid":1,"testlnk":0,"referencelnk":45,"mcdetaillnk":1,
"beamlnk":42,"targetlnk":82,"observablelnk":8,"secondarylnk":-211,"reactionlnk":1,
"datatable":{
"dtid":1,"datatypeslnk":2,
"title":"Production of pi- in pi+ on Pb interactions at 3GeV/c, 1.35<theta<1.55 [rad]",
"npoints":0,
"nbins":[8],
"axisTitle":["momentum of pi- [GeV/c]","Cross section [mb/(GeV/c/rad)]"],
"val":
[1500, 1250, 710, 550, 460, 310, 210, 180],
"errStatPlus":
[150, 40, 30, 25, 20, 15, 10, 10],
"errStatMinus":
[150, 40, 30, 25, 20, 15, 10, 10],
"errSysPlus":
[0., 0., 0., 0., 0., 0., 0., 0.],
"errSysMinus":
[0., 0., 0., 0., 0., 0., 0., 0.],
"binMin":
[0.1, 0.15, 0.2, 0.25, 0.3, 0.35, 0.4, 0.45],
"binMax":
[0.15, 0.2, 0.25, 0.3, 0.35, 0.4, 0.45, 0.5]
},
"imageblobslnk":NULL,"scoreslnk":2,"accesslnk":1,
"parnames":["theta interval for secondary particle"], "parvalues":["1.35-1.55"]
},
{
"trid":1,"testlnk":0,"referencelnk":45,"mcdetaillnk":1,
"beamlnk":42,"targetlnk":82,"observablelnk":8,"secondarylnk":-211,"reactionlnk":1,
"datatable":{
"dtid":1,"datatypeslnk":2,
"title":"Production of pi- in pi+ on Pb interactions at 3GeV/c, 1.55<theta<1.75 [rad]",
"npoints":0,
"nbins":[8],
"axisTitle":["momentum of pi- [GeV/c]","Cross section [mb/(GeV/c/rad)]"],
"val":
[1380, 1070, 590, 460, 330, 220, 160, 120],
"errStatPlus":
[120, 35, 25, 20, 15, 10, 10, 5],
"errStatMinus":
[120, 35, 25, 20, 15, 10, 10, 5],
"errSysPlus":
[0., 0., 0., 0., 0., 0., 0., 0.],
"errSysMinus":
[0., 0., 0., 0., 0., 0., 0., 0.],
"binMin":
[0.1, 0.15, 0.2, 0.25, 0.3, 0.35, 0.4, 0.45],
"binMax":
[0.15, 0.2, 0.25, 0.3, 0.35, 0.4, 0.45, 0.5]
},
"imageblobslnk":NULL,"scoreslnk":2,"accesslnk":1,
"parnames":["theta interval for secondary particle"], "parvalues":["1.55-1.75"]
},
{
"trid":1,"testlnk":0,"referencelnk":45,"mcdetaillnk":1,
"beamlnk":42,"targetlnk":82,"observablelnk":8,"secondarylnk":-211,"reactionlnk":1,
"datatable":{
"dtid":1,"datatypeslnk":2,
"title":"Production of pi- in pi+ on Pb interactions at 3GeV/c, 1.75<theta<1.95 [rad]",
"npoints":0,
"nbins":[8],
"axisTitle":["momentum of pi- [GeV/c]","Cross section [mb/(GeV/c/rad)]"],
"val":
[1170, 810, 480, 300, 180, 160, 120, 90],
"errStatPlus":
[75, 30, 20, 15, 10, 10, 5, 5],
"errStatMinus":
[75, 30, 20, 15, 10, 10, 5, 5],
"errSysPlus":
[0., 0., 0., 0., 0., 0., 0., 0.],
"errSysMinus":
[0., 0., 0., 0., 0., 0., 0., 0.],
"binMin":
[0.1, 0.15, 0.2, 0.25, 0.3, 0.35, 0.4, 0.45],
"binMax":
[0.15, 0.2, 0.25, 0.3, 0.35, 0.4, 0.45, 0.5]
},
"imageblobslnk":NULL,"scoreslnk":2,"accesslnk":1,
"parnames":["theta interval for secondary particle"], "parvalues":["1.75-1.95"]
},
{
"trid":1,"testlnk":0,"referencelnk":45,"mcdetaillnk":1,
"beamlnk":42,"targetlnk":82,"observablelnk":8,"secondarylnk":-211,"reactionlnk":1,
"datatable":{
"dtid":1,"datatypeslnk":2,
"title":"Production of pi- in pi+ on Pb interactions at 3GeV/c, 1.95<theta<2.15 [rad]",
"npoints":0,
"nbins":[8],
"axisTitle":["momentum of pi- [GeV/c]","Cross section [mb/(GeV/c/rad)]"],
"val":
[1030, 630, 420, 270, 210, 160, 100, 70],
"errStatPlus":
[70, 25, 20, 15, 15, 15, 10, 5],
"errStatMinus":
[70, 25, 20, 15, 15, 15, 10, 5],
"errSysPlus":
[0., 0., 0., 0., 0., 0., 0., 0.],
"errSysMinus":
[0., 0., 0., 0., 0., 0., 0., 0.],
"binMin":
[0.1, 0.15, 0.2, 0.25, 0.3, 0.35, 0.4, 0.45],
"binMax":
[0.15, 0.2, 0.25, 0.3, 0.35, 0.4, 0.45, 0.5]
},
"imageblobslnk":NULL,"scoreslnk":2,"accesslnk":1,
"parnames":["theta interval for secondary particle"], "parvalues":["1.95-2.15"]
},
{
"trid":1,"testlnk":0,"referencelnk":44,"mcdetaillnk":1,
"beamlnk":43,"targetlnk":82,"observablelnk":8,"secondarylnk":-211,"reactionlnk":1,
"datatable":{
"dtid":1,"datatypeslnk":2,
"title":"Production of pi- in pi+ on Pb interactions at 5GeV/c, 0.05<theta<0.1 [rad]",
"npoints":0,
"nbins":[8],
"axisTitle":["momentum of pi- [GeV/c]","Cross section [mb/(GeV/c/rad)]"],
"val":
[590, 520, 380, 310, 310, 230, 260, 130],
"errStatPlus":
[55, 35, 30, 20, 20, 15, 20, 15],
"errStatMinus":
[55, 35, 30, 20, 20, 15, 20, 15],
"errSysPlus":
[0., 0., 0., 0., 0., 0., 0., 0.],
"errSysMinus":
[0., 0., 0., 0., 0., 0., 0., 0.],
"binMin":
[0.5, 1, 1.5, 2, 2.5, 3, 3.5, 4],
"binMax":
[1, 1.5, 2, 2.5, 3, 3.5, 4, 5]
},
"imageblobslnk":NULL,"scoreslnk":2,"accesslnk":1,
"parnames":["theta interval for secondary particle"], "parvalues":["0.05-0.1"]
},
{
"trid":1,"testlnk":0,"referencelnk":44,"mcdetaillnk":1,
"beamlnk":43,"targetlnk":82,"observablelnk":8,"secondarylnk":-211,"reactionlnk":1,
"datatable":{
"dtid":1,"datatypeslnk":2,
"title":"Production of pi- in pi+ on Pb interactions at 5GeV/c, 0.1<theta<0.15 [rad]",
"npoints":0,
"nbins":[8],
"axisTitle":["momentum of pi- [GeV/c]","Cross section [mb/(GeV/c/rad)]"],
"val":
[650, 410, 300, 250, 200, 100, 46, 50],
"errStatPlus":
[55, 35, 25, 20, 20, 10, 6, 10],
"errStatMinus":
[55, 35, 25, 20, 20, 10, 6, 10],
"errSysPlus":
[0., 0., 0., 0., 0., 0., 0., 0.],
"errSysMinus":
[0., 0., 0., 0., 0., 0., 0., 0.],
"binMin":
[0.5, 1, 1.5, 2, 2.5, 3, 3.5, 4],
"binMax":
[1, 1.5, 2, 2.5, 3, 3.5, 4, 5]
},
"imageblobslnk":NULL,"scoreslnk":2,"accesslnk":1,
"parnames":["theta interval for secondary particle"], "parvalues":["0.1-0.15"]
},
{
"trid":1,"testlnk":0,"referencelnk":44,"mcdetaillnk":1,
"beamlnk":43,"targetlnk":82,"observablelnk":8,"secondarylnk":-211,"reactionlnk":1,
"datatable":{
"dtid":1,"datatypeslnk":2,
"title":"Production of pi- in pi+ on Pb interactions at 5GeV/c, 0.15<theta<0.2 [rad]",
"npoints":0,
"nbins":[8],
"axisTitle":["momentum of pi- [GeV/c]","Cross section [mb/(GeV/c/rad)]"],
"val":
[790, 430, 310, 280, 90, 35, 15, 2],
"errStatPlus":
[65, 35, 25, 25, 15, 6.5, 4, 1],
"errStatMinus":
[65, 35, 25, 25, 15, 6.5, 4, 1],
"errSysPlus":
[0., 0., 0., 0., 0., 0., 0., 0.],
"errSysMinus":
[0., 0., 0., 0., 0., 0., 0., 0.],
"binMin":
[0.5, 1, 1.5, 2, 2.5, 3, 3.5, 4],
"binMax":
[1, 1.5, 2, 2.5, 3, 3.5, 4, 5]
},
"imageblobslnk":NULL,"scoreslnk":2,"accesslnk":1,
"parnames":["theta interval for secondary particle"], "parvalues":["0.15-0.2"]
},
{
"trid":1,"testlnk":0,"referencelnk":44,"mcdetaillnk":1,
"beamlnk":43,"targetlnk":82,"observablelnk":8,"secondarylnk":-211,"reactionlnk":1,
"datatable":{
"dtid":1,"datatypeslnk":2,
"title":"Production of pi- in pi+ on Pb interactions at 5GeV/c, 0.2<theta<0.25 [rad]",
"npoints":0,
"nbins":[8],
"axisTitle":["momentum of pi- [GeV/c]","Cross section [mb/(GeV/c/rad)]"],
"val":
[580, 350, 140, 90, 33, 13, 13, 0],
"errStatPlus":
[65, 40, 25, 15, 7, 4, 5, 5],
"errStatMinus":
[65, 40, 25, 15, 7, 4, 5, 5],
"errSysPlus":
[0., 0., 0., 0., 0., 0., 0., 0.],
"errSysMinus":
[0., 0., 0., 0., 0., 0., 0., 0.],
"binMin":
[0.5, 1, 1.5, 2, 2.5, 3, 3.5, 4],
"binMax":
[1, 1.5, 2, 2.5, 3, 3.5, 4, 5]
},
"imageblobslnk":NULL,"scoreslnk":2,"accesslnk":1,
"parnames":["theta interval for secondary particle"], "parvalues":["0.2-0.25"]
},
{
"trid":1,"testlnk":0,"referencelnk":45,"mcdetaillnk":1,
"beamlnk":43,"targetlnk":82,"observablelnk":8,"secondarylnk":-211,"reactionlnk":1,
"datatable":{
"dtid":1,"datatypeslnk":2,
"title":"Production of pi- in pi+ on Pb interactions at 5GeV/c, 0.35<theta<0.55 [rad]",
"npoints":0,
"nbins":[10],
"axisTitle":["momentum of pi- [GeV/c]","Cross section [mb/(GeV/c/rad)]"],
"val":
[1440, 1440, 1590, 1540, 1380, 1260, 1120, 1130, 930, 840],
"errStatPlus":
[175, 100, 75, 50, 40, 35, 30, 30, 40, 40],
"errStatMinus":
[175, 100, 75, 50, 40, 35, 30, 30, 40, 40],
"errSysPlus":
[0., 0., 0., 0., 0., 0., 0., 0., 0., 0.],
"errSysMinus":
[0., 0., 0., 0., 0., 0., 0., 0., 0., 0.],
"binMin":
[0.15, 0.2, 0.25, 0.3, 0.35, 0.4, 0.45, 0.5, 0.6, 0.7],
"binMax":
[0.2, 0.25, 0.3, 0.35, 0.4, 0.45, 0.5, 0.6, 0.7, 0.8]
},
"imageblobslnk":NULL,"scoreslnk":2,"accesslnk":1,
"parnames":["theta interval for secondary particle"], "parvalues":["0.35-0.55"]
},
{
"trid":1,"testlnk":0,"referencelnk":45,"mcdetaillnk":1,
"beamlnk":43,"targetlnk":82,"observablelnk":8,"secondarylnk":-211,"reactionlnk":1,
"datatable":{
"dtid":1,"datatypeslnk":2,
"title":"Production of pi- in pi+ on Pb interactions at 5GeV/c, 0.55<theta<0.75 [rad]",
"npoints":0,
"nbins":[11],
"axisTitle":["momentum of pi- [GeV/c]","Cross section [mb/(GeV/c/rad)]"],
"val":
[1370, 1740, 1690, 1620, 1390, 1110, 1130, 1100, 980, 690, 520],
"errStatPlus":
[215, 105, 60, 50, 40, 30, 35, 30, 30, 35, 35],
"errStatMinus":
[215, 105, 60, 50, 40, 30, 35, 30, 30, 35, 35],
"errSysPlus":
[0., 0., 0., 0., 0., 0., 0., 0., 0., 0., 0.],
"errSysMinus":
[0., 0., 0., 0., 0., 0., 0., 0., 0., 0., 0.],
"binMin":
[0.1, 0.15, 0.2, 0.25, 0.3, 0.35, 0.4, 0.45, 0.5, 0.6, 0.7],
"binMax":
[0.15, 0.2, 0.25, 0.3, 0.35, 0.4, 0.45, 0.5, 0.6, 0.7, 0.8]
},
"imageblobslnk":NULL,"scoreslnk":2,"accesslnk":1,
"parnames":["theta interval for secondary particle"], "parvalues":["0.55-0.75"]
},
{
"trid":1,"testlnk":0,"referencelnk":45,"mcdetaillnk":1,
"beamlnk":43,"targetlnk":82,"observablelnk":8,"secondarylnk":-211,"reactionlnk":1,
"datatable":{
"dtid":1,"datatypeslnk":2,
"title":"Production of pi- in pi+ on Pb interactions at 5GeV/c, 0.75<theta<0.95 [rad]",
"npoints":0,
"nbins":[10],
"axisTitle":["momentum of pi- [GeV/c]","Cross section [mb/(GeV/c/rad)]"],
"val":
[1550, 1960, 1750, 1370, 1210, 1130, 970, 830, 650, 480],
"errStatPlus":
[150, 70, 55, 40, 40, 30, 25, 20, 20, 20],
"errStatMinus":
[150, 70, 55, 40, 40, 30, 25, 20, 20, 20],
"errSysPlus":
[0., 0., 0., 0., 0., 0., 0., 0., 0., 0.],
"errSysMinus":
[0., 0., 0., 0., 0., 0., 0., 0., 0., 0.],
"binMin":
[0.1, 0.15, 0.2, 0.25, 0.3, 0.35, 0.4, 0.45, 0.5, 0.6],
"binMax":
[0.15, 0.2, 0.25, 0.3, 0.35, 0.4, 0.45, 0.5, 0.6, 0.7]
},
"imageblobslnk":NULL,"scoreslnk":2,"accesslnk":1,
"parnames":["theta interval for secondary particle"], "parvalues":["0.75-0.95"]
},
{
"trid":1,"testlnk":0,"referencelnk":45,"mcdetaillnk":1,
"beamlnk":43,"targetlnk":82,"observablelnk":8,"secondarylnk":-211,"reactionlnk":1,
"datatable":{
"dtid":1,"datatypeslnk":2,
"title":"Production of pi- in pi+ on Pb interactions at 5GeV/c, 0.95<theta<1.15 [rad]",
"npoints":0,
"nbins":[9],
"axisTitle":["momentum of pi- [GeV/c]","Cross section [mb/(GeV/c/rad)]"],
"val":
[1610, 1820, 1530, 1190, 1030, 880, 740, 620, 440],
"errStatPlus":
[130, 65, 50, 40, 35, 25, 20, 20, 20],
"errStatMinus":
[130, 65, 50, 40, 35, 25, 20, 20, 20],
"errSysPlus":
[0., 0., 0., 0., 0., 0., 0., 0., 0.],
"errSysMinus":
[0., 0., 0., 0., 0., 0., 0., 0., 0.],
"binMin":
[0.1, 0.15, 0.2, 0.25, 0.3, 0.35, 0.4, 0.45, 0.5],
"binMax":
[0.15, 0.2, 0.25, 0.3, 0.35, 0.4, 0.45, 0.5, 0.6]
},
"imageblobslnk":NULL,"scoreslnk":2,"accesslnk":1,
"parnames":["theta interval for secondary particle"], "parvalues":["0.95-1.15"]
},
{
"trid":1,"testlnk":0,"referencelnk":45,"mcdetaillnk":1,
"beamlnk":43,"targetlnk":82,"observablelnk":8,"secondarylnk":-211,"reactionlnk":1,
"datatable":{
"dtid":1,"datatypeslnk":2,
"title":"Production of pi- in pi+ on Pb interactions at 5GeV/c, 1.15<theta<1.35 [rad]",
"npoints":0,
"nbins":[8],
"axisTitle":["momentum of pi- [GeV/c]","Cross section [mb/(GeV/c/rad)]"],
"val":
[1710, 1910, 1320, 990, 880, 720, 520, 400],
"errStatPlus":
[145, 60, 45, 35, 30, 25, 20, 15],
"errStatMinus":
[145, 60, 45, 35, 30, 25, 20, 15],
"errSysPlus":
[0., 0., 0., 0., 0., 0., 0., 0.],
"errSysMinus":
[0., 0., 0., 0., 0., 0., 0., 0.],
"binMin":
[0.1, 0.15, 0.2, 0.25, 0.3, 0.35, 0.4, 0.45],
"binMax":
[0.15, 0.2, 0.25, 0.3, 0.35, 0.4, 0.45, 0.5]
},
"imageblobslnk":NULL,"scoreslnk":2,"accesslnk":1,
"parnames":["theta interval for secondary particle"], "parvalues":["1.15-1.35"]
},
{
"trid":1,"testlnk":0,"referencelnk":45,"mcdetaillnk":1,
"beamlnk":43,"targetlnk":82,"observablelnk":8,"secondarylnk":-211,"reactionlnk":1,
"datatable":{
"dtid":1,"datatypeslnk":2,
"title":"Production of pi- in pi+ on Pb interactions at 5GeV/c, 1.35<theta<1.55 [rad]",
"npoints":0,
"nbins":[8],
"axisTitle":["momentum of pi- [GeV/c]","Cross section [mb/(GeV/c/rad)]"],
"val":
[1970, 1810, 1180, 810, 670, 540, 370, 250],
"errStatPlus":
[170, 55, 40, 30, 25, 20, 15, 15],
"errStatMinus":
[170, 55, 40, 30, 25, 20, 15, 15],
"errSysPlus":
[0., 0., 0., 0., 0., 0., 0., 0.],
"errSysMinus":
[0., 0., 0., 0., 0., 0., 0., 0.],
"binMin":
[0.1, 0.15, 0.2, 0.25, 0.3, 0.35, 0.4, 0.45],
"binMax":
[0.15, 0.2, 0.25, 0.3, 0.35, 0.4, 0.45, 0.5]
},
"imageblobslnk":NULL,"scoreslnk":2,"accesslnk":1,
"parnames":["theta interval for secondary particle"], "parvalues":["1.35-1.55"]
},
{
"trid":1,"testlnk":0,"referencelnk":45,"mcdetaillnk":1,
"beamlnk":43,"targetlnk":82,"observablelnk":8,"secondarylnk":-211,"reactionlnk":1,
"datatable":{
"dtid":1,"datatypeslnk":2,
"title":"Production of pi- in pi+ on Pb interactions at 5GeV/c, 1.55<theta<1.75 [rad]",
"npoints":0,
"nbins":[8],
"axisTitle":["momentum of pi- [GeV/c]","Cross section [mb/(GeV/c/rad)]"],
"val":
[1860, 1420, 960, 620, 520, 410, 320, 240],
"errStatPlus":
[145, 50, 35, 25, 20, 15, 15, 10],
"errStatMinus":
[145, 50, 35, 25, 20, 15, 15, 10],
"errSysPlus":
[0., 0., 0., 0., 0., 0., 0., 0.],
"errSysMinus":
[0., 0., 0., 0., 0., 0., 0., 0.],
"binMin":
[0.1, 0.15, 0.2, 0.25, 0.3, 0.35, 0.4, 0.45],
"binMax":
[0.15, 0.2, 0.25, 0.3, 0.35, 0.4, 0.45, 0.5]
},
"imageblobslnk":NULL,"scoreslnk":2,"accesslnk":1,
"parnames":["theta interval for secondary particle"], "parvalues":["1.55-1.75"]
},
{
"trid":1,"testlnk":0,"referencelnk":45,"mcdetaillnk":1,
"beamlnk":43,"targetlnk":82,"observablelnk":8,"secondarylnk":-211,"reactionlnk":1,
"datatable":{
"dtid":1,"datatypeslnk":2,
"title":"Production of pi- in pi+ on Pb interactions at 5GeV/c, 1.75<theta<1.95 [rad]",
"npoints":0,
"nbins":[8],
"axisTitle":["momentum of pi- [GeV/c]","Cross section [mb/(GeV/c/rad)]"],
"val":
[1550, 1080, 760, 450, 340, 250, 180, 130],
"errStatPlus":
[105, 35, 25, 20, 15, 10, 10, 5],
"errStatMinus":
[105, 35, 25, 20, 15, 10, 10, 5],
"errSysPlus":
[0., 0., 0., 0., 0., 0., 0., 0.],
"errSysMinus":
[0., 0., 0., 0., 0., 0., 0., 0.],
"binMin":
[0.1, 0.15, 0.2, 0.25, 0.3, 0.35, 0.4, 0.45],
"binMax":
[0.15, 0.2, 0.25, 0.3, 0.35, 0.4, 0.45, 0.5]
},
"imageblobslnk":NULL,"scoreslnk":2,"accesslnk":1,
"parnames":["theta interval for secondary particle"], "parvalues":["1.75-1.95"]
},
{
"trid":1,"testlnk":0,"referencelnk":45,"mcdetaillnk":1,
"beamlnk":43,"targetlnk":82,"observablelnk":8,"secondarylnk":-211,"reactionlnk":1,
"datatable":{
"dtid":1,"datatypeslnk":2,
"title":"Production of pi- in pi+ on Pb interactions at 5GeV/c, 1.95<theta<2.15 [rad]",
"npoints":0,
"nbins":[8],
"axisTitle":["momentum of pi- [GeV/c]","Cross section [mb/(GeV/c/rad)]"],
"val":
[1360, 910, 560, 380, 260, 180, 120, 80],
"errStatPlus":
[100, 30, 20, 15, 15, 10, 5, 5],
"errStatMinus":
[100, 30, 20, 15, 15, 10, 5, 5],
"errSysPlus":
[0., 0., 0., 0., 0., 0., 0., 0.],
"errSysMinus":
[0., 0., 0., 0., 0., 0., 0., 0.],
"binMin":
[0.1, 0.15, 0.2, 0.25, 0.3, 0.35, 0.4, 0.45],
"binMax":
[0.15, 0.2, 0.25, 0.3, 0.35, 0.4, 0.45, 0.5]
},
"imageblobslnk":NULL,"scoreslnk":2,"accesslnk":1,
"parnames":["theta interval for secondary particle"], "parvalues":["1.95-2.15"]
},
{
"trid":1,"testlnk":0,"referencelnk":44,"mcdetaillnk":1,
"beamlnk":44,"targetlnk":82,"observablelnk":8,"secondarylnk":-211,"reactionlnk":1,
"datatable":{
"dtid":1,"datatypeslnk":2,
"title":"Production of pi- in pi+ on Pb interactions at 8GeV/c, 0.05<theta<0.1 [rad]",
"npoints":0,
"nbins":[10],
"axisTitle":["momentum of pi- [GeV/c]","Cross section [mb/(GeV/c/rad)]"],
"val":
[980, 1000, 790, 480, 510, 410, 390, 290, 130, -1000],
"errStatPlus":
[75, 60, 50, 35, 35, 30, 30, 15, 10, -500],
"errStatMinus":
[75, 60, 50, 35, 35, 30, 30, 15, 10, -500],
"errSysPlus":
[0., 0., 0., 0., 0., 0., 0., 0., 0., 0.],
"errSysMinus":
[0., 0., 0., 0., 0., 0., 0., 0., 0., 0.],
"binMin":
[0.5, 1, 1.5, 2, 2.5, 3, 3.5, 4, 5, 6.5],
"binMax":
[1, 1.5, 2, 2.5, 3, 3.5, 4, 5, 6.5, 8]
},
"imageblobslnk":NULL,"scoreslnk":2,"accesslnk":1,
"parnames":["theta interval for secondary particle"], "parvalues":["0.05-0.1"]
},
{
"trid":1,"testlnk":0,"referencelnk":44,"mcdetaillnk":1,
"beamlnk":44,"targetlnk":82,"observablelnk":8,"secondarylnk":-211,"reactionlnk":1,
"datatable":{
"dtid":1,"datatypeslnk":2,
"title":"Production of pi- in pi+ on Pb interactions at 8GeV/c, 0.1<theta<0.15 [rad]",
"npoints":0,
"nbins":[10],
"axisTitle":["momentum of pi- [GeV/c]","Cross section [mb/(GeV/c/rad)]"],
"val":
[1360, 810, 790, 390, 390, 280, 270, 100, 15, -1000],
"errStatPlus":
[100, 65, 50, 30, 40, 40, 25, 10, 2.5, -500],
"errStatMinus":
[100, 65, 50, 30, 40, 40, 25, 10, 2.5, -500],
"errSysPlus":
[0., 0., 0., 0., 0., 0., 0., 0., 0., 0.],
"errSysMinus":
[0., 0., 0., 0., 0., 0., 0., 0., 0., 0.],
"binMin":
[0.5, 1, 1.5, 2, 2.5, 3, 3.5, 4, 5, 6.5],
"binMax":
[1, 1.5, 2, 2.5, 3, 3.5, 4, 5, 6.5, 8]
},
"imageblobslnk":NULL,"scoreslnk":2,"accesslnk":1,
"parnames":["theta interval for secondary particle"], "parvalues":["0.1-0.15"]
},
{
"trid":1,"testlnk":0,"referencelnk":44,"mcdetaillnk":1,
"beamlnk":44,"targetlnk":82,"observablelnk":8,"secondarylnk":-211,"reactionlnk":1,
"datatable":{
"dtid":1,"datatypeslnk":2,
"title":"Production of pi- in pi+ on Pb interactions at 8GeV/c, 0.15<theta<0.2 [rad]",
"npoints":0,
"nbins":[10],
"axisTitle":["momentum of pi- [GeV/c]","Cross section [mb/(GeV/c/rad)]"],
"val":
[1210, 760, 650, 400, 180, 130, 70, 19, 4, -1000],
"errStatPlus":
[90, 55, 45, 35, 15, 15, 10, 4.5, 1.5, -500],
"errStatMinus":
[90, 55, 45, 35, 15, 15, 10, 4.5, 1.5, -500],
"errSysPlus":
[0., 0., 0., 0., 0., 0., 0., 0., 0., 0.],
"errSysMinus":
[0., 0., 0., 0., 0., 0., 0., 0., 0., 0.],
"binMin":
[0.5, 1, 1.5, 2, 2.5, 3, 3.5, 4, 5, 6.5],
"binMax":
[1, 1.5, 2, 2.5, 3, 3.5, 4, 5, 6.5, 8]
},
"imageblobslnk":NULL,"scoreslnk":2,"accesslnk":1,
"parnames":["theta interval for secondary particle"], "parvalues":["0.15-0.2"]
},
{
"trid":1,"testlnk":0,"referencelnk":44,"mcdetaillnk":1,
"beamlnk":44,"targetlnk":82,"observablelnk":8,"secondarylnk":-211,"reactionlnk":1,
"datatable":{
"dtid":1,"datatypeslnk":2,
"title":"Production of pi- in pi+ on Pb interactions at 8GeV/c, 0.2<theta<0.25 [rad]",
"npoints":0,
"nbins":[10],
"axisTitle":["momentum of pi- [GeV/c]","Cross section [mb/(GeV/c/rad)]"],
"val":
[900, 830, 380, 110, 60, 20, 4, 0, -1000, -1000],
"errStatPlus":
[80, 70, 45, 20, 10, 10, 3, 4.5, -500, -500],
"errStatMinus":
[80, 70, 45, 20, 10, 10, 3, 4.5, -500, -500],
"errSysPlus":
[0., 0., 0., 0., 0., 0., 0., 0., 0., 0.],
"errSysMinus":
[0., 0., 0., 0., 0., 0., 0., 0., 0., 0.],
"binMin":
[0.5, 1, 1.5, 2, 2.5, 3, 3.5, 4, 5, 6.5],
"binMax":
[1, 1.5, 2, 2.5, 3, 3.5, 4, 5, 6.5, 8]
},
"imageblobslnk":NULL,"scoreslnk":2,"accesslnk":1,
"parnames":["theta interval for secondary particle"], "parvalues":["0.2-0.25"]
},
{
"trid":1,"testlnk":0,"referencelnk":45,"mcdetaillnk":1,
"beamlnk":44,"targetlnk":82,"observablelnk":8,"secondarylnk":-211,"reactionlnk":1,
"datatable":{
"dtid":1,"datatypeslnk":2,
"title":"Production of pi- in pi+ on Pb interactions at 8GeV/c, 0.35<theta<0.55 [rad]",
"npoints":0,
"nbins":[10],
"axisTitle":["momentum of pi- [GeV/c]","Cross section [mb/(GeV/c/rad)]"],
"val":
[2030, 2260, 2090, 2140, 1900, 2020, 1680, 1490, 1410, 1240],
"errStatPlus":
[210, 115, 80, 60, 60, 55, 50, 40, 50, 70],
"errStatMinus":
[210, 115, 80, 60, 60, 55, 50, 40, 50, 70],
"errSysPlus":
[0., 0., 0., 0., 0., 0., 0., 0., 0., 0.],
"errSysMinus":
[0., 0., 0., 0., 0., 0., 0., 0., 0., 0.],
"binMin":
[0.15, 0.2, 0.25, 0.3, 0.35, 0.4, 0.45, 0.5, 0.6, 0.7],
"binMax":
[0.2, 0.25, 0.3, 0.35, 0.4, 0.45, 0.5, 0.6, 0.7, 0.8]
},
"imageblobslnk":NULL,"scoreslnk":2,"accesslnk":1,
"parnames":["theta interval for secondary particle"], "parvalues":["0.35-0.55"]
},
{
"trid":1,"testlnk":0,"referencelnk":45,"mcdetaillnk":1,
"beamlnk":44,"targetlnk":82,"observablelnk":8,"secondarylnk":-211,"reactionlnk":1,
"datatable":{
"dtid":1,"datatypeslnk":2,
"title":"Production of pi- in pi+ on Pb interactions at 8GeV/c, 0.55<theta<0.75 [rad]",
"npoints":0,
"nbins":[11],
"axisTitle":["momentum of pi- [GeV/c]","Cross section [mb/(GeV/c/rad)]"],
"val":
[1490, 2280, 2680, 1930, 1810, 1670, 1740, 1600, 1230, 1030, 840],
"errStatPlus":
[245, 120, 75, 55, 60, 40, 50, 40, 35, 40, 50],
"errStatMinus":
[245, 120, 75, 55, 60, 40, 50, 40, 35, 40, 50],
"errSysPlus":
[0., 0., 0., 0., 0., 0., 0., 0., 0., 0., 0.],
"errSysMinus":
[0., 0., 0., 0., 0., 0., 0., 0., 0., 0., 0.],
"binMin":
[0.1, 0.15, 0.2, 0.25, 0.3, 0.35, 0.4, 0.45, 0.5, 0.6, 0.7],
"binMax":
[0.15, 0.2, 0.25, 0.3, 0.35, 0.4, 0.45, 0.5, 0.6, 0.7, 0.8]
},
"imageblobslnk":NULL,"scoreslnk":2,"accesslnk":1,
"parnames":["theta interval for secondary particle"], "parvalues":["0.55-0.75"]
},
{
"trid":1,"testlnk":0,"referencelnk":45,"mcdetaillnk":1,
"beamlnk":44,"targetlnk":82,"observablelnk":8,"secondarylnk":-211,"reactionlnk":1,
"datatable":{
"dtid":1,"datatypeslnk":2,
"title":"Production of pi- in pi+ on Pb interactions at 8GeV/c, 0.75<theta<0.95 [rad]",
"npoints":0,
"nbins":[10],
"axisTitle":["momentum of pi- [GeV/c]","Cross section [mb/(GeV/c/rad)]"],
"val":
[2020, 2440, 2210, 1980, 1660, 1390, 1270, 1070, 800, 620],
"errStatPlus":
[200, 80, 65, 50, 40, 35, 35, 30, 25, 30],
"errStatMinus":
[200, 80, 65, 50, 40, 35, 35, 30, 25, 30],
"errSysPlus":
[0., 0., 0., 0., 0., 0., 0., 0., 0., 0.],
"errSysMinus":
[0., 0., 0., 0., 0., 0., 0., 0., 0., 0.],
"binMin":
[0.1, 0.15, 0.2, 0.25, 0.3, 0.35, 0.4, 0.45, 0.5, 0.6],
"binMax":
[0.15, 0.2, 0.25, 0.3, 0.35, 0.4, 0.45, 0.5, 0.6, 0.7]
},
"imageblobslnk":NULL,"scoreslnk":2,"accesslnk":1,
"parnames":["theta interval for secondary particle"], "parvalues":["0.75-0.95"]
},
{
"trid":1,"testlnk":0,"referencelnk":45,"mcdetaillnk":1,
"beamlnk":44,"targetlnk":82,"observablelnk":8,"secondarylnk":-211,"reactionlnk":1,
"datatable":{
"dtid":1,"datatypeslnk":2,
"title":"Production of pi- in pi+ on Pb interactions at 8GeV/c, 0.95<theta<1.15 [rad]",
"npoints":0,
"nbins":[9],
"axisTitle":["momentum of pi- [GeV/c]","Cross section [mb/(GeV/c/rad)]"],
"val":
[2490, 2480, 1950, 1630, 1320, 1110, 930, 800, 590],
"errStatPlus":
[180, 70, 55, 45, 40, 30, 25, 20, 20],
"errStatMinus":
[180, 70, 55, 45, 40, 30, 25, 20, 20],
"errSysPlus":
[0., 0., 0., 0., 0., 0., 0., 0., 0.],
"errSysMinus":
[0., 0., 0., 0., 0., 0., 0., 0., 0.],
"binMin":
[0.1, 0.15, 0.2, 0.25, 0.3, 0.35, 0.4, 0.45, 0.5],
"binMax":
[0.15, 0.2, 0.25, 0.3, 0.35, 0.4, 0.45, 0.5, 0.6]
},
"imageblobslnk":NULL,"scoreslnk":2,"accesslnk":1,
"parnames":["theta interval for secondary particle"], "parvalues":["0.95-1.15"]
},
{
"trid":1,"testlnk":0,"referencelnk":45,"mcdetaillnk":1,
"beamlnk":44,"targetlnk":82,"observablelnk":8,"secondarylnk":-211,"reactionlnk":1,
"datatable":{
"dtid":1,"datatypeslnk":2,
"title":"Production of pi- in pi+ on Pb interactions at 8GeV/c, 1.15<theta<1.35 [rad]",
"npoints":0,
"nbins":[8],
"axisTitle":["momentum of pi- [GeV/c]","Cross section [mb/(GeV/c/rad)]"],
"val":
[2470, 2370, 1830, 1420, 1050, 800, 610, 480],
"errStatPlus":
[195, 80, 55, 45, 35, 25, 20, 15],
"errStatMinus":
[195, 80, 55, 45, 35, 25, 20, 15],
"errSysPlus":
[0., 0., 0., 0., 0., 0., 0., 0.],
"errSysMinus":
[0., 0., 0., 0., 0., 0., 0., 0.],
"binMin":
[0.1, 0.15, 0.2, 0.25, 0.3, 0.35, 0.4, 0.45],
"binMax":
[0.15, 0.2, 0.25, 0.3, 0.35, 0.4, 0.45, 0.5]
},
"imageblobslnk":NULL,"scoreslnk":2,"accesslnk":1,
"parnames":["theta interval for secondary particle"], "parvalues":["1.15-1.35"]
},
{
"trid":1,"testlnk":0,"referencelnk":45,"mcdetaillnk":1,
"beamlnk":44,"targetlnk":82,"observablelnk":8,"secondarylnk":-211,"reactionlnk":1,
"datatable":{
"dtid":1,"datatypeslnk":2,
"title":"Production of pi- in pi+ on Pb interactions at 8GeV/c, 1.35<theta<1.55 [rad]",
"npoints":0,
"nbins":[8],
"axisTitle":["momentum of pi- [GeV/c]","Cross section [mb/(GeV/c/rad)]"],
"val":
[2430, 2160, 1550, 1150, 760, 600, 480, 350],
"errStatPlus":
[230, 75, 45, 40, 25, 20, 15, 15],
"errStatMinus":
[230, 75, 45, 40, 25, 20, 15, 15],
"errSysPlus":
[0., 0., 0., 0., 0., 0., 0., 0.],
"errSysMinus":
[0., 0., 0., 0., 0., 0., 0., 0.],
"binMin":
[0.1, 0.15, 0.2, 0.25, 0.3, 0.35, 0.4, 0.45],
"binMax":
[0.15, 0.2, 0.25, 0.3, 0.35, 0.4, 0.45, 0.5]
},
"imageblobslnk":NULL,"scoreslnk":2,"accesslnk":1,
"parnames":["theta interval for secondary particle"], "parvalues":["1.35-1.55"]
},
{
"trid":1,"testlnk":0,"referencelnk":45,"mcdetaillnk":1,
"beamlnk":44,"targetlnk":82,"observablelnk":8,"secondarylnk":-211,"reactionlnk":1,
"datatable":{
"dtid":1,"datatypeslnk":2,
"title":"Production of pi- in pi+ on Pb interactions at 8GeV/c, 1.55<theta<1.75 [rad]",
"npoints":0,
"nbins":[8],
"axisTitle":["momentum of pi- [GeV/c]","Cross section [mb/(GeV/c/rad)]"],
"val":
[2150, 1860, 1170, 770, 520, 410, 290, 210],
"errStatPlus":
[200, 55, 40, 35, 20, 15, 10, 10],
"errStatMinus":
[200, 55, 40, 35, 20, 15, 10, 10],
"errSysPlus":
[0., 0., 0., 0., 0., 0., 0., 0.],
"errSysMinus":
[0., 0., 0., 0., 0., 0., 0., 0.],
"binMin":
[0.1, 0.15, 0.2, 0.25, 0.3, 0.35, 0.4, 0.45],
"binMax":
[0.15, 0.2, 0.25, 0.3, 0.35, 0.4, 0.45, 0.5]
},
"imageblobslnk":NULL,"scoreslnk":2,"accesslnk":1,
"parnames":["theta interval for secondary particle"], "parvalues":["1.55-1.75"]
},
{
"trid":1,"testlnk":0,"referencelnk":45,"mcdetaillnk":1,
"beamlnk":44,"targetlnk":82,"observablelnk":8,"secondarylnk":-211,"reactionlnk":1,
"datatable":{
"dtid":1,"datatypeslnk":2,
"title":"Production of pi- in pi+ on Pb interactions at 8GeV/c, 1.75<theta<1.95 [rad]",
"npoints":0,
"nbins":[8],
"axisTitle":["momentum of pi- [GeV/c]","Cross section [mb/(GeV/c/rad)]"],
"val":
[1820, 1440, 910, 600, 410, 300, 220, 160],
"errStatPlus":
[130, 40, 30, 25, 15, 10, 10, 10],
"errStatMinus":
[130, 40, 30, 25, 15, 10, 10, 10],
"errSysPlus":
[0., 0., 0., 0., 0., 0., 0., 0.],
"errSysMinus":
[0., 0., 0., 0., 0., 0., 0., 0.],
"binMin":
[0.1, 0.15, 0.2, 0.25, 0.3, 0.35, 0.4, 0.45],
"binMax":
[0.15, 0.2, 0.25, 0.3, 0.35, 0.4, 0.45, 0.5]
},
"imageblobslnk":NULL,"scoreslnk":2,"accesslnk":1,
"parnames":["theta interval for secondary particle"], "parvalues":["1.75-1.95"]
},
{
"trid":1,"testlnk":0,"referencelnk":45,"mcdetaillnk":1,
"beamlnk":44,"targetlnk":82,"observablelnk":8,"secondarylnk":-211,"reactionlnk":1,
"datatable":{
"dtid":1,"datatypeslnk":2,
"title":"Production of pi- in pi+ on Pb interactions at 8GeV/c, 1.95<theta<2.15 [rad]",
"npoints":0,
"nbins":[8],
"axisTitle":["momentum of pi- [GeV/c]","Cross section [mb/(GeV/c/rad)]"],
"val":
[1630, 1160, 700, 420, 250, 150, 110, 90],
"errStatPlus":
[95, 30, 25, 20, 15, 10, 5, 5],
"errStatMinus":
[95, 30, 25, 20, 15, 10, 5, 5],
"errSysPlus":
[0., 0., 0., 0., 0., 0., 0., 0.],
"errSysMinus":
[0., 0., 0., 0., 0., 0., 0., 0.],
"binMin":
[0.1, 0.15, 0.2, 0.25, 0.3, 0.35, 0.4, 0.45],
"binMax":
[0.15, 0.2, 0.25, 0.3, 0.35, 0.4, 0.45, 0.5]
},
"imageblobslnk":NULL,"scoreslnk":2,"accesslnk":1,
"parnames":["theta interval for secondary particle"], "parvalues":["1.95-2.15"]
},
{
"trid":1,"testlnk":0,"referencelnk":44,"mcdetaillnk":1,
"beamlnk":45,"targetlnk":82,"observablelnk":8,"secondarylnk":-211,"reactionlnk":1,
"datatable":{
"dtid":1,"datatypeslnk":2,
"title":"Production of pi- in pi+ on Pb interactions at 12GeV/c, 0.05<theta<0.1 [rad]",
"npoints":0,
"nbins":[10],
"axisTitle":["momentum of pi- [GeV/c]","Cross section [mb/(GeV/c/rad)]"],
"val":
[930, 1920, 1340, 790, 640, 1380, 960, 400, 270, 60],
"errStatPlus":
[310, 355, 270, 190, 160, 255, 185, 90, 65, 25],
"errStatMinus":
[310, 355, 270, 190, 160, 255, 185, 90, 65, 25],
"errSysPlus":
[0., 0., 0., 0., 0., 0., 0., 0., 0., 0.],
"errSysMinus":
[0., 0., 0., 0., 0., 0., 0., 0., 0., 0.],
"binMin":
[0.5, 1, 1.5, 2, 2.5, 3, 3.5, 4, 5, 6.5],
"binMax":
[1, 1.5, 2, 2.5, 3, 3.5, 4, 5, 6.5, 8]
},
"imageblobslnk":NULL,"scoreslnk":2,"accesslnk":1,
"parnames":["theta interval for secondary particle"], "parvalues":["0.05-0.1"]
},
{
"trid":1,"testlnk":0,"referencelnk":44,"mcdetaillnk":1,
"beamlnk":45,"targetlnk":82,"observablelnk":8,"secondarylnk":-211,"reactionlnk":1,
"datatable":{
"dtid":1,"datatypeslnk":2,
"title":"Production of pi- in pi+ on Pb interactions at 12GeV/c, 0.1<theta<0.15 [rad]",
"npoints":0,
"nbins":[10],
"axisTitle":["momentum of pi- [GeV/c]","Cross section [mb/(GeV/c/rad)]"],
"val":
[2210, 1270, 700, 1700, 180, 580, 660, 260, 40, 23],
"errStatPlus":
[455, 290, 185, 325, 85, 165, 175, 105, 35, 19.5],
"errStatMinus":
[455, 290, 185, 325, 85, 165, 175, 105, 35, 19.5],
"errSysPlus":
[0., 0., 0., 0., 0., 0., 0., 0., 0., 0.],
"errSysMinus":
[0., 0., 0., 0., 0., 0., 0., 0., 0., 0.],
"binMin":
[0.5, 1, 1.5, 2, 2.5, 3, 3.5, 4, 5, 6.5],
"binMax":
[1, 1.5, 2, 2.5, 3, 3.5, 4, 5, 6.5, 8]
},
"imageblobslnk":NULL,"scoreslnk":2,"accesslnk":1,
"parnames":["theta interval for secondary particle"], "parvalues":["0.1-0.15"]
},
{
"trid":1,"testlnk":0,"referencelnk":44,"mcdetaillnk":1,
"beamlnk":45,"targetlnk":82,"observablelnk":8,"secondarylnk":-211,"reactionlnk":1,
"datatable":{
"dtid":1,"datatypeslnk":2,
"title":"Production of pi- in pi+ on Pb interactions at 12GeV/c, 0.15<theta<0.2 [rad]",
"npoints":0,
"nbins":[10],
"axisTitle":["momentum of pi- [GeV/c]","Cross section [mb/(GeV/c/rad)]"],
"val":
[680, 1560, 820, 840, 660, 300, 520, 130, 1, 5],
"errStatPlus":
[275, 385, 240, 215, 195, 120, 210, 95, 3, 11.5],
"errStatMinus":
[275, 385, 240, 215, 195, 120, 210, 95, 3, 11.5],
"errSysPlus":
[0., 0., 0., 0., 0., 0., 0., 0., 0., 0.],
"errSysMinus":
[0., 0., 0., 0., 0., 0., 0., 0., 0., 0.],
"binMin":
[0.5, 1, 1.5, 2, 2.5, 3, 3.5, 4, 5, 6.5],
"binMax":
[1, 1.5, 2, 2.5, 3, 3.5, 4, 5, 6.5, 8]
},
"imageblobslnk":NULL,"scoreslnk":2,"accesslnk":1,
"parnames":["theta interval for secondary particle"], "parvalues":["0.15-0.2"]
},
{
"trid":1,"testlnk":0,"referencelnk":44,"mcdetaillnk":1,
"beamlnk":45,"targetlnk":82,"observablelnk":8,"secondarylnk":-211,"reactionlnk":1,
"datatable":{
"dtid":1,"datatypeslnk":2,
"title":"Production of pi- in pi+ on Pb interactions at 12GeV/c, 0.2<theta<0.25 [rad]",
"npoints":0,
"nbins":[10],
"axisTitle":["momentum of pi- [GeV/c]","Cross section [mb/(GeV/c/rad)]"],
"val":
[780, 30, 670, 720, 110, 100, 90, 20, 0, 0],
"errStatPlus":
[325, 30, 540, 385, 85, 220, 465, 175, 25, 100],
"errStatMinus":
[325, 30, 540, 385, 85, 220, 465, 175, 25, 100],
"errSysPlus":
[0., 0., 0., 0., 0., 0., 0., 0., 0., 0.],
"errSysMinus":
[0., 0., 0., 0., 0., 0., 0., 0., 0., 0.],
"binMin":
[0.5, 1, 1.5, 2, 2.5, 3, 3.5, 4, 5, 6.5],
"binMax":
[1, 1.5, 2, 2.5, 3, 3.5, 4, 5, 6.5, 8]
},
"imageblobslnk":NULL,"scoreslnk":2,"accesslnk":1,
"parnames":["theta interval for secondary particle"], "parvalues":["0.2-0.25"]
},
{
"trid":1,"testlnk":0,"referencelnk":45,"mcdetaillnk":1,
"beamlnk":45,"targetlnk":82,"observablelnk":8,"secondarylnk":-211,"reactionlnk":1,
"datatable":{
"dtid":1,"datatypeslnk":2,
"title":"Production of pi- in pi+ on Pb interactions at 12GeV/c, 0.35<theta<0.55 [rad]",
"npoints":0,
"nbins":[10],
"axisTitle":["momentum of pi- [GeV/c]","Cross section [mb/(GeV/c/rad)]"],
"val":
[2930, 2630, 2190, 2140, 2220, 2440, 2180, 1700, 1510, 910],
"errStatPlus":
[365, 265, 215, 195, 175, 220, 175, 130, 150, 110],
"errStatMinus":
[365, 265, 215, 195, 175, 220, 175, 130, 150, 110],
"errSysPlus":
[0., 0., 0., 0., 0., 0., 0., 0., 0., 0.],
"errSysMinus":
[0., 0., 0., 0., 0., 0., 0., 0., 0., 0.],
"binMin":
[0.15, 0.2, 0.25, 0.3, 0.35, 0.4, 0.45, 0.5, 0.6, 0.7],
"binMax":
[0.2, 0.25, 0.3, 0.35, 0.4, 0.45, 0.5, 0.6, 0.7, 0.8]
},
"imageblobslnk":NULL,"scoreslnk":2,"accesslnk":1,
"parnames":["theta interval for secondary particle"], "parvalues":["0.35-0.55"]
},
{
"trid":1,"testlnk":0,"referencelnk":45,"mcdetaillnk":1,
"beamlnk":45,"targetlnk":82,"observablelnk":8,"secondarylnk":-211,"reactionlnk":1,
"datatable":{
"dtid":1,"datatypeslnk":2,
"title":"Production of pi- in pi+ on Pb interactions at 12GeV/c, 0.55<theta<0.75 [rad]",
"npoints":0,
"nbins":[11],
"axisTitle":["momentum of pi- [GeV/c]","Cross section [mb/(GeV/c/rad)]"],
"val":
[1630, 1740, 2610, 2120, 1870, 1830, 1600, 1580, 1370, 1140, 740],
"errStatPlus":
[330, 195, 230, 185, 155, 150, 130, 135, 110, 110, 100],
"errStatMinus":
[330, 195, 230, 185, 155, 150, 130, 135, 110, 110, 100],
"errSysPlus":
[0., 0., 0., 0., 0., 0., 0., 0., 0., 0., 0.],
"errSysMinus":
[0., 0., 0., 0., 0., 0., 0., 0., 0., 0., 0.],
"binMin":
[0.1, 0.15, 0.2, 0.25, 0.3, 0.35, 0.4, 0.45, 0.5, 0.6, 0.7],
"binMax":
[0.15, 0.2, 0.25, 0.3, 0.35, 0.4, 0.45, 0.5, 0.6, 0.7, 0.8]
},
"imageblobslnk":NULL,"scoreslnk":2,"accesslnk":1,
"parnames":["theta interval for secondary particle"], "parvalues":["0.55-0.75"]
},
{
"trid":1,"testlnk":0,"referencelnk":45,"mcdetaillnk":1,
"beamlnk":45,"targetlnk":82,"observablelnk":8,"secondarylnk":-211,"reactionlnk":1,
"datatable":{
"dtid":1,"datatypeslnk":2,
"title":"Production of pi- in pi+ on Pb interactions at 12GeV/c, 0.75<theta<0.95 [rad]",
"npoints":0,
"nbins":[10],
"axisTitle":["momentum of pi- [GeV/c]","Cross section [mb/(GeV/c/rad)]"],
"val":
[1220, 3670, 2000, 1670, 1900, 1660, 1320, 1340, 1350, 980],
"errStatPlus":
[245, 290, 185, 155, 155, 135, 105, 115, 105, 95],
"errStatMinus":
[245, 290, 185, 155, 155, 135, 105, 115, 105, 95],
"errSysPlus":
[0., 0., 0., 0., 0., 0., 0., 0., 0., 0.],
"errSysMinus":
[0., 0., 0., 0., 0., 0., 0., 0., 0., 0.],
"binMin":
[0.1, 0.15, 0.2, 0.25, 0.3, 0.35, 0.4, 0.45, 0.5, 0.6],
"binMax":
[0.15, 0.2, 0.25, 0.3, 0.35, 0.4, 0.45, 0.5, 0.6, 0.7]
},
"imageblobslnk":NULL,"scoreslnk":2,"accesslnk":1,
"parnames":["theta interval for secondary particle"], "parvalues":["0.75-0.95"]
},
{
"trid":1,"testlnk":0,"referencelnk":45,"mcdetaillnk":1,
"beamlnk":45,"targetlnk":82,"observablelnk":8,"secondarylnk":-211,"reactionlnk":1,
"datatable":{
"dtid":1,"datatypeslnk":2,
"title":"Production of pi- in pi+ on Pb interactions at 12GeV/c, 0.95<theta<1.15 [rad]",
"npoints":0,
"nbins":[9],
"axisTitle":["momentum of pi- [GeV/c]","Cross section [mb/(GeV/c/rad)]"],
"val":
[1760, 3030, 2550, 2410, 2080, 1530, 1330, 1060, 680],
"errStatPlus":
[230, 250, 190, 185, 165, 125, 115, 100, 70],
"errStatMinus":
[230, 250, 190, 185, 165, 125, 115, 100, 70],
"errSysPlus":
[0., 0., 0., 0., 0., 0., 0., 0., 0.],
"errSysMinus":
[0., 0., 0., 0., 0., 0., 0., 0., 0.],
"binMin":
[0.1, 0.15, 0.2, 0.25, 0.3, 0.35, 0.4, 0.45, 0.5],
"binMax":
[0.15, 0.2, 0.25, 0.3, 0.35, 0.4, 0.45, 0.5, 0.6]
},
"imageblobslnk":NULL,"scoreslnk":2,"accesslnk":1,
"parnames":["theta interval for secondary particle"], "parvalues":["0.95-1.15"]
},
{
"trid":1,"testlnk":0,"referencelnk":45,"mcdetaillnk":1,
"beamlnk":45,"targetlnk":82,"observablelnk":8,"secondarylnk":-211,"reactionlnk":1,
"datatable":{
"dtid":1,"datatypeslnk":2,
"title":"Production of pi- in pi+ on Pb interactions at 12GeV/c, 1.15<theta<1.35 [rad]",
"npoints":0,
"nbins":[8],
"axisTitle":["momentum of pi- [GeV/c]","Cross section [mb/(GeV/c/rad)]"],
"val":
[2840, 2570, 1870, 1560, 1060, 640, 710, 740],
"errStatPlus":
[300, 210, 150, 135, 115, 65, 80, 85],
"errStatMinus":
[300, 210, 150, 135, 115, 65, 80, 85],
"errSysPlus":
[0., 0., 0., 0., 0., 0., 0., 0.],
"errSysMinus":
[0., 0., 0., 0., 0., 0., 0., 0.],
"binMin":
[0.1, 0.15, 0.2, 0.25, 0.3, 0.35, 0.4, 0.45],
"binMax":
[0.15, 0.2, 0.25, 0.3, 0.35, 0.4, 0.45, 0.5]
},
"imageblobslnk":NULL,"scoreslnk":2,"accesslnk":1,
"parnames":["theta interval for secondary particle"], "parvalues":["1.15-1.35"]
},
{
"trid":1,"testlnk":0,"referencelnk":45,"mcdetaillnk":1,
"beamlnk":45,"targetlnk":82,"observablelnk":8,"secondarylnk":-211,"reactionlnk":1,
"datatable":{
"dtid":1,"datatypeslnk":2,
"title":"Production of pi- in pi+ on Pb interactions at 12GeV/c, 1.35<theta<1.55 [rad]",
"npoints":0,
"nbins":[8],
"axisTitle":["momentum of pi- [GeV/c]","Cross section [mb/(GeV/c/rad)]"],
"val":
[4260, 2730, 2080, 1290, 860, 530, 510, 380],
"errStatPlus":
[470, 185, 170, 115, 95, 60, 65, 50],
"errStatMinus":
[470, 185, 170, 115, 95, 60, 65, 50],
"errSysPlus":
[0., 0., 0., 0., 0., 0., 0., 0.],
"errSysMinus":
[0., 0., 0., 0., 0., 0., 0., 0.],
"binMin":
[0.1, 0.15, 0.2, 0.25, 0.3, 0.35, 0.4, 0.45],
"binMax":
[0.15, 0.2, 0.25, 0.3, 0.35, 0.4, 0.45, 0.5]
},
"imageblobslnk":NULL,"scoreslnk":2,"accesslnk":1,
"parnames":["theta interval for secondary particle"], "parvalues":["1.35-1.55"]
},
{
"trid":1,"testlnk":0,"referencelnk":45,"mcdetaillnk":1,
"beamlnk":45,"targetlnk":82,"observablelnk":8,"secondarylnk":-211,"reactionlnk":1,
"datatable":{
"dtid":1,"datatypeslnk":2,
"title":"Production of pi- in pi+ on Pb interactions at 12GeV/c, 1.55<theta<1.75 [rad]",
"npoints":0,
"nbins":[8],
"axisTitle":["momentum of pi- [GeV/c]","Cross section [mb/(GeV/c/rad)]"],
"val":
[3100, 2190, 1730, 1200, 610, 540, 450, 290],
"errStatPlus":
[365, 165, 150, 130, 80, 75, 70, 55],
"errStatMinus":
[365, 165, 150, 130, 80, 75, 70, 55],
"errSysPlus":
[0., 0., 0., 0., 0., 0., 0., 0.],
"errSysMinus":
[0., 0., 0., 0., 0., 0., 0., 0.],
"binMin":
[0.1, 0.15, 0.2, 0.25, 0.3, 0.35, 0.4, 0.45],
"binMax":
[0.15, 0.2, 0.25, 0.3, 0.35, 0.4, 0.45, 0.5]
},
"imageblobslnk":NULL,"scoreslnk":2,"accesslnk":1,
"parnames":["theta interval for secondary particle"], "parvalues":["1.55-1.75"]
},
{
"trid":1,"testlnk":0,"referencelnk":45,"mcdetaillnk":1,
"beamlnk":45,"targetlnk":82,"observablelnk":8,"secondarylnk":-211,"reactionlnk":1,
"datatable":{
"dtid":1,"datatypeslnk":2,
"title":"Production of pi- in pi+ on Pb interactions at 12GeV/c, 1.75<theta<1.95 [rad]",
"npoints":0,
"nbins":[8],
"axisTitle":["momentum of pi- [GeV/c]","Cross section [mb/(GeV/c/rad)]"],
"val":
[2050, 1340, 720, 370, 250, 220, 150, 120],
"errStatPlus":
[255, 125, 85, 60, 50, 50, 40, 35],
"errStatMinus":
[255, 125, 85, 60, 50, 50, 40, 35],
"errSysPlus":
[0., 0., 0., 0., 0., 0., 0., 0.],
"errSysMinus":
[0., 0., 0., 0., 0., 0., 0., 0.],
"binMin":
[0.1, 0.15, 0.2, 0.25, 0.3, 0.35, 0.4, 0.45],
"binMax":
[0.15, 0.2, 0.25, 0.3, 0.35, 0.4, 0.45, 0.5]
},
"imageblobslnk":NULL,"scoreslnk":2,"accesslnk":1,
"parnames":["theta interval for secondary particle"], "parvalues":["1.75-1.95"]
},
{
"trid":1,"testlnk":0,"referencelnk":45,"mcdetaillnk":1,
"beamlnk":45,"targetlnk":82,"observablelnk":8,"secondarylnk":-211,"reactionlnk":1,
"datatable":{
"dtid":1,"datatypeslnk":2,
"title":"Production of pi- in pi+ on Pb interactions at 12GeV/c, 1.95<theta<2.15 [rad]",
"npoints":0,
"nbins":[8],
"axisTitle":["momentum of pi- [GeV/c]","Cross section [mb/(GeV/c/rad)]"],
"val":
[2020, 1410, 830, 260, 150, 180, 90, 70],
"errStatPlus":
[275, 155, 120, 75, 50, 65, 40, 35],
"errStatMinus":
[275, 155, 120, 75, 50, 65, 40, 35],
"errSysPlus":
[0., 0., 0., 0., 0., 0., 0., 0.],
"errSysMinus":
[0., 0., 0., 0., 0., 0., 0., 0.],
"binMin":
[0.1, 0.15, 0.2, 0.25, 0.3, 0.35, 0.4, 0.45],
"binMax":
[0.15, 0.2, 0.25, 0.3, 0.35, 0.4, 0.45, 0.5]
},
"imageblobslnk":NULL,"scoreslnk":2,"accesslnk":1,
"parnames":["theta interval for secondary particle"], "parvalues":["1.95-2.15"]
}
]}
