{"ResultList":[
{
"trid":1,"testlnk":0,"referencelnk":46,"mcdetaillnk":1,
"beamlnk":37,"targetlnk":13,"observablelnk":8,"secondarylnk":211,"reactionlnk":1,
"datatable":{
"dtid":1,"datatypeslnk":2,
"title":"Production of pi+ in proton-Al interactions at 3GeV/c, 0.05<theta<0.1 [rad]",
"npoints":0,
"nbins":[10],
"axisTitle":["momentum of pi+ [GeV/c]","Cross section [mb/(GeV/c/rad)]"],
"val":
[190, 20, 0, 0, 0, 0, 0, 0, 0, 0],
"errStatPlus":
[30, 10, 0, 0, 0, 0, 0, 0, 0, 0],
"errStatMinus":
[30, 10, 0, 0, 0, 0, 0, 0, 0, 0],
"errSysPlus":
[0., 0., 0., 0., 0., 0., 0., 0., 0., 0.],
"errSysMinus":
[0., 0., 0., 0., 0., 0., 0., 0., 0., 0.],
"binMin":
[0.5, 1, 1.5, 2, 2.5, 3, 3.5, 4, 5, 6.5],
"binMax":
[1, 1.5, 2, 2.5, 3, 3.5, 4, 5, 6.5, 8]
},
"imageblobslnk":NULL,"scoreslnk":2,"accesslnk":1,
"parnames":["theta interval for secondary particle"], "parvalues":["0.05-0.1"]
},
{
"trid":1,"testlnk":0,"referencelnk":46,"mcdetaillnk":1,
"beamlnk":37,"targetlnk":13,"observablelnk":8,"secondarylnk":211,"reactionlnk":1,
"datatable":{
"dtid":1,"datatypeslnk":2,
"title":"Production of pi+ in proton-Al interactions at 3GeV/c, 0.1<theta<0.15 [rad]",
"npoints":0,
"nbins":[10],
"axisTitle":["momentum of pi+ [GeV/c]","Cross section [mb/(GeV/c/rad)]"],
"val":
[130, 10, 0, 0, 0, 0, 0, 0, 0, 0],
"errStatPlus":
[25, 5, 0, 0, 0, 0, 0, 0, 0, 0],
"errStatMinus":
[25, 5, 0, 0, 0, 0, 0, 0, 0, 0],
"errSysPlus":
[0., 0., 0., 0., 0., 0., 0., 0., 0., 0.],
"errSysMinus":
[0., 0., 0., 0., 0., 0., 0., 0., 0., 0.],
"binMin":
[0.5, 1, 1.5, 2, 2.5, 3, 3.5, 4, 5, 6.5],
"binMax":
[1, 1.5, 2, 2.5, 3, 3.5, 4, 5, 6.5, 8]
},
"imageblobslnk":NULL,"scoreslnk":2,"accesslnk":1,
"parnames":["theta interval for secondary particle"], "parvalues":["0.1-0.15"]
},
{
"trid":1,"testlnk":0,"referencelnk":46,"mcdetaillnk":1,
"beamlnk":37,"targetlnk":13,"observablelnk":8,"secondarylnk":211,"reactionlnk":1,
"datatable":{
"dtid":1,"datatypeslnk":2,
"title":"Production of pi+ in proton-Al interactions at 3GeV/c, 0.15<theta<0.2 [rad]",
"npoints":0,
"nbins":[10],
"axisTitle":["momentum of pi+ [GeV/c]","Cross section [mb/(GeV/c/rad)]"],
"val":
[190, 30, 0, 0, 0, 0, 0, 0, 0, 0],
"errStatPlus":
[35, 10, 0, 0, 0, 0, 0, 0, 0, 0],
"errStatMinus":
[35, 10, 0, 0, 0, 0, 0, 0, 0, 0],
"errSysPlus":
[0., 0., 0., 0., 0., 0., 0., 0., 0., 0.],
"errSysMinus":
[0., 0., 0., 0., 0., 0., 0., 0., 0., 0.],
"binMin":
[0.5, 1, 1.5, 2, 2.5, 3, 3.5, 4, 5, 6.5],
"binMax":
[1, 1.5, 2, 2.5, 3, 3.5, 4, 5, 6.5, 8]
},
"imageblobslnk":NULL,"scoreslnk":2,"accesslnk":1,
"parnames":["theta interval for secondary particle"], "parvalues":["0.15-0.2"]
},
{
"trid":1,"testlnk":0,"referencelnk":46,"mcdetaillnk":1,
"beamlnk":37,"targetlnk":13,"observablelnk":8,"secondarylnk":211,"reactionlnk":1,
"datatable":{
"dtid":1,"datatypeslnk":2,
"title":"Production of pi+ in proton-Al interactions at 3GeV/c, 0.2<theta<0.25 [rad]",
"npoints":0,
"nbins":[10],
"axisTitle":["momentum of pi+ [GeV/c]","Cross section [mb/(GeV/c/rad)]"],
"val":
[50, 10, 0, 0, 0, 0, 0, 0, 0, 0],
"errStatPlus":
[20, 10, 0, 0, 0, 0, 0, 0, 0, 0],
"errStatMinus":
[20, 10, 0, 0, 0, 0, 0, 0, 0, 0],
"errSysPlus":
[0., 0., 0., 0., 0., 0., 0., 0., 0., 0.],
"errSysMinus":
[0., 0., 0., 0., 0., 0., 0., 0., 0., 0.],
"binMin":
[0.5, 1, 1.5, 2, 2.5, 3, 3.5, 4, 5, 6.5],
"binMax":
[1, 1.5, 2, 2.5, 3, 3.5, 4, 5, 6.5, 8]
},
"imageblobslnk":NULL,"scoreslnk":2,"accesslnk":1,
"parnames":["theta interval for secondary particle"], "parvalues":["0.2-0.25"]
},
{
"trid":1,"testlnk":0,"referencelnk":43,"mcdetaillnk":1,
"beamlnk":37,"targetlnk":13,"observablelnk":8,"secondarylnk":211,"reactionlnk":1,
"datatable":{
"dtid":1,"datatypeslnk":2,
"title":"Production of pi+ in proton-Al interactions at 3GeV/c, 0.35<theta<0.55 [rad]",
"npoints":0,
"nbins":[10],
"axisTitle":["momentum of pi+ [GeV/c]","Cross section [mb/(GeV/c/rad)]"],
"val":
[156, 203, 226, 282, 297, 308, 314, 297, 199, 112],
"errStatPlus":
[13.5, 12.5, 12.5, 17, 12, 12.5, 12, 13.5, 15, 12.5],
"errStatMinus":
[13.5, 12.5, 12.5, 17, 12, 12.5, 12, 13.5, 15, 12.5],
"errSysPlus":
[0., 0., 0., 0., 0., 0., 0., 0., 0., 0.],
"errSysMinus":
[0., 0., 0., 0., 0., 0., 0., 0., 0., 0.],
"binMin":
[0.15, 0.2, 0.25, 0.3, 0.35, 0.4, 0.45, 0.5, 0.6, 0.7],
"binMax":
[0.2, 0.25, 0.3, 0.35, 0.4, 0.45, 0.5, 0.6, 0.7, 0.8]
},
"imageblobslnk":NULL,"scoreslnk":2,"accesslnk":1,
"parnames":["theta interval for secondary particle"], "parvalues":["0.35-0.55"]
},
{
"trid":1,"testlnk":0,"referencelnk":43,"mcdetaillnk":1,
"beamlnk":37,"targetlnk":13,"observablelnk":8,"secondarylnk":211,"reactionlnk":1,
"datatable":{
"dtid":1,"datatypeslnk":2,
"title":"Production of pi+ in proton-Al interactions at 3GeV/c, 0.55<theta<0.75 [rad]",
"npoints":0,
"nbins":[11],
"axisTitle":["momentum of pi+ [GeV/c]","Cross section [mb/(GeV/c/rad)]"],
"val":
[189, 253, 318, 377, 285, 307, 305, 268, 186, 116, 54],
"errStatPlus":
[23, 14.5, 15.5, 18.5, 12.5, 16, 11, 10.5, 12, 10.5, 9.5],
"errStatMinus":
[23, 14.5, 15.5, 18.5, 12.5, 16, 11, 10.5, 12, 10.5, 9.5],
"errSysPlus":
[0., 0., 0., 0., 0., 0., 0., 0., 0., 0., 0.],
"errSysMinus":
[0., 0., 0., 0., 0., 0., 0., 0., 0., 0., 0.],
"binMin":
[0.1, 0.15, 0.2, 0.25, 0.3, 0.35, 0.4, 0.45, 0.5, 0.6, 0.7],
"binMax":
[0.15, 0.2, 0.25, 0.3, 0.35, 0.4, 0.45, 0.5, 0.6, 0.7, 0.8]
},
"imageblobslnk":NULL,"scoreslnk":2,"accesslnk":1,
"parnames":["theta interval for secondary particle"], "parvalues":["0.55-0.75"]
},
{
"trid":1,"testlnk":0,"referencelnk":43,"mcdetaillnk":1,
"beamlnk":37,"targetlnk":13,"observablelnk":8,"secondarylnk":211,"reactionlnk":1,
"datatable":{
"dtid":1,"datatypeslnk":2,
"title":"Production of pi+ in proton-Al interactions at 3GeV/c, 0.75<theta<0.95 [rad]",
"npoints":0,
"nbins":[10],
"axisTitle":["momentum of pi+ [GeV/c]","Cross section [mb/(GeV/c/rad)]"],
"val":
[245, 337, 367, 355, 253, 216, 180, 137, 94, 52],
"errStatPlus":
[19, 16, 16, 13.5, 10.5, 8.5, 8.5, 7, 6, 5],
"errStatMinus":
[19, 16, 16, 13.5, 10.5, 8.5, 8.5, 7, 6, 5],
"errSysPlus":
[0., 0., 0., 0., 0., 0., 0., 0., 0., 0.],
"errSysMinus":
[0., 0., 0., 0., 0., 0., 0., 0., 0., 0.],
"binMin":
[0.1, 0.15, 0.2, 0.25, 0.3, 0.35, 0.4, 0.45, 0.5, 0.6],
"binMax":
[0.15, 0.2, 0.25, 0.3, 0.35, 0.4, 0.45, 0.5, 0.6, 0.7]
},
"imageblobslnk":NULL,"scoreslnk":2,"accesslnk":1,
"parnames":["theta interval for secondary particle"], "parvalues":["0.75-0.95"]
},
{
"trid":1,"testlnk":0,"referencelnk":43,"mcdetaillnk":1,
"beamlnk":37,"targetlnk":13,"observablelnk":8,"secondarylnk":211,"reactionlnk":1,
"datatable":{
"dtid":1,"datatypeslnk":2,
"title":"Production of pi+ in proton-Al interactions at 3GeV/c, 0.95<theta<1.15 [rad]",
"npoints":0,
"nbins":[9],
"axisTitle":["momentum of pi+ [GeV/c]","Cross section [mb/(GeV/c/rad)]"],
"val":
[229, 385, 324, 244, 169, 128, 84, 59, 37],
"errStatPlus":
[18, 16.5, 13.5, 11, 9.5, 6, 5.5, 4.5, 3],
"errStatMinus":
[18, 16.5, 13.5, 11, 9.5, 6, 5.5, 4.5, 3],
"errSysPlus":
[0., 0., 0., 0., 0., 0., 0., 0., 0.],
"errSysMinus":
[0., 0., 0., 0., 0., 0., 0., 0., 0.],
"binMin":
[0.1, 0.15, 0.2, 0.25, 0.3, 0.35, 0.4, 0.45, 0.5],
"binMax":
[0.15, 0.2, 0.25, 0.3, 0.35, 0.4, 0.45, 0.5, 0.6]
},
"imageblobslnk":NULL,"scoreslnk":2,"accesslnk":1,
"parnames":["theta interval for secondary particle"], "parvalues":["0.95-1.15"]
},
{
"trid":1,"testlnk":0,"referencelnk":43,"mcdetaillnk":1,
"beamlnk":37,"targetlnk":13,"observablelnk":8,"secondarylnk":211,"reactionlnk":1,
"datatable":{
"dtid":1,"datatypeslnk":2,
"title":"Production of pi+ in proton-Al interactions at 3GeV/c, 1.15<theta<1.35 [rad]",
"npoints":0,
"nbins":[8],
"axisTitle":["momentum of pi+ [GeV/c]","Cross section [mb/(GeV/c/rad)]"],
"val":
[239, 328, 269, 197, 128, 73, 51, 33],
"errStatPlus":
[17, 15, 11.5, 10, 8.5, 4.5, 3, 3],
"errStatMinus":
[17, 15, 11.5, 10, 8.5, 4.5, 3, 3],
"errSysPlus":
[0., 0., 0., 0., 0., 0., 0., 0.],
"errSysMinus":
[0., 0., 0., 0., 0., 0., 0., 0.],
"binMin":
[0.1, 0.15, 0.2, 0.25, 0.3, 0.35, 0.4, 0.45],
"binMax":
[0.15, 0.2, 0.25, 0.3, 0.35, 0.4, 0.45, 0.5]
},
"imageblobslnk":NULL,"scoreslnk":2,"accesslnk":1,
"parnames":["theta interval for secondary particle"], "parvalues":["1.15-1.35"]
},
{
"trid":1,"testlnk":0,"referencelnk":43,"mcdetaillnk":1,
"beamlnk":37,"targetlnk":13,"observablelnk":8,"secondarylnk":211,"reactionlnk":1,
"datatable":{
"dtid":1,"datatypeslnk":2,
"title":"Production of pi+ in proton-Al interactions at 3GeV/c, 1.35<theta<1.55 [rad]",
"npoints":0,
"nbins":[8],
"axisTitle":["momentum of pi+ [GeV/c]","Cross section [mb/(GeV/c/rad)]"],
"val":
[214, 334, 255, 112, 76, 54, 35, 21],
"errStatPlus":
[15, 17, 16, 6.5, 4.5, 4, 3.5, 2.5],
"errStatMinus":
[15, 17, 16, 6.5, 4.5, 4, 3.5, 2.5],
"errSysPlus":
[0., 0., 0., 0., 0., 0., 0., 0.],
"errSysMinus":
[0., 0., 0., 0., 0., 0., 0., 0.],
"binMin":
[0.1, 0.15, 0.2, 0.25, 0.3, 0.35, 0.4, 0.45],
"binMax":
[0.15, 0.2, 0.25, 0.3, 0.35, 0.4, 0.45, 0.5]
},
"imageblobslnk":NULL,"scoreslnk":2,"accesslnk":1,
"parnames":["theta interval for secondary particle"], "parvalues":["1.35-1.55"]
},
{
"trid":1,"testlnk":0,"referencelnk":43,"mcdetaillnk":1,
"beamlnk":37,"targetlnk":13,"observablelnk":8,"secondarylnk":211,"reactionlnk":1,
"datatable":{
"dtid":1,"datatypeslnk":2,
"title":"Production of pi+ in proton-Al interactions at 3GeV/c, 1.55<theta<1.75 [rad]",
"npoints":0,
"nbins":[8],
"axisTitle":["momentum of pi+ [GeV/c]","Cross section [mb/(GeV/c/rad)]"],
"val":
[224, 304, 176, 113, 52, 26, 12, 5],
"errStatPlus":
[16.5, 13, 9.5, 6.5, 4.5, 3, 2, 1],
"errStatMinus":
[16.5, 13, 9.5, 6.5, 4.5, 3, 2, 1],
"errSysPlus":
[0., 0., 0., 0., 0., 0., 0., 0.],
"errSysMinus":
[0., 0., 0., 0., 0., 0., 0., 0.],
"binMin":
[0.1, 0.15, 0.2, 0.25, 0.3, 0.35, 0.4, 0.45],
"binMax":
[0.15, 0.2, 0.25, 0.3, 0.35, 0.4, 0.45, 0.5]
},
"imageblobslnk":NULL,"scoreslnk":2,"accesslnk":1,
"parnames":["theta interval for secondary particle"], "parvalues":["1.55-1.75"]
},
{
"trid":1,"testlnk":0,"referencelnk":43,"mcdetaillnk":1,
"beamlnk":37,"targetlnk":13,"observablelnk":8,"secondarylnk":211,"reactionlnk":1,
"datatable":{
"dtid":1,"datatypeslnk":2,
"title":"Production of pi+ in proton-Al interactions at 3GeV/c, 1.75<theta<1.95 [rad]",
"npoints":0,
"nbins":[8],
"axisTitle":["momentum of pi+ [GeV/c]","Cross section [mb/(GeV/c/rad)]"],
"val":
[230, 235, 147, 94, 46, 14, 6, 4],
"errStatPlus":
[16, 10.5, 8.5, 6, 5.5, 2.5, 1, 1],
"errStatMinus":
[16, 10.5, 8.5, 6, 5.5, 2.5, 1, 1],
"errSysPlus":
[0., 0., 0., 0., 0., 0., 0., 0.],
"errSysMinus":
[0., 0., 0., 0., 0., 0., 0., 0.],
"binMin":
[0.1, 0.15, 0.2, 0.25, 0.3, 0.35, 0.4, 0.45],
"binMax":
[0.15, 0.2, 0.25, 0.3, 0.35, 0.4, 0.45, 0.5]
},
"imageblobslnk":NULL,"scoreslnk":2,"accesslnk":1,
"parnames":["theta interval for secondary particle"], "parvalues":["1.75-1.95"]
},
{
"trid":1,"testlnk":0,"referencelnk":43,"mcdetaillnk":1,
"beamlnk":37,"targetlnk":13,"observablelnk":8,"secondarylnk":211,"reactionlnk":1,
"datatable":{
"dtid":1,"datatypeslnk":2,
"title":"Production of pi+ in proton-Al interactions at 3GeV/c, 1.95<theta<2.15 [rad]",
"npoints":0,
"nbins":[8],
"axisTitle":["momentum of pi+ [GeV/c]","Cross section [mb/(GeV/c/rad)]"],
"val":
[228, 189, 84, 40, 15, 8, 6, 3],
"errStatPlus":
[13.5, 10, 8, 4, 2.5, 1.5, 1.5, 1],
"errStatMinus":
[13.5, 10, 8, 4, 2.5, 1.5, 1.5, 1],
"errSysPlus":
[0., 0., 0., 0., 0., 0., 0., 0.],
"errSysMinus":
[0., 0., 0., 0., 0., 0., 0., 0.],
"binMin":
[0.1, 0.15, 0.2, 0.25, 0.3, 0.35, 0.4, 0.45],
"binMax":
[0.15, 0.2, 0.25, 0.3, 0.35, 0.4, 0.45, 0.5]
},
"imageblobslnk":NULL,"scoreslnk":2,"accesslnk":1,
"parnames":["theta interval for secondary particle"], "parvalues":["1.95-2.15"]
},
{
"trid":1,"testlnk":0,"referencelnk":46,"mcdetaillnk":1,
"beamlnk":38,"targetlnk":13,"observablelnk":8,"secondarylnk":211,"reactionlnk":1,
"datatable":{
"dtid":1,"datatypeslnk":2,
"title":"Production of pi+ in proton-Al interactions at 5GeV/c, 0.05<theta<0.1 [rad]",
"npoints":0,
"nbins":[10],
"axisTitle":["momentum of pi+ [GeV/c]","Cross section [mb/(GeV/c/rad)]"],
"val":
[170, 270, 200, 64, 38, 6, 4, 1, 0, 0],
"errStatPlus":
[15, 15, 15, 6, 5, 2.5, 1.5, 0.5, 0, 0],
"errStatMinus":
[15, 15, 15, 6, 5, 2.5, 1.5, 0.5, 0, 0],
"errSysPlus":
[0., 0., 0., 0., 0., 0., 0., 0., 0., 0.],
"errSysMinus":
[0., 0., 0., 0., 0., 0., 0., 0., 0., 0.],
"binMin":
[0.5, 1, 1.5, 2, 2.5, 3, 3.5, 4, 5, 6.5],
"binMax":
[1, 1.5, 2, 2.5, 3, 3.5, 4, 5, 6.5, 8]
},
"imageblobslnk":NULL,"scoreslnk":2,"accesslnk":1,
"parnames":["theta interval for secondary particle"], "parvalues":["0.05-0.1"]
},
{
"trid":1,"testlnk":0,"referencelnk":46,"mcdetaillnk":1,
"beamlnk":38,"targetlnk":13,"observablelnk":8,"secondarylnk":211,"reactionlnk":1,
"datatable":{
"dtid":1,"datatypeslnk":2,
"title":"Production of pi+ in proton-Al interactions at 5GeV/c, 0.1<theta<0.15 [rad]",
"npoints":0,
"nbins":[10],
"axisTitle":["momentum of pi+ [GeV/c]","Cross section [mb/(GeV/c/rad)]"],
"val":
[240, 220, 150, 48, 15, 3, 1, 0, 0, 0],
"errStatPlus":
[20, 15, 10, 5.5, 3.5, 0.5, 0.5, 0, 0, 0],
"errStatMinus":
[20, 15, 10, 5.5, 3.5, 0.5, 0.5, 0, 0, 0],
"errSysPlus":
[0., 0., 0., 0., 0., 0., 0., 0., 0., 0.],
"errSysMinus":
[0., 0., 0., 0., 0., 0., 0., 0., 0., 0.],
"binMin":
[0.5, 1, 1.5, 2, 2.5, 3, 3.5, 4, 5, 6.5],
"binMax":
[1, 1.5, 2, 2.5, 3, 3.5, 4, 5, 6.5, 8]
},
"imageblobslnk":NULL,"scoreslnk":2,"accesslnk":1,
"parnames":["theta interval for secondary particle"], "parvalues":["0.1-0.15"]
},
{
"trid":1,"testlnk":0,"referencelnk":46,"mcdetaillnk":1,
"beamlnk":38,"targetlnk":13,"observablelnk":8,"secondarylnk":211,"reactionlnk":1,
"datatable":{
"dtid":1,"datatypeslnk":2,
"title":"Production of pi+ in proton-Al interactions at 5GeV/c, 0.15<theta<0.2 [rad]",
"npoints":0,
"nbins":[10],
"axisTitle":["momentum of pi+ [GeV/c]","Cross section [mb/(GeV/c/rad)]"],
"val":
[260, 170, 54, 23, 5, 1, 0, 0, 0, 0],
"errStatPlus":
[20, 15, 6.5, 5, 2, 0.5, 0, 0, 0, 0],
"errStatMinus":
[20, 15, 6.5, 5, 2, 0.5, 0, 0, 0, 0],
"errSysPlus":
[0., 0., 0., 0., 0., 0., 0., 0., 0., 0.],
"errSysMinus":
[0., 0., 0., 0., 0., 0., 0., 0., 0., 0.],
"binMin":
[0.5, 1, 1.5, 2, 2.5, 3, 3.5, 4, 5, 6.5],
"binMax":
[1, 1.5, 2, 2.5, 3, 3.5, 4, 5, 6.5, 8]
},
"imageblobslnk":NULL,"scoreslnk":2,"accesslnk":1,
"parnames":["theta interval for secondary particle"], "parvalues":["0.15-0.2"]
},
{
"trid":1,"testlnk":0,"referencelnk":46,"mcdetaillnk":1,
"beamlnk":38,"targetlnk":13,"observablelnk":8,"secondarylnk":211,"reactionlnk":1,
"datatable":{
"dtid":1,"datatypeslnk":2,
"title":"Production of pi+ in proton-Al interactions at 5GeV/c, 0.2<theta<0.25 [rad]",
"npoints":0,
"nbins":[10],
"axisTitle":["momentum of pi+ [GeV/c]","Cross section [mb/(GeV/c/rad)]"],
"val":
[160, 80, 39, 20, 4, 1, 1, 1, 0, 0],
"errStatPlus":
[15, 10, 7, 4.5, 1.5, 0.5, 0.5, 1, 0, 0],
"errStatMinus":
[15, 10, 7, 4.5, 1.5, 0.5, 0.5, 1, 0, 0],
"errSysPlus":
[0., 0., 0., 0., 0., 0., 0., 0., 0., 0.],
"errSysMinus":
[0., 0., 0., 0., 0., 0., 0., 0., 0., 0.],
"binMin":
[0.5, 1, 1.5, 2, 2.5, 3, 3.5, 4, 5, 6.5],
"binMax":
[1, 1.5, 2, 2.5, 3, 3.5, 4, 5, 6.5, 8]
},
"imageblobslnk":NULL,"scoreslnk":2,"accesslnk":1,
"parnames":["theta interval for secondary particle"], "parvalues":["0.2-0.25"]
},
{
"trid":1,"testlnk":0,"referencelnk":43,"mcdetaillnk":1,
"beamlnk":38,"targetlnk":13,"observablelnk":8,"secondarylnk":211,"reactionlnk":1,
"datatable":{
"dtid":1,"datatypeslnk":2,
"title":"Production of pi+ in proton-Al interactions at 5GeV/c, 0.35<theta<0.55 [rad]",
"npoints":0,
"nbins":[10],
"axisTitle":["momentum of pi+ [GeV/c]","Cross section [mb/(GeV/c/rad)]"],
"val":
[296, 354, 454, 503, 469, 484, 515, 546, 439, 315],
"errStatPlus":
[22.5, 15, 19, 18, 13.5, 13.5, 15, 16, 24, 27],
"errStatMinus":
[22.5, 15, 19, 18, 13.5, 13.5, 15, 16, 24, 27],
"errSysPlus":
[0., 0., 0., 0., 0., 0., 0., 0., 0., 0.],
"errSysMinus":
[0., 0., 0., 0., 0., 0., 0., 0., 0., 0.],
"binMin":
[0.15, 0.2, 0.25, 0.3, 0.35, 0.4, 0.45, 0.5, 0.6, 0.7],
"binMax":
[0.2, 0.25, 0.3, 0.35, 0.4, 0.45, 0.5, 0.6, 0.7, 0.8]
},
"imageblobslnk":NULL,"scoreslnk":2,"accesslnk":1,
"parnames":["theta interval for secondary particle"], "parvalues":["0.35-0.55"]
},
{
"trid":1,"testlnk":0,"referencelnk":43,"mcdetaillnk":1,
"beamlnk":38,"targetlnk":13,"observablelnk":8,"secondarylnk":211,"reactionlnk":1,
"datatable":{
"dtid":1,"datatypeslnk":2,
"title":"Production of pi+ in proton-Al interactions at 5GeV/c, 0.55<theta<0.75 [rad]",
"npoints":0,
"nbins":[11],
"axisTitle":["momentum of pi+ [GeV/c]","Cross section [mb/(GeV/c/rad)]"],
"val":
[261, 372, 477, 476, 465, 432, 424, 407, 333, 227, 147],
"errStatPlus":
[30.5, 13, 23, 13.5, 13, 13.5, 10.5, 10, 12.5, 15, 14],
"errStatMinus":
[30.5, 13, 23, 13.5, 13, 13.5, 10.5, 10, 12.5, 15, 14],
"errSysPlus":
[0., 0., 0., 0., 0., 0., 0., 0., 0., 0., 0.],
"errSysMinus":
[0., 0., 0., 0., 0., 0., 0., 0., 0., 0., 0.],
"binMin":
[0.1, 0.15, 0.2, 0.25, 0.3, 0.35, 0.4, 0.45, 0.5, 0.6, 0.7],
"binMax":
[0.15, 0.2, 0.25, 0.3, 0.35, 0.4, 0.45, 0.5, 0.6, 0.7, 0.8]
},
"imageblobslnk":NULL,"scoreslnk":2,"accesslnk":1,
"parnames":["theta interval for secondary particle"], "parvalues":["0.55-0.75"]
},
{
"trid":1,"testlnk":0,"referencelnk":43,"mcdetaillnk":1,
"beamlnk":38,"targetlnk":13,"observablelnk":8,"secondarylnk":211,"reactionlnk":1,
"datatable":{
"dtid":1,"datatypeslnk":2,
"title":"Production of pi+ in proton-Al interactions at 5GeV/c, 0.75<theta<0.95 [rad]",
"npoints":0,
"nbins":[10],
"axisTitle":["momentum of pi+ [GeV/c]","Cross section [mb/(GeV/c/rad)]"],
"val":
[302, 410, 443, 437, 381, 347, 280, 242, 180, 104],
"errStatPlus":
[24, 14, 12, 14.5, 10.5, 8.5, 8.5, 7, 9, 9.5],
"errStatMinus":
[24, 14, 12, 14.5, 10.5, 8.5, 8.5, 7, 9, 9.5],
"errSysPlus":
[0., 0., 0., 0., 0., 0., 0., 0., 0., 0.],
"errSysMinus":
[0., 0., 0., 0., 0., 0., 0., 0., 0., 0.],
"binMin":
[0.1, 0.15, 0.2, 0.25, 0.3, 0.35, 0.4, 0.45, 0.5, 0.6],
"binMax":
[0.15, 0.2, 0.25, 0.3, 0.35, 0.4, 0.45, 0.5, 0.6, 0.7]
},
"imageblobslnk":NULL,"scoreslnk":2,"accesslnk":1,
"parnames":["theta interval for secondary particle"], "parvalues":["0.75-0.95"]
},
{
"trid":1,"testlnk":0,"referencelnk":43,"mcdetaillnk":1,
"beamlnk":38,"targetlnk":13,"observablelnk":8,"secondarylnk":211,"reactionlnk":1,
"datatable":{
"dtid":1,"datatypeslnk":2,
"title":"Production of pi+ in proton-Al interactions at 5GeV/c, 0.95<theta<1.15 [rad]",
"npoints":0,
"nbins":[9],
"axisTitle":["momentum of pi+ [GeV/c]","Cross section [mb/(GeV/c/rad)]"],
"val":
[319, 412, 420, 354, 271, 221, 171, 114, 73],
"errStatPlus":
[20.5, 10.5, 15.5, 11, 7.5, 6, 6, 6.5, 5],
"errStatMinus":
[20.5, 10.5, 15.5, 11, 7.5, 6, 6, 6.5, 5],
"errSysPlus":
[0., 0., 0., 0., 0., 0., 0., 0., 0.],
"errSysMinus":
[0., 0., 0., 0., 0., 0., 0., 0., 0.],
"binMin":
[0.1, 0.15, 0.2, 0.25, 0.3, 0.35, 0.4, 0.45, 0.5],
"binMax":
[0.15, 0.2, 0.25, 0.3, 0.35, 0.4, 0.45, 0.5, 0.6]
},
"imageblobslnk":NULL,"scoreslnk":2,"accesslnk":1,
"parnames":["theta interval for secondary particle"], "parvalues":["0.95-1.15"]
},
{
"trid":1,"testlnk":0,"referencelnk":43,"mcdetaillnk":1,
"beamlnk":38,"targetlnk":13,"observablelnk":8,"secondarylnk":211,"reactionlnk":1,
"datatable":{
"dtid":1,"datatypeslnk":2,
"title":"Production of pi+ in proton-Al interactions at 5GeV/c, 1.15<theta<1.35 [rad]",
"npoints":0,
"nbins":[8],
"axisTitle":["momentum of pi+ [GeV/c]","Cross section [mb/(GeV/c/rad)]"],
"val":
[320, 428, 344, 245, 198, 140, 103, 72],
"errStatPlus":
[21, 12, 10.5, 8, 5.5, 5, 5.5, 4],
"errStatMinus":
[21, 12, 10.5, 8, 5.5, 5, 5.5, 4],
"errSysPlus":
[0., 0., 0., 0., 0., 0., 0., 0.],
"errSysMinus":
[0., 0., 0., 0., 0., 0., 0., 0.],
"binMin":
[0.1, 0.15, 0.2, 0.25, 0.3, 0.35, 0.4, 0.45],
"binMax":
[0.15, 0.2, 0.25, 0.3, 0.35, 0.4, 0.45, 0.5]
},
"imageblobslnk":NULL,"scoreslnk":2,"accesslnk":1,
"parnames":["theta interval for secondary particle"], "parvalues":["1.15-1.35"]
},
{
"trid":1,"testlnk":0,"referencelnk":43,"mcdetaillnk":1,
"beamlnk":38,"targetlnk":13,"observablelnk":8,"secondarylnk":211,"reactionlnk":1,
"datatable":{
"dtid":1,"datatypeslnk":2,
"title":"Production of pi+ in proton-Al interactions at 5GeV/c, 1.35<theta<1.55 [rad]",
"npoints":0,
"nbins":[8],
"axisTitle":["momentum of pi+ [GeV/c]","Cross section [mb/(GeV/c/rad)]"],
"val":
[324, 385, 283, 179, 150, 87, 58, 36],
"errStatPlus":
[20.5, 12, 9, 5.5, 5, 4.5, 4, 3],
"errStatMinus":
[20.5, 12, 9, 5.5, 5, 4.5, 4, 3],
"errSysPlus":
[0., 0., 0., 0., 0., 0., 0., 0.],
"errSysMinus":
[0., 0., 0., 0., 0., 0., 0., 0.],
"binMin":
[0.1, 0.15, 0.2, 0.25, 0.3, 0.35, 0.4, 0.45],
"binMax":
[0.15, 0.2, 0.25, 0.3, 0.35, 0.4, 0.45, 0.5]
},
"imageblobslnk":NULL,"scoreslnk":2,"accesslnk":1,
"parnames":["theta interval for secondary particle"], "parvalues":["1.35-1.55"]
},
{
"trid":1,"testlnk":0,"referencelnk":43,"mcdetaillnk":1,
"beamlnk":38,"targetlnk":13,"observablelnk":8,"secondarylnk":211,"reactionlnk":1,
"datatable":{
"dtid":1,"datatypeslnk":2,
"title":"Production of pi+ in proton-Al interactions at 5GeV/c, 1.55<theta<1.75 [rad]",
"npoints":0,
"nbins":[8],
"axisTitle":["momentum of pi+ [GeV/c]","Cross section [mb/(GeV/c/rad)]"],
"val":
[311, 312, 234, 142, 101, 63, 38, 21],
"errStatPlus":
[19, 9.5, 8, 6, 4, 3, 4, 2],
"errStatMinus":
[19, 9.5, 8, 6, 4, 3, 4, 2],
"errSysPlus":
[0., 0., 0., 0., 0., 0., 0., 0.],
"errSysMinus":
[0., 0., 0., 0., 0., 0., 0., 0.],
"binMin":
[0.1, 0.15, 0.2, 0.25, 0.3, 0.35, 0.4, 0.45],
"binMax":
[0.15, 0.2, 0.25, 0.3, 0.35, 0.4, 0.45, 0.5]
},
"imageblobslnk":NULL,"scoreslnk":2,"accesslnk":1,
"parnames":["theta interval for secondary particle"], "parvalues":["1.55-1.75"]
},
{
"trid":1,"testlnk":0,"referencelnk":43,"mcdetaillnk":1,
"beamlnk":38,"targetlnk":13,"observablelnk":8,"secondarylnk":211,"reactionlnk":1,
"datatable":{
"dtid":1,"datatypeslnk":2,
"title":"Production of pi+ in proton-Al interactions at 5GeV/c, 1.75<theta<1.95 [rad]",
"npoints":0,
"nbins":[8],
"axisTitle":["momentum of pi+ [GeV/c]","Cross section [mb/(GeV/c/rad)]"],
"val":
[281, 292, 193, 93, 51, 34, 20, 12],
"errStatPlus":
[16, 8.5, 6.5, 5.5, 3, 2, 2, 1.5],
"errStatMinus":
[16, 8.5, 6.5, 5.5, 3, 2, 2, 1.5],
"errSysPlus":
[0., 0., 0., 0., 0., 0., 0., 0.],
"errSysMinus":
[0., 0., 0., 0., 0., 0., 0., 0.],
"binMin":
[0.1, 0.15, 0.2, 0.25, 0.3, 0.35, 0.4, 0.45],
"binMax":
[0.15, 0.2, 0.25, 0.3, 0.35, 0.4, 0.45, 0.5]
},
"imageblobslnk":NULL,"scoreslnk":2,"accesslnk":1,
"parnames":["theta interval for secondary particle"], "parvalues":["1.75-1.95"]
},
{
"trid":1,"testlnk":0,"referencelnk":43,"mcdetaillnk":1,
"beamlnk":38,"targetlnk":13,"observablelnk":8,"secondarylnk":211,"reactionlnk":1,
"datatable":{
"dtid":1,"datatypeslnk":2,
"title":"Production of pi+ in proton-Al interactions at 5GeV/c, 1.95<theta<2.15 [rad]",
"npoints":0,
"nbins":[8],
"axisTitle":["momentum of pi+ [GeV/c]","Cross section [mb/(GeV/c/rad)]"],
"val":
[205, 253, 121, 61, 32, 22, 10, 5],
"errStatPlus":
[12.5, 8, 6, 4, 2, 1.5, 1, 1],
"errStatMinus":
[12.5, 8, 6, 4, 2, 1.5, 1, 1],
"errSysPlus":
[0., 0., 0., 0., 0., 0., 0., 0.],
"errSysMinus":
[0., 0., 0., 0., 0., 0., 0., 0.],
"binMin":
[0.1, 0.15, 0.2, 0.25, 0.3, 0.35, 0.4, 0.45],
"binMax":
[0.15, 0.2, 0.25, 0.3, 0.35, 0.4, 0.45, 0.5]
},
"imageblobslnk":NULL,"scoreslnk":2,"accesslnk":1,
"parnames":["theta interval for secondary particle"], "parvalues":["1.95-2.15"]
},
{
"trid":1,"testlnk":0,"referencelnk":46,"mcdetaillnk":1,
"beamlnk":39,"targetlnk":13,"observablelnk":8,"secondarylnk":211,"reactionlnk":1,
"datatable":{
"dtid":1,"datatypeslnk":2,
"title":"Production of pi+ in proton-Al interactions at 8GeV/c, 0.05<theta<0.1 [rad]",
"npoints":0,
"nbins":[10],
"axisTitle":["momentum of pi+ [GeV/c]","Cross section [mb/(GeV/c/rad)]"],
"val":
[340, 350, 360, 310, 230, 180, 109, 77, 6, 0],
"errStatPlus":
[20, 15, 15, 10, 10, 10, 7, 5, 1, 0],
"errStatMinus":
[20, 15, 15, 10, 10, 10, 7, 5, 1, 0],
"errSysPlus":
[0., 0., 0., 0., 0., 0., 0., 0., 0., 0.],
"errSysMinus":
[0., 0., 0., 0., 0., 0., 0., 0., 0., 0.],
"binMin":
[0.5, 1, 1.5, 2, 2.5, 3, 3.5, 4, 5, 6.5],
"binMax":
[1, 1.5, 2, 2.5, 3, 3.5, 4, 5, 6.5, 8]
},
"imageblobslnk":NULL,"scoreslnk":2,"accesslnk":1,
"parnames":["theta interval for secondary particle"], "parvalues":["0.05-0.1"]
},
{
"trid":1,"testlnk":0,"referencelnk":46,"mcdetaillnk":1,
"beamlnk":39,"targetlnk":13,"observablelnk":8,"secondarylnk":211,"reactionlnk":1,
"datatable":{
"dtid":1,"datatypeslnk":2,
"title":"Production of pi+ in proton-Al interactions at 8GeV/c, 0.1<theta<0.15 [rad]",
"npoints":0,
"nbins":[10],
"axisTitle":["momentum of pi+ [GeV/c]","Cross section [mb/(GeV/c/rad)]"],
"val":
[360, 380, 320, 190, 130, 91, 53, 20, 1, 0],
"errStatPlus":
[20, 20, 15, 10, 10, 6.5, 4, 2.5, 0, 0],
"errStatMinus":
[20, 20, 15, 10, 10, 6.5, 4, 2.5, 0, 0],
"errSysPlus":
[0., 0., 0., 0., 0., 0., 0., 0., 0., 0.],
"errSysMinus":
[0., 0., 0., 0., 0., 0., 0., 0., 0., 0.],
"binMin":
[0.5, 1, 1.5, 2, 2.5, 3, 3.5, 4, 5, 6.5],
"binMax":
[1, 1.5, 2, 2.5, 3, 3.5, 4, 5, 6.5, 8]
},
"imageblobslnk":NULL,"scoreslnk":2,"accesslnk":1,
"parnames":["theta interval for secondary particle"], "parvalues":["0.1-0.15"]
},
{
"trid":1,"testlnk":0,"referencelnk":46,"mcdetaillnk":1,
"beamlnk":39,"targetlnk":13,"observablelnk":8,"secondarylnk":211,"reactionlnk":1,
"datatable":{
"dtid":1,"datatypeslnk":2,
"title":"Production of pi+ in proton-Al interactions at 8GeV/c, 0.15<theta<0.2 [rad]",
"npoints":0,
"nbins":[10],
"axisTitle":["momentum of pi+ [GeV/c]","Cross section [mb/(GeV/c/rad)]"],
"val":
[390, 310, 170, 98, 58, 39, 23, 8, 0, 0],
"errStatPlus":
[25, 15, 10, 7, 5, 3.5, 3, 1, 0, 0],
"errStatMinus":
[25, 15, 10, 7, 5, 3.5, 3, 1, 0, 0],
"errSysPlus":
[0., 0., 0., 0., 0., 0., 0., 0., 0., 0.],
"errSysMinus":
[0., 0., 0., 0., 0., 0., 0., 0., 0., 0.],
"binMin":
[0.5, 1, 1.5, 2, 2.5, 3, 3.5, 4, 5, 6.5],
"binMax":
[1, 1.5, 2, 2.5, 3, 3.5, 4, 5, 6.5, 8]
},
"imageblobslnk":NULL,"scoreslnk":2,"accesslnk":1,
"parnames":["theta interval for secondary particle"], "parvalues":["0.15-0.2"]
},
{
"trid":1,"testlnk":0,"referencelnk":46,"mcdetaillnk":1,
"beamlnk":39,"targetlnk":13,"observablelnk":8,"secondarylnk":211,"reactionlnk":1,
"datatable":{
"dtid":1,"datatypeslnk":2,
"title":"Production of pi+ in proton-Al interactions at 8GeV/c, 0.2<theta<0.25 [rad]",
"npoints":0,
"nbins":[10],
"axisTitle":["momentum of pi+ [GeV/c]","Cross section [mb/(GeV/c/rad)]"],
"val":
[240, 180, 170, 70, 37, 25, 13, 7, 1, 0],
"errStatPlus":
[15, 15, 15, 10, 5, 3.5, 2.5, 2, 1, 0],
"errStatMinus":
[15, 15, 15, 10, 5, 3.5, 2.5, 2, 1, 0],
"errSysPlus":
[0., 0., 0., 0., 0., 0., 0., 0., 0., 0.],
"errSysMinus":
[0., 0., 0., 0., 0., 0., 0., 0., 0., 0.],
"binMin":
[0.5, 1, 1.5, 2, 2.5, 3, 3.5, 4, 5, 6.5],
"binMax":
[1, 1.5, 2, 2.5, 3, 3.5, 4, 5, 6.5, 8]
},
"imageblobslnk":NULL,"scoreslnk":2,"accesslnk":1,
"parnames":["theta interval for secondary particle"], "parvalues":["0.2-0.25"]
},
{
"trid":1,"testlnk":0,"referencelnk":43,"mcdetaillnk":1,
"beamlnk":39,"targetlnk":13,"observablelnk":8,"secondarylnk":211,"reactionlnk":1,
"datatable":{
"dtid":1,"datatypeslnk":2,
"title":"Production of pi+ in proton-Al interactions at 8GeV/c, 0.35<theta<0.55 [rad]",
"npoints":0,
"nbins":[10],
"axisTitle":["momentum of pi+ [GeV/c]","Cross section [mb/(GeV/c/rad)]"],
"val":
[351, 488, 549, 621, 615, 678, 696, 644, 616, 503],
"errStatPlus":
[24, 22, 18.5, 21.5, 16.5, 22.5, 16.5, 17.5, 29, 37],
"errStatMinus":
[24, 22, 18.5, 21.5, 16.5, 22.5, 16.5, 17.5, 29, 37],
"errSysPlus":
[0., 0., 0., 0., 0., 0., 0., 0., 0., 0.],
"errSysMinus":
[0., 0., 0., 0., 0., 0., 0., 0., 0., 0.],
"binMin":
[0.15, 0.2, 0.25, 0.3, 0.35, 0.4, 0.45, 0.5, 0.6, 0.7],
"binMax":
[0.2, 0.25, 0.3, 0.35, 0.4, 0.45, 0.5, 0.6, 0.7, 0.8]
},
"imageblobslnk":NULL,"scoreslnk":2,"accesslnk":1,
"parnames":["theta interval for secondary particle"], "parvalues":["0.35-0.55"]
},
{
"trid":1,"testlnk":0,"referencelnk":43,"mcdetaillnk":1,
"beamlnk":39,"targetlnk":13,"observablelnk":8,"secondarylnk":211,"reactionlnk":1,
"datatable":{
"dtid":1,"datatypeslnk":2,
"title":"Production of pi+ in proton-Al interactions at 8GeV/c, 0.55<theta<0.75 [rad]",
"npoints":0,
"nbins":[11],
"axisTitle":["momentum of pi+ [GeV/c]","Cross section [mb/(GeV/c/rad)]"],
"val":
[225, 395, 570, 615, 583, 580, 523, 504, 485, 340, 233],
"errStatPlus":
[27, 18, 22.5, 20.5, 13.5, 14, 12.5, 12, 14.5, 24.5, 22],
"errStatMinus":
[27, 18, 22.5, 20.5, 13.5, 14, 12.5, 12, 14.5, 24.5, 22],
"errSysPlus":
[0., 0., 0., 0., 0., 0., 0., 0., 0., 0., 0.],
"errSysMinus":
[0., 0., 0., 0., 0., 0., 0., 0., 0., 0., 0.],
"binMin":
[0.1, 0.15, 0.2, 0.25, 0.3, 0.35, 0.4, 0.45, 0.5, 0.6, 0.7],
"binMax":
[0.15, 0.2, 0.25, 0.3, 0.35, 0.4, 0.45, 0.5, 0.6, 0.7, 0.8]
},
"imageblobslnk":NULL,"scoreslnk":2,"accesslnk":1,
"parnames":["theta interval for secondary particle"], "parvalues":["0.55-0.75"]
},
{
"trid":1,"testlnk":0,"referencelnk":43,"mcdetaillnk":1,
"beamlnk":39,"targetlnk":13,"observablelnk":8,"secondarylnk":211,"reactionlnk":1,
"datatable":{
"dtid":1,"datatypeslnk":2,
"title":"Production of pi+ in proton-Al interactions at 8GeV/c, 0.75<theta<0.95 [rad]",
"npoints":0,
"nbins":[10],
"axisTitle":["momentum of pi+ [GeV/c]","Cross section [mb/(GeV/c/rad)]"],
"val":
[276, 479, 554, 542, 460, 424, 362, 313, 253, 165],
"errStatPlus":
[24, 16, 17.5, 14, 11, 10, 8.5, 8.5, 10.5, 14],
"errStatMinus":
[24, 16, 17.5, 14, 11, 10, 8.5, 8.5, 10.5, 14],
"errSysPlus":
[0., 0., 0., 0., 0., 0., 0., 0., 0., 0.],
"errSysMinus":
[0., 0., 0., 0., 0., 0., 0., 0., 0., 0.],
"binMin":
[0.1, 0.15, 0.2, 0.25, 0.3, 0.35, 0.4, 0.45, 0.5, 0.6],
"binMax":
[0.15, 0.2, 0.25, 0.3, 0.35, 0.4, 0.45, 0.5, 0.6, 0.7]
},
"imageblobslnk":NULL,"scoreslnk":2,"accesslnk":1,
"parnames":["theta interval for secondary particle"], "parvalues":["0.75-0.95"]
},
{
"trid":1,"testlnk":0,"referencelnk":43,"mcdetaillnk":1,
"beamlnk":39,"targetlnk":13,"observablelnk":8,"secondarylnk":211,"reactionlnk":1,
"datatable":{
"dtid":1,"datatypeslnk":2,
"title":"Production of pi+ in proton-Al interactions at 8GeV/c, 0.95<theta<1.15 [rad]",
"npoints":0,
"nbins":[9],
"axisTitle":["momentum of pi+ [GeV/c]","Cross section [mb/(GeV/c/rad)]"],
"val":
[283, 494, 504, 390, 346, 298, 217, 173, 128],
"errStatPlus":
[18.5, 18.5, 11.5, 10, 10, 8, 7.5, 5.5, 6.5],
"errStatMinus":
[18.5, 18.5, 11.5, 10, 10, 8, 7.5, 5.5, 6.5],
"errSysPlus":
[0., 0., 0., 0., 0., 0., 0., 0., 0.],
"errSysMinus":
[0., 0., 0., 0., 0., 0., 0., 0., 0.],
"binMin":
[0.1, 0.15, 0.2, 0.25, 0.3, 0.35, 0.4, 0.45, 0.5],
"binMax":
[0.15, 0.2, 0.25, 0.3, 0.35, 0.4, 0.45, 0.5, 0.6]
},
"imageblobslnk":NULL,"scoreslnk":2,"accesslnk":1,
"parnames":["theta interval for secondary particle"], "parvalues":["0.95-1.15"]
},
{
"trid":1,"testlnk":0,"referencelnk":43,"mcdetaillnk":1,
"beamlnk":39,"targetlnk":13,"observablelnk":8,"secondarylnk":211,"reactionlnk":1,
"datatable":{
"dtid":1,"datatypeslnk":2,
"title":"Production of pi+ in proton-Al interactions at 8GeV/c, 1.15<theta<1.35 [rad]",
"npoints":0,
"nbins":[8],
"axisTitle":["momentum of pi+ [GeV/c]","Cross section [mb/(GeV/c/rad)]"],
"val":
[320, 460, 406, 332, 247, 195, 142, 101],
"errStatPlus":
[22, 13.5, 9.5, 9, 6.5, 6, 5.5, 5],
"errStatMinus":
[22, 13.5, 9.5, 9, 6.5, 6, 5.5, 5],
"errSysPlus":
[0., 0., 0., 0., 0., 0., 0., 0.],
"errSysMinus":
[0., 0., 0., 0., 0., 0., 0., 0.],
"binMin":
[0.1, 0.15, 0.2, 0.25, 0.3, 0.35, 0.4, 0.45],
"binMax":
[0.15, 0.2, 0.25, 0.3, 0.35, 0.4, 0.45, 0.5]
},
"imageblobslnk":NULL,"scoreslnk":2,"accesslnk":1,
"parnames":["theta interval for secondary particle"], "parvalues":["1.15-1.35"]
},
{
"trid":1,"testlnk":0,"referencelnk":43,"mcdetaillnk":1,
"beamlnk":39,"targetlnk":13,"observablelnk":8,"secondarylnk":211,"reactionlnk":1,
"datatable":{
"dtid":1,"datatypeslnk":2,
"title":"Production of pi+ in proton-Al interactions at 8GeV/c, 1.35<theta<1.55 [rad]",
"npoints":0,
"nbins":[8],
"axisTitle":["momentum of pi+ [GeV/c]","Cross section [mb/(GeV/c/rad)]"],
"val":
[357, 422, 299, 232, 171, 119, 78, 49],
"errStatPlus":
[20, 12, 8, 7, 6, 4.5, 4, 3],
"errStatMinus":
[20, 12, 8, 7, 6, 4.5, 4, 3],
"errSysPlus":
[0., 0., 0., 0., 0., 0., 0., 0.],
"errSysMinus":
[0., 0., 0., 0., 0., 0., 0., 0.],
"binMin":
[0.1, 0.15, 0.2, 0.25, 0.3, 0.35, 0.4, 0.45],
"binMax":
[0.15, 0.2, 0.25, 0.3, 0.35, 0.4, 0.45, 0.5]
},
"imageblobslnk":NULL,"scoreslnk":2,"accesslnk":1,
"parnames":["theta interval for secondary particle"], "parvalues":["1.35-1.55"]
},
{
"trid":1,"testlnk":0,"referencelnk":43,"mcdetaillnk":1,
"beamlnk":39,"targetlnk":13,"observablelnk":8,"secondarylnk":211,"reactionlnk":1,
"datatable":{
"dtid":1,"datatypeslnk":2,
"title":"Production of pi+ in proton-Al interactions at 8GeV/c, 1.55<theta<1.75 [rad]",
"npoints":0,
"nbins":[8],
"axisTitle":["momentum of pi+ [GeV/c]","Cross section [mb/(GeV/c/rad)]"],
"val":
[310, 360, 228, 171, 118, 75, 47, 28],
"errStatPlus":
[18.5, 9, 6.5, 5.5, 4.5, 3.5, 3, 2.5],
"errStatMinus":
[18.5, 9, 6.5, 5.5, 4.5, 3.5, 3, 2.5],
"errSysPlus":
[0., 0., 0., 0., 0., 0., 0., 0.],
"errSysMinus":
[0., 0., 0., 0., 0., 0., 0., 0.],
"binMin":
[0.1, 0.15, 0.2, 0.25, 0.3, 0.35, 0.4, 0.45],
"binMax":
[0.15, 0.2, 0.25, 0.3, 0.35, 0.4, 0.45, 0.5]
},
"imageblobslnk":NULL,"scoreslnk":2,"accesslnk":1,
"parnames":["theta interval for secondary particle"], "parvalues":["1.55-1.75"]
},
{
"trid":1,"testlnk":0,"referencelnk":43,"mcdetaillnk":1,
"beamlnk":39,"targetlnk":13,"observablelnk":8,"secondarylnk":211,"reactionlnk":1,
"datatable":{
"dtid":1,"datatypeslnk":2,
"title":"Production of pi+ in proton-Al interactions at 8GeV/c, 1.75<theta<1.95 [rad]",
"npoints":0,
"nbins":[8],
"axisTitle":["momentum of pi+ [GeV/c]","Cross section [mb/(GeV/c/rad)]"],
"val":
[306, 309, 211, 117, 65, 41, 24, 13],
"errStatPlus":
[17, 11, 7, 5.5, 3, 2.5, 2, 1.5],
"errStatMinus":
[17, 11, 7, 5.5, 3, 2.5, 2, 1.5],
"errSysPlus":
[0., 0., 0., 0., 0., 0., 0., 0.],
"errSysMinus":
[0., 0., 0., 0., 0., 0., 0., 0.],
"binMin":
[0.1, 0.15, 0.2, 0.25, 0.3, 0.35, 0.4, 0.45],
"binMax":
[0.15, 0.2, 0.25, 0.3, 0.35, 0.4, 0.45, 0.5]
},
"imageblobslnk":NULL,"scoreslnk":2,"accesslnk":1,
"parnames":["theta interval for secondary particle"], "parvalues":["1.75-1.95"]
},
{
"trid":1,"testlnk":0,"referencelnk":43,"mcdetaillnk":1,
"beamlnk":39,"targetlnk":13,"observablelnk":8,"secondarylnk":211,"reactionlnk":1,
"datatable":{
"dtid":1,"datatypeslnk":2,
"title":"Production of pi+ in proton-Al interactions at 8GeV/c, 1.95<theta<2.15 [rad]",
"npoints":0,
"nbins":[8],
"axisTitle":["momentum of pi+ [GeV/c]","Cross section [mb/(GeV/c/rad)]"],
"val":
[268, 260, 158, 72, 45, 21, 12, 6],
"errStatPlus":
[15.5, 7, 9, 3.5, 2.5, 2, 1, 0.5],
"errStatMinus":
[15.5, 7, 9, 3.5, 2.5, 2, 1, 0.5],
"errSysPlus":
[0., 0., 0., 0., 0., 0., 0., 0.],
"errSysMinus":
[0., 0., 0., 0., 0., 0., 0., 0.],
"binMin":
[0.1, 0.15, 0.2, 0.25, 0.3, 0.35, 0.4, 0.45],
"binMax":
[0.15, 0.2, 0.25, 0.3, 0.35, 0.4, 0.45, 0.5]
},
"imageblobslnk":NULL,"scoreslnk":2,"accesslnk":1,
"parnames":["theta interval for secondary particle"], "parvalues":["1.95-2.15"]
},
{
"trid":1,"testlnk":0,"referencelnk":46,"mcdetaillnk":1,
"beamlnk":41,"targetlnk":13,"observablelnk":8,"secondarylnk":211,"reactionlnk":1,
"datatable":{
"dtid":1,"datatypeslnk":2,
"title":"Production of pi+ in proton-Al interactions at 12GeV/c, 0.05<theta<0.1 [rad]",
"npoints":0,
"nbins":[10],
"axisTitle":["momentum of pi+ [GeV/c]","Cross section [mb/(GeV/c/rad)]"],
"val":
[470, 420, 480, 470, 440, 280, 230, 143, 48, 21],
"errStatPlus":
[30, 20, 20, 20, 20, 15, 15, 7, 3.5, 2],
"errStatMinus":
[30, 20, 20, 20, 20, 15, 15, 7, 3.5, 2],
"errSysPlus":
[0., 0., 0., 0., 0., 0., 0., 0., 0., 0.],
"errSysMinus":
[0., 0., 0., 0., 0., 0., 0., 0., 0., 0.],
"binMin":
[0.5, 1, 1.5, 2, 2.5, 3, 3.5, 4, 5, 6.5],
"binMax":
[1, 1.5, 2, 2.5, 3, 3.5, 4, 5, 6.5, 8]
},
"imageblobslnk":NULL,"scoreslnk":2,"accesslnk":1,
"parnames":["theta interval for secondary particle"], "parvalues":["0.05-0.1"]
},
{
"trid":1,"testlnk":0,"referencelnk":46,"mcdetaillnk":1,
"beamlnk":41,"targetlnk":13,"observablelnk":8,"secondarylnk":211,"reactionlnk":1,
"datatable":{
"dtid":1,"datatypeslnk":2,
"title":"Production of pi+ in proton-Al interactions at 12GeV/c, 0.1<theta<0.15 [rad]",
"npoints":0,
"nbins":[10],
"axisTitle":["momentum of pi+ [GeV/c]","Cross section [mb/(GeV/c/rad)]"],
"val":
[440, 500, 460, 320, 220, 180, 90, 50, 17, 4],
"errStatPlus":
[30, 25, 25, 20, 15, 10, 10, 4, 1.5, 0.5],
"errStatMinus":
[30, 25, 25, 20, 15, 10, 10, 4, 1.5, 0.5],
"errSysPlus":
[0., 0., 0., 0., 0., 0., 0., 0., 0., 0.],
"errSysMinus":
[0., 0., 0., 0., 0., 0., 0., 0., 0., 0.],
"binMin":
[0.5, 1, 1.5, 2, 2.5, 3, 3.5, 4, 5, 6.5],
"binMax":
[1, 1.5, 2, 2.5, 3, 3.5, 4, 5, 6.5, 8]
},
"imageblobslnk":NULL,"scoreslnk":2,"accesslnk":1,
"parnames":["theta interval for secondary particle"], "parvalues":["0.1-0.15"]
},
{
"trid":1,"testlnk":0,"referencelnk":46,"mcdetaillnk":1,
"beamlnk":41,"targetlnk":13,"observablelnk":8,"secondarylnk":211,"reactionlnk":1,
"datatable":{
"dtid":1,"datatypeslnk":2,
"title":"Production of pi+ in proton-Al interactions at 12GeV/c, 0.15<theta<0.2 [rad]",
"npoints":0,
"nbins":[10],
"axisTitle":["momentum of pi+ [GeV/c]","Cross section [mb/(GeV/c/rad)]"],
"val":
[400, 340, 290, 170, 100, 46, 33, 25, 5, 0],
"errStatPlus":
[30, 20, 15, 10, 10, 5.5, 4, 3.5, 1.5, 0],
"errStatMinus":
[30, 20, 15, 10, 10, 5.5, 4, 3.5, 1.5, 0],
"errSysPlus":
[0., 0., 0., 0., 0., 0., 0., 0., 0., 0.],
"errSysMinus":
[0., 0., 0., 0., 0., 0., 0., 0., 0., 0.],
"binMin":
[0.5, 1, 1.5, 2, 2.5, 3, 3.5, 4, 5, 6.5],
"binMax":
[1, 1.5, 2, 2.5, 3, 3.5, 4, 5, 6.5, 8]
},
"imageblobslnk":NULL,"scoreslnk":2,"accesslnk":1,
"parnames":["theta interval for secondary particle"], "parvalues":["0.15-0.2"]
},
{
"trid":1,"testlnk":0,"referencelnk":46,"mcdetaillnk":1,
"beamlnk":41,"targetlnk":13,"observablelnk":8,"secondarylnk":211,"reactionlnk":1,
"datatable":{
"dtid":1,"datatypeslnk":2,
"title":"Production of pi+ in proton-Al interactions at 12GeV/c, 0.2<theta<0.25 [rad]",
"npoints":0,
"nbins":[10],
"axisTitle":["momentum of pi+ [GeV/c]","Cross section [mb/(GeV/c/rad)]"],
"val":
[270, 170, 100, 100, 50, 31, 18, 12, 5, 2],
"errStatPlus":
[25, 20, 15, 15, 10, 5, 4.5, 4, 2, 3.5],
"errStatMinus":
[25, 20, 15, 15, 10, 5, 4.5, 4, 2, 3.5],
"errSysPlus":
[0., 0., 0., 0., 0., 0., 0., 0., 0., 0.],
"errSysMinus":
[0., 0., 0., 0., 0., 0., 0., 0., 0., 0.],
"binMin":
[0.5, 1, 1.5, 2, 2.5, 3, 3.5, 4, 5, 6.5],
"binMax":
[1, 1.5, 2, 2.5, 3, 3.5, 4, 5, 6.5, 8]
},
"imageblobslnk":NULL,"scoreslnk":2,"accesslnk":1,
"parnames":["theta interval for secondary particle"], "parvalues":["0.2-0.25"]
},
{
"trid":1,"testlnk":0,"referencelnk":43,"mcdetaillnk":1,
"beamlnk":41,"targetlnk":13,"observablelnk":8,"secondarylnk":211,"reactionlnk":1,
"datatable":{
"dtid":1,"datatypeslnk":2,
"title":"Production of pi+ in proton-Al interactions at 12GeV/c, 0.35<theta<0.55 [rad]",
"npoints":0,
"nbins":[10],
"axisTitle":["momentum of pi+ [GeV/c]","Cross section [mb/(GeV/c/rad)]"],
"val":
[407, 559, 667, 662, 723, 758, 779, 761, 739, 569],
"errStatPlus":
[33, 19, 26.5, 19, 23.5, 23, 19, 22, 38, 45.5],
"errStatMinus":
[33, 19, 26.5, 19, 23.5, 23, 19, 22, 38, 45.5],
"errSysPlus":
[0., 0., 0., 0., 0., 0., 0., 0., 0., 0.],
"errSysMinus":
[0., 0., 0., 0., 0., 0., 0., 0., 0., 0.],
"binMin":
[0.15, 0.2, 0.25, 0.3, 0.35, 0.4, 0.45, 0.5, 0.6, 0.7],
"binMax":
[0.2, 0.25, 0.3, 0.35, 0.4, 0.45, 0.5, 0.6, 0.7, 0.8]
},
"imageblobslnk":NULL,"scoreslnk":2,"accesslnk":1,
"parnames":["theta interval for secondary particle"], "parvalues":["0.35-0.55"]
},
{
"trid":1,"testlnk":0,"referencelnk":43,"mcdetaillnk":1,
"beamlnk":41,"targetlnk":13,"observablelnk":8,"secondarylnk":211,"reactionlnk":1,
"datatable":{
"dtid":1,"datatypeslnk":2,
"title":"Production of pi+ in proton-Al interactions at 12GeV/c, 0.55<theta<0.75 [rad]",
"npoints":0,
"nbins":[11],
"axisTitle":["momentum of pi+ [GeV/c]","Cross section [mb/(GeV/c/rad)]"],
"val":
[298, 419, 579, 621, 607, 622, 646, 587, 501, 361, 227],
"errStatPlus":
[37, 17.5, 20.5, 19.5, 14, 19, 14.5, 14, 17.5, 26.5, 21.5],
"errStatMinus":
[37, 17.5, 20.5, 19.5, 14, 19, 14.5, 14, 17.5, 26.5, 21.5],
"errSysPlus":
[0., 0., 0., 0., 0., 0., 0., 0., 0., 0., 0.],
"errSysMinus":
[0., 0., 0., 0., 0., 0., 0., 0., 0., 0., 0.],
"binMin":
[0.1, 0.15, 0.2, 0.25, 0.3, 0.35, 0.4, 0.45, 0.5, 0.6, 0.7],
"binMax":
[0.15, 0.2, 0.25, 0.3, 0.35, 0.4, 0.45, 0.5, 0.6, 0.7, 0.8]
},
"imageblobslnk":NULL,"scoreslnk":2,"accesslnk":1,
"parnames":["theta interval for secondary particle"], "parvalues":["0.55-0.75"]
},
{
"trid":1,"testlnk":0,"referencelnk":43,"mcdetaillnk":1,
"beamlnk":41,"targetlnk":13,"observablelnk":8,"secondarylnk":211,"reactionlnk":1,
"datatable":{
"dtid":1,"datatypeslnk":2,
"title":"Production of pi+ in proton-Al interactions at 12GeV/c, 0.75<theta<0.95 [rad]",
"npoints":0,
"nbins":[10],
"axisTitle":["momentum of pi+ [GeV/c]","Cross section [mb/(GeV/c/rad)]"],
"val":
[292, 469, 548, 598, 519, 439, 392, 346, 269, 178],
"errStatPlus":
[23.5, 20.5, 17, 19, 11, 9, 9, 8, 11, 14.5],
"errStatMinus":
[23.5, 20.5, 17, 19, 11, 9, 9, 8, 11, 14.5],
"errSysPlus":
[0., 0., 0., 0., 0., 0., 0., 0., 0., 0.],
"errSysMinus":
[0., 0., 0., 0., 0., 0., 0., 0., 0., 0.],
"binMin":
[0.1, 0.15, 0.2, 0.25, 0.3, 0.35, 0.4, 0.45, 0.5, 0.6],
"binMax":
[0.15, 0.2, 0.25, 0.3, 0.35, 0.4, 0.45, 0.5, 0.6, 0.7]
},
"imageblobslnk":NULL,"scoreslnk":2,"accesslnk":1,
"parnames":["theta interval for secondary particle"], "parvalues":["0.75-0.95"]
},
{
"trid":1,"testlnk":0,"referencelnk":43,"mcdetaillnk":1,
"beamlnk":41,"targetlnk":13,"observablelnk":8,"secondarylnk":211,"reactionlnk":1,
"datatable":{
"dtid":1,"datatypeslnk":2,
"title":"Production of pi+ in proton-Al interactions at 12GeV/c, 0.95<theta<1.15 [rad]",
"npoints":0,
"nbins":[9],
"axisTitle":["momentum of pi+ [GeV/c]","Cross section [mb/(GeV/c/rad)]"],
"val":
[291, 521, 519, 404, 341, 288, 245, 201, 137],
"errStatPlus":
[23, 21.5, 12, 9.5, 8.5, 7, 6, 7, 8.5],
"errStatMinus":
[23, 21.5, 12, 9.5, 8.5, 7, 6, 7, 8.5],
"errSysPlus":
[0., 0., 0., 0., 0., 0., 0., 0., 0.],
"errSysMinus":
[0., 0., 0., 0., 0., 0., 0., 0., 0.],
"binMin":
[0.1, 0.15, 0.2, 0.25, 0.3, 0.35, 0.4, 0.45, 0.5],
"binMax":
[0.15, 0.2, 0.25, 0.3, 0.35, 0.4, 0.45, 0.5, 0.6]
},
"imageblobslnk":NULL,"scoreslnk":2,"accesslnk":1,
"parnames":["theta interval for secondary particle"], "parvalues":["0.95-1.15"]
},
{
"trid":1,"testlnk":0,"referencelnk":43,"mcdetaillnk":1,
"beamlnk":41,"targetlnk":13,"observablelnk":8,"secondarylnk":211,"reactionlnk":1,
"datatable":{
"dtid":1,"datatypeslnk":2,
"title":"Production of pi+ in proton-Al interactions at 12GeV/c, 1.15<theta<1.35 [rad]",
"npoints":0,
"nbins":[8],
"axisTitle":["momentum of pi+ [GeV/c]","Cross section [mb/(GeV/c/rad)]"],
"val":
[298, 474, 438, 332, 260, 173, 139, 104],
"errStatPlus":
[20.5, 15.5, 11, 8.5, 7.5, 7.5, 4.5, 4.5],
"errStatMinus":
[20.5, 15.5, 11, 8.5, 7.5, 7.5, 4.5, 4.5],
"errSysPlus":
[0., 0., 0., 0., 0., 0., 0., 0.],
"errSysMinus":
[0., 0., 0., 0., 0., 0., 0., 0.],
"binMin":
[0.1, 0.15, 0.2, 0.25, 0.3, 0.35, 0.4, 0.45],
"binMax":
[0.15, 0.2, 0.25, 0.3, 0.35, 0.4, 0.45, 0.5]
},
"imageblobslnk":NULL,"scoreslnk":2,"accesslnk":1,
"parnames":["theta interval for secondary particle"], "parvalues":["1.15-1.35"]
},
{
"trid":1,"testlnk":0,"referencelnk":43,"mcdetaillnk":1,
"beamlnk":41,"targetlnk":13,"observablelnk":8,"secondarylnk":211,"reactionlnk":1,
"datatable":{
"dtid":1,"datatypeslnk":2,
"title":"Production of pi+ in proton-Al interactions at 12GeV/c, 1.35<theta<1.55 [rad]",
"npoints":0,
"nbins":[8],
"axisTitle":["momentum of pi+ [GeV/c]","Cross section [mb/(GeV/c/rad)]"],
"val":
[354, 433, 356, 241, 178, 137, 89, 58],
"errStatPlus":
[24.5, 12.5, 9.5, 7, 5.5, 5.5, 5, 4.5],
"errStatMinus":
[24.5, 12.5, 9.5, 7, 5.5, 5.5, 5, 4.5],
"errSysPlus":
[0., 0., 0., 0., 0., 0., 0., 0.],
"errSysMinus":
[0., 0., 0., 0., 0., 0., 0., 0.],
"binMin":
[0.1, 0.15, 0.2, 0.25, 0.3, 0.35, 0.4, 0.45],
"binMax":
[0.15, 0.2, 0.25, 0.3, 0.35, 0.4, 0.45, 0.5]
},
"imageblobslnk":NULL,"scoreslnk":2,"accesslnk":1,
"parnames":["theta interval for secondary particle"], "parvalues":["1.35-1.55"]
},
{
"trid":1,"testlnk":0,"referencelnk":43,"mcdetaillnk":1,
"beamlnk":41,"targetlnk":13,"observablelnk":8,"secondarylnk":211,"reactionlnk":1,
"datatable":{
"dtid":1,"datatypeslnk":2,
"title":"Production of pi+ in proton-Al interactions at 12GeV/c, 1.55<theta<1.75 [rad]",
"npoints":0,
"nbins":[8],
"axisTitle":["momentum of pi+ [GeV/c]","Cross section [mb/(GeV/c/rad)]"],
"val":
[301, 370, 274, 190, 101, 62, 46, 29],
"errStatPlus":
[19.5, 11.5, 10, 6.5, 5.5, 2.5, 2.5, 2.5],
"errStatMinus":
[19.5, 11.5, 10, 6.5, 5.5, 2.5, 2.5, 2.5],
"errSysPlus":
[0., 0., 0., 0., 0., 0., 0., 0.],
"errSysMinus":
[0., 0., 0., 0., 0., 0., 0., 0.],
"binMin":
[0.1, 0.15, 0.2, 0.25, 0.3, 0.35, 0.4, 0.45],
"binMax":
[0.15, 0.2, 0.25, 0.3, 0.35, 0.4, 0.45, 0.5]
},
"imageblobslnk":NULL,"scoreslnk":2,"accesslnk":1,
"parnames":["theta interval for secondary particle"], "parvalues":["1.55-1.75"]
},
{
"trid":1,"testlnk":0,"referencelnk":43,"mcdetaillnk":1,
"beamlnk":41,"targetlnk":13,"observablelnk":8,"secondarylnk":211,"reactionlnk":1,
"datatable":{
"dtid":1,"datatypeslnk":2,
"title":"Production of pi+ in proton-Al interactions at 12GeV/c, 1.75<theta<1.95 [rad]",
"npoints":0,
"nbins":[8],
"axisTitle":["momentum of pi+ [GeV/c]","Cross section [mb/(GeV/c/rad)]"],
"val":
[292, 332, 192, 116, 63, 41, 26, 16],
"errStatPlus":
[18, 9.5, 8, 5, 4, 2, 2, 1.5],
"errStatMinus":
[18, 9.5, 8, 5, 4, 2, 2, 1.5],
"errSysPlus":
[0., 0., 0., 0., 0., 0., 0., 0.],
"errSysMinus":
[0., 0., 0., 0., 0., 0., 0., 0.],
"binMin":
[0.1, 0.15, 0.2, 0.25, 0.3, 0.35, 0.4, 0.45],
"binMax":
[0.15, 0.2, 0.25, 0.3, 0.35, 0.4, 0.45, 0.5]
},
"imageblobslnk":NULL,"scoreslnk":2,"accesslnk":1,
"parnames":["theta interval for secondary particle"], "parvalues":["1.75-1.95"]
},
{
"trid":1,"testlnk":0,"referencelnk":43,"mcdetaillnk":1,
"beamlnk":41,"targetlnk":13,"observablelnk":8,"secondarylnk":211,"reactionlnk":1,
"datatable":{
"dtid":1,"datatypeslnk":2,
"title":"Production of pi+ in proton-Al interactions at 12GeV/c, 1.95<theta<2.15 [rad]",
"npoints":0,
"nbins":[8],
"axisTitle":["momentum of pi+ [GeV/c]","Cross section [mb/(GeV/c/rad)]"],
"val":
[223, 246, 140, 73, 46, 31, 15, 7],
"errStatPlus":
[14, 8, 7.5, 3, 3, 2, 2, 1],
"errStatMinus":
[14, 8, 7.5, 3, 3, 2, 2, 1],
"errSysPlus":
[0., 0., 0., 0., 0., 0., 0., 0.],
"errSysMinus":
[0., 0., 0., 0., 0., 0., 0., 0.],
"binMin":
[0.1, 0.15, 0.2, 0.25, 0.3, 0.35, 0.4, 0.45],
"binMax":
[0.15, 0.2, 0.25, 0.3, 0.35, 0.4, 0.45, 0.5]
},
"imageblobslnk":NULL,"scoreslnk":2,"accesslnk":1,
"parnames":["theta interval for secondary particle"], "parvalues":["1.95-2.15"]
},
{
"trid":1,"testlnk":0,"referencelnk":46,"mcdetaillnk":1,
"beamlnk":37,"targetlnk":13,"observablelnk":8,"secondarylnk":-211,"reactionlnk":1,
"datatable":{
"dtid":1,"datatypeslnk":2,
"title":"Production of pi- in proton-Al interactions at 3GeV/c, 0.05<theta<0.1 [rad]",
"npoints":0,
"nbins":[10],
"axisTitle":["momentum of pi- [GeV/c]","Cross section [mb/(GeV/c/rad)]"],
"val":
[30, 0, 1, 0, 0, 0, 0, 0, 0, 0],
"errStatPlus":
[15, 0, 1.5, 0, 0, 0, 0, 0, 0, 0],
"errStatMinus":
[15, 0, 1.5, 0, 0, 0, 0, 0, 0, 0],
"errSysPlus":
[0., 0., 0., 0., 0., 0., 0., 0., 0., 0.],
"errSysMinus":
[0., 0., 0., 0., 0., 0., 0., 0., 0., 0.],
"binMin":
[0.5, 1, 1.5, 2, 2.5, 3, 3.5, 4, 5, 6.5],
"binMax":
[1, 1.5, 2, 2.5, 3, 3.5, 4, 5, 6.5, 8]
},
"imageblobslnk":NULL,"scoreslnk":2,"accesslnk":1,
"parnames":["theta interval for secondary particle"], "parvalues":["0.05-0.1"]
},
{
"trid":1,"testlnk":0,"referencelnk":46,"mcdetaillnk":1,
"beamlnk":37,"targetlnk":13,"observablelnk":8,"secondarylnk":-211,"reactionlnk":1,
"datatable":{
"dtid":1,"datatypeslnk":2,
"title":"Production of pi- in proton-Al interactions at 3GeV/c, 0.1<theta<0.15 [rad]",
"npoints":0,
"nbins":[10],
"axisTitle":["momentum of pi- [GeV/c]","Cross section [mb/(GeV/c/rad)]"],
"val":
[30, 0, 2, 0, 0, 0, 0, 0, 0, 0],
"errStatPlus":
[15, 0, 2.5, 0, 0, 0, 0, 0, 0, 0],
"errStatMinus":
[15, 0, 2.5, 0, 0, 0, 0, 0, 0, 0],
"errSysPlus":
[0., 0., 0., 0., 0., 0., 0., 0., 0., 0.],
"errSysMinus":
[0., 0., 0., 0., 0., 0., 0., 0., 0., 0.],
"binMin":
[0.5, 1, 1.5, 2, 2.5, 3, 3.5, 4, 5, 6.5],
"binMax":
[1, 1.5, 2, 2.5, 3, 3.5, 4, 5, 6.5, 8]
},
"imageblobslnk":NULL,"scoreslnk":2,"accesslnk":1,
"parnames":["theta interval for secondary particle"], "parvalues":["0.1-0.15"]
},
{
"trid":1,"testlnk":0,"referencelnk":46,"mcdetaillnk":1,
"beamlnk":37,"targetlnk":13,"observablelnk":8,"secondarylnk":-211,"reactionlnk":1,
"datatable":{
"dtid":1,"datatypeslnk":2,
"title":"Production of pi- in proton-Al interactions at 3GeV/c, 0.15<theta<0.2 [rad]",
"npoints":0,
"nbins":[10],
"axisTitle":["momentum of pi- [GeV/c]","Cross section [mb/(GeV/c/rad)]"],
"val":
[70, 20, 0, 0, 0, 0, 0, 0, 0, 0],
"errStatPlus":
[20, 10, 0, 0, 0, 0, 0, 0, 0, 0],
"errStatMinus":
[20, 10, 0, 0, 0, 0, 0, 0, 0, 0],
"errSysPlus":
[0., 0., 0., 0., 0., 0., 0., 0., 0., 0.],
"errSysMinus":
[0., 0., 0., 0., 0., 0., 0., 0., 0., 0.],
"binMin":
[0.5, 1, 1.5, 2, 2.5, 3, 3.5, 4, 5, 6.5],
"binMax":
[1, 1.5, 2, 2.5, 3, 3.5, 4, 5, 6.5, 8]
},
"imageblobslnk":NULL,"scoreslnk":2,"accesslnk":1,
"parnames":["theta interval for secondary particle"], "parvalues":["0.15-0.2"]
},
{
"trid":1,"testlnk":0,"referencelnk":46,"mcdetaillnk":1,
"beamlnk":37,"targetlnk":13,"observablelnk":8,"secondarylnk":-211,"reactionlnk":1,
"datatable":{
"dtid":1,"datatypeslnk":2,
"title":"Production of pi- in proton-Al interactions at 3GeV/c, 0.2<theta<0.25 [rad]",
"npoints":0,
"nbins":[10],
"axisTitle":["momentum of pi- [GeV/c]","Cross section [mb/(GeV/c/rad)]"],
"val":
[30, 20, 0, 0, 0, 0, 0, 0, 0, 0],
"errStatPlus":
[15, 15, 0.5, 0, 0, 0, 0, 0, 0, 0],
"errStatMinus":
[15, 15, 0.5, 0, 0, 0, 0, 0, 0, 0],
"errSysPlus":
[0., 0., 0., 0., 0., 0., 0., 0., 0., 0.],
"errSysMinus":
[0., 0., 0., 0., 0., 0., 0., 0., 0., 0.],
"binMin":
[0.5, 1, 1.5, 2, 2.5, 3, 3.5, 4, 5, 6.5],
"binMax":
[1, 1.5, 2, 2.5, 3, 3.5, 4, 5, 6.5, 8]
},
"imageblobslnk":NULL,"scoreslnk":2,"accesslnk":1,
"parnames":["theta interval for secondary particle"], "parvalues":["0.2-0.25"]
},
{
"trid":1,"testlnk":0,"referencelnk":43,"mcdetaillnk":1,
"beamlnk":37,"targetlnk":13,"observablelnk":8,"secondarylnk":-211,"reactionlnk":1,
"datatable":{
"dtid":1,"datatypeslnk":2,
"title":"Production of pi- in proton-Al interactions at 3GeV/c, 0.35<theta<0.55 [rad]",
"npoints":0,
"nbins":[10],
"axisTitle":["momentum of pi- [GeV/c]","Cross section [mb/(GeV/c/rad)]"],
"val":
[131, 124, 126, 170, 186, 132, 112, 131, 87, 61],
"errStatPlus":
[15, 10.5, 11, 10, 10.5, 8.5, 6, 7, 6.5, 6.5],
"errStatMinus":
[15, 10.5, 11, 10, 10.5, 8.5, 6, 7, 6.5, 6.5],
"errSysPlus":
[0., 0., 0., 0., 0., 0., 0., 0., 0., 0.],
"errSysMinus":
[0., 0., 0., 0., 0., 0., 0., 0., 0., 0.],
"binMin":
[0.15, 0.2, 0.25, 0.3, 0.35, 0.4, 0.45, 0.5, 0.6, 0.7],
"binMax":
[0.2, 0.25, 0.3, 0.35, 0.4, 0.45, 0.5, 0.6, 0.7, 0.8]
},
"imageblobslnk":NULL,"scoreslnk":2,"accesslnk":1,
"parnames":["theta interval for secondary particle"], "parvalues":["0.35-0.55"]
},
{
"trid":1,"testlnk":0,"referencelnk":43,"mcdetaillnk":1,
"beamlnk":37,"targetlnk":13,"observablelnk":8,"secondarylnk":-211,"reactionlnk":1,
"datatable":{
"dtid":1,"datatypeslnk":2,
"title":"Production of pi- in proton-Al interactions at 3GeV/c, 0.55<theta<0.75 [rad]",
"npoints":0,
"nbins":[11],
"axisTitle":["momentum of pi- [GeV/c]","Cross section [mb/(GeV/c/rad)]"],
"val":
[75, 115, 196, 164, 153, 143, 130, 119, 95, 76, 55],
"errStatPlus":
[13.5, 9.5, 13.5, 9, 9, 7, 6.5, 6, 5, 5.5, 5.5],
"errStatMinus":
[13.5, 9.5, 13.5, 9, 9, 7, 6.5, 6, 5, 5.5, 5.5],
"errSysPlus":
[0., 0., 0., 0., 0., 0., 0., 0., 0., 0., 0.],
"errSysMinus":
[0., 0., 0., 0., 0., 0., 0., 0., 0., 0., 0.],
"binMin":
[0.1, 0.15, 0.2, 0.25, 0.3, 0.35, 0.4, 0.45, 0.5, 0.6, 0.7],
"binMax":
[0.15, 0.2, 0.25, 0.3, 0.35, 0.4, 0.45, 0.5, 0.6, 0.7, 0.8]
},
"imageblobslnk":NULL,"scoreslnk":2,"accesslnk":1,
"parnames":["theta interval for secondary particle"], "parvalues":["0.55-0.75"]
},
{
"trid":1,"testlnk":0,"referencelnk":43,"mcdetaillnk":1,
"beamlnk":37,"targetlnk":13,"observablelnk":8,"secondarylnk":-211,"reactionlnk":1,
"datatable":{
"dtid":1,"datatypeslnk":2,
"title":"Production of pi- in proton-Al interactions at 3GeV/c, 0.75<theta<0.95 [rad]",
"npoints":0,
"nbins":[10],
"axisTitle":["momentum of pi- [GeV/c]","Cross section [mb/(GeV/c/rad)]"],
"val":
[99, 200, 170, 145, 134, 125, 115, 94, 59, 34],
"errStatPlus":
[12.5, 11.5, 9.5, 7.5, 7.5, 6, 6, 5.5, 5, 3],
"errStatMinus":
[12.5, 11.5, 9.5, 7.5, 7.5, 6, 6, 5.5, 5, 3],
"errSysPlus":
[0., 0., 0., 0., 0., 0., 0., 0., 0., 0.],
"errSysMinus":
[0., 0., 0., 0., 0., 0., 0., 0., 0., 0.],
"binMin":
[0.1, 0.15, 0.2, 0.25, 0.3, 0.35, 0.4, 0.45, 0.5, 0.6],
"binMax":
[0.15, 0.2, 0.25, 0.3, 0.35, 0.4, 0.45, 0.5, 0.6, 0.7]
},
"imageblobslnk":NULL,"scoreslnk":2,"accesslnk":1,
"parnames":["theta interval for secondary particle"], "parvalues":["0.75-0.95"]
},
{
"trid":1,"testlnk":0,"referencelnk":43,"mcdetaillnk":1,
"beamlnk":37,"targetlnk":13,"observablelnk":8,"secondarylnk":-211,"reactionlnk":1,
"datatable":{
"dtid":1,"datatypeslnk":2,
"title":"Production of pi- in proton-Al interactions at 3GeV/c, 0.95<theta<1.15 [rad]",
"npoints":0,
"nbins":[9],
"axisTitle":["momentum of pi- [GeV/c]","Cross section [mb/(GeV/c/rad)]"],
"val":
[161, 187, 178, 154, 118, 91, 60, 49, 34],
"errStatPlus":
[12.5, 10.5, 9.5, 7.5, 6, 5.5, 4, 3, 3],
"errStatMinus":
[12.5, 10.5, 9.5, 7.5, 6, 5.5, 4, 3, 3],
"errSysPlus":
[0., 0., 0., 0., 0., 0., 0., 0., 0.],
"errSysMinus":
[0., 0., 0., 0., 0., 0., 0., 0., 0.],
"binMin":
[0.1, 0.15, 0.2, 0.25, 0.3, 0.35, 0.4, 0.45, 0.5],
"binMax":
[0.15, 0.2, 0.25, 0.3, 0.35, 0.4, 0.45, 0.5, 0.6]
},
"imageblobslnk":NULL,"scoreslnk":2,"accesslnk":1,
"parnames":["theta interval for secondary particle"], "parvalues":["0.95-1.15"]
},
{
"trid":1,"testlnk":0,"referencelnk":43,"mcdetaillnk":1,
"beamlnk":37,"targetlnk":13,"observablelnk":8,"secondarylnk":-211,"reactionlnk":1,
"datatable":{
"dtid":1,"datatypeslnk":2,
"title":"Production of pi- in proton-Al interactions at 3GeV/c, 1.15<theta<1.35 [rad]",
"npoints":0,
"nbins":[8],
"axisTitle":["momentum of pi- [GeV/c]","Cross section [mb/(GeV/c/rad)]"],
"val":
[123, 160, 159, 132, 84, 62, 36, 26],
"errStatPlus":
[10, 9, 8.5, 7.5, 5.5, 4.5, 3, 2],
"errStatMinus":
[10, 9, 8.5, 7.5, 5.5, 4.5, 3, 2],
"errSysPlus":
[0., 0., 0., 0., 0., 0., 0., 0.],
"errSysMinus":
[0., 0., 0., 0., 0., 0., 0., 0.],
"binMin":
[0.1, 0.15, 0.2, 0.25, 0.3, 0.35, 0.4, 0.45],
"binMax":
[0.15, 0.2, 0.25, 0.3, 0.35, 0.4, 0.45, 0.5]
},
"imageblobslnk":NULL,"scoreslnk":2,"accesslnk":1,
"parnames":["theta interval for secondary particle"], "parvalues":["1.15-1.35"]
},
{
"trid":1,"testlnk":0,"referencelnk":43,"mcdetaillnk":1,
"beamlnk":37,"targetlnk":13,"observablelnk":8,"secondarylnk":-211,"reactionlnk":1,
"datatable":{
"dtid":1,"datatypeslnk":2,
"title":"Production of pi- in proton-Al interactions at 3GeV/c, 1.35<theta<1.55 [rad]",
"npoints":0,
"nbins":[8],
"axisTitle":["momentum of pi- [GeV/c]","Cross section [mb/(GeV/c/rad)]"],
"val":
[187, 198, 130, 83, 67, 35, 25, 19],
"errStatPlus":
[13.5, 10, 8, 5.5, 5, 3, 2.5, 2],
"errStatMinus":
[13.5, 10, 8, 5.5, 5, 3, 2.5, 2],
"errSysPlus":
[0., 0., 0., 0., 0., 0., 0., 0.],
"errSysMinus":
[0., 0., 0., 0., 0., 0., 0., 0.],
"binMin":
[0.1, 0.15, 0.2, 0.25, 0.3, 0.35, 0.4, 0.45],
"binMax":
[0.15, 0.2, 0.25, 0.3, 0.35, 0.4, 0.45, 0.5]
},
"imageblobslnk":NULL,"scoreslnk":2,"accesslnk":1,
"parnames":["theta interval for secondary particle"], "parvalues":["1.35-1.55"]
},
{
"trid":1,"testlnk":0,"referencelnk":43,"mcdetaillnk":1,
"beamlnk":37,"targetlnk":13,"observablelnk":8,"secondarylnk":-211,"reactionlnk":1,
"datatable":{
"dtid":1,"datatypeslnk":2,
"title":"Production of pi- in proton-Al interactions at 3GeV/c, 1.55<theta<1.75 [rad]",
"npoints":0,
"nbins":[8],
"axisTitle":["momentum of pi- [GeV/c]","Cross section [mb/(GeV/c/rad)]"],
"val":
[140, 151, 101, 64, 46, 20, 9, 6],
"errStatPlus":
[11, 8.5, 6.5, 4.5, 4, 3, 1.5, 1],
"errStatMinus":
[11, 8.5, 6.5, 4.5, 4, 3, 1.5, 1],
"errSysPlus":
[0., 0., 0., 0., 0., 0., 0., 0.],
"errSysMinus":
[0., 0., 0., 0., 0., 0., 0., 0.],
"binMin":
[0.1, 0.15, 0.2, 0.25, 0.3, 0.35, 0.4, 0.45],
"binMax":
[0.15, 0.2, 0.25, 0.3, 0.35, 0.4, 0.45, 0.5]
},
"imageblobslnk":NULL,"scoreslnk":2,"accesslnk":1,
"parnames":["theta interval for secondary particle"], "parvalues":["1.55-1.75"]
},
{
"trid":1,"testlnk":0,"referencelnk":43,"mcdetaillnk":1,
"beamlnk":37,"targetlnk":13,"observablelnk":8,"secondarylnk":-211,"reactionlnk":1,
"datatable":{
"dtid":1,"datatypeslnk":2,
"title":"Production of pi- in proton-Al interactions at 3GeV/c, 1.75<theta<1.95 [rad]",
"npoints":0,
"nbins":[8],
"axisTitle":["momentum of pi- [GeV/c]","Cross section [mb/(GeV/c/rad)]"],
"val":
[118, 163, 80, 53, 35, 25, 13, 7],
"errStatPlus":
[9.5, 9, 6, 4.5, 3.5, 3, 2, 1.5],
"errStatMinus":
[9.5, 9, 6, 4.5, 3.5, 3, 2, 1.5],
"errSysPlus":
[0., 0., 0., 0., 0., 0., 0., 0.],
"errSysMinus":
[0., 0., 0., 0., 0., 0., 0., 0.],
"binMin":
[0.1, 0.15, 0.2, 0.25, 0.3, 0.35, 0.4, 0.45],
"binMax":
[0.15, 0.2, 0.25, 0.3, 0.35, 0.4, 0.45, 0.5]
},
"imageblobslnk":NULL,"scoreslnk":2,"accesslnk":1,
"parnames":["theta interval for secondary particle"], "parvalues":["1.75-1.95"]
},
{
"trid":1,"testlnk":0,"referencelnk":43,"mcdetaillnk":1,
"beamlnk":37,"targetlnk":13,"observablelnk":8,"secondarylnk":-211,"reactionlnk":1,
"datatable":{
"dtid":1,"datatypeslnk":2,
"title":"Production of pi- in proton-Al interactions at 3GeV/c, 1.95<theta<2.15 [rad]",
"npoints":0,
"nbins":[8],
"axisTitle":["momentum of pi- [GeV/c]","Cross section [mb/(GeV/c/rad)]"],
"val":
[109, 104, 53, 37, 18, 10, 5, 2],
"errStatPlus":
[8.5, 7, 4.5, 4, 2.5, 2, 1.5, 1],
"errStatMinus":
[8.5, 7, 4.5, 4, 2.5, 2, 1.5, 1],
"errSysPlus":
[0., 0., 0., 0., 0., 0., 0., 0.],
"errSysMinus":
[0., 0., 0., 0., 0., 0., 0., 0.],
"binMin":
[0.1, 0.15, 0.2, 0.25, 0.3, 0.35, 0.4, 0.45],
"binMax":
[0.15, 0.2, 0.25, 0.3, 0.35, 0.4, 0.45, 0.5]
},
"imageblobslnk":NULL,"scoreslnk":2,"accesslnk":1,
"parnames":["theta interval for secondary particle"], "parvalues":["1.95-2.15"]
},
{
"trid":1,"testlnk":0,"referencelnk":46,"mcdetaillnk":1,
"beamlnk":38,"targetlnk":13,"observablelnk":8,"secondarylnk":-211,"reactionlnk":1,
"datatable":{
"dtid":1,"datatypeslnk":2,
"title":"Production of pi- in proton-Al interactions at 5GeV/c, 0.05<theta<0.1 [rad]",
"npoints":0,
"nbins":[10],
"axisTitle":["momentum of pi- [GeV/c]","Cross section [mb/(GeV/c/rad)]"],
"val":
[140, 100, 50, 23, 7, 0, 0, 0, 0, 0],
"errStatPlus":
[15, 10, 6.5, 4, 2, 0, 0, 0, 0, 0],
"errStatMinus":
[15, 10, 6.5, 4, 2, 0, 0, 0, 0, 0],
"errSysPlus":
[0., 0., 0., 0., 0., 0., 0., 0., 0., 0.],
"errSysMinus":
[0., 0., 0., 0., 0., 0., 0., 0., 0., 0.],
"binMin":
[0.5, 1, 1.5, 2, 2.5, 3, 3.5, 4, 5, 6.5],
"binMax":
[1, 1.5, 2, 2.5, 3, 3.5, 4, 5, 6.5, 8]
},
"imageblobslnk":NULL,"scoreslnk":2,"accesslnk":1,
"parnames":["theta interval for secondary particle"], "parvalues":["0.05-0.1"]
},
{
"trid":1,"testlnk":0,"referencelnk":46,"mcdetaillnk":1,
"beamlnk":38,"targetlnk":13,"observablelnk":8,"secondarylnk":-211,"reactionlnk":1,
"datatable":{
"dtid":1,"datatypeslnk":2,
"title":"Production of pi- in proton-Al interactions at 5GeV/c, 0.1<theta<0.15 [rad]",
"npoints":0,
"nbins":[10],
"axisTitle":["momentum of pi- [GeV/c]","Cross section [mb/(GeV/c/rad)]"],
"val":
[160, 80, 38, 17, 11, 2, 0, 0, 0, 0],
"errStatPlus":
[15, 10, 5, 3, 2, 0.5, 0, 0, 0, 0],
"errStatMinus":
[15, 10, 5, 3, 2, 0.5, 0, 0, 0, 0],
"errSysPlus":
[0., 0., 0., 0., 0., 0., 0., 0., 0., 0.],
"errSysMinus":
[0., 0., 0., 0., 0., 0., 0., 0., 0., 0.],
"binMin":
[0.5, 1, 1.5, 2, 2.5, 3, 3.5, 4, 5, 6.5],
"binMax":
[1, 1.5, 2, 2.5, 3, 3.5, 4, 5, 6.5, 8]
},
"imageblobslnk":NULL,"scoreslnk":2,"accesslnk":1,
"parnames":["theta interval for secondary particle"], "parvalues":["0.1-0.15"]
},
{
"trid":1,"testlnk":0,"referencelnk":46,"mcdetaillnk":1,
"beamlnk":38,"targetlnk":13,"observablelnk":8,"secondarylnk":-211,"reactionlnk":1,
"datatable":{
"dtid":1,"datatypeslnk":2,
"title":"Production of pi- in proton-Al interactions at 5GeV/c, 0.15<theta<0.2 [rad]",
"npoints":0,
"nbins":[10],
"axisTitle":["momentum of pi- [GeV/c]","Cross section [mb/(GeV/c/rad)]"],
"val":
[180, 80, 27, 14, 5, 0, 0, 0, 0, 0],
"errStatPlus":
[15, 10, 4, 2.5, 2, 0.5, 0, 0, 0, 0],
"errStatMinus":
[15, 10, 4, 2.5, 2, 0.5, 0, 0, 0, 0],
"errSysPlus":
[0., 0., 0., 0., 0., 0., 0., 0., 0., 0.],
"errSysMinus":
[0., 0., 0., 0., 0., 0., 0., 0., 0., 0.],
"binMin":
[0.5, 1, 1.5, 2, 2.5, 3, 3.5, 4, 5, 6.5],
"binMax":
[1, 1.5, 2, 2.5, 3, 3.5, 4, 5, 6.5, 8]
},
"imageblobslnk":NULL,"scoreslnk":2,"accesslnk":1,
"parnames":["theta interval for secondary particle"], "parvalues":["0.15-0.2"]
},
{
"trid":1,"testlnk":0,"referencelnk":46,"mcdetaillnk":1,
"beamlnk":38,"targetlnk":13,"observablelnk":8,"secondarylnk":-211,"reactionlnk":1,
"datatable":{
"dtid":1,"datatypeslnk":2,
"title":"Production of pi- in proton-Al interactions at 5GeV/c, 0.2<theta<0.25 [rad]",
"npoints":0,
"nbins":[10],
"axisTitle":["momentum of pi- [GeV/c]","Cross section [mb/(GeV/c/rad)]"],
"val":
[120, 70, 10, 5, 2, 0, 0, 0, 0, 0],
"errStatPlus":
[15, 10, 3.5, 2, 1, 0, 0, 0, 0, 0],
"errStatMinus":
[15, 10, 3.5, 2, 1, 0, 0, 0, 0, 0],
"errSysPlus":
[0., 0., 0., 0., 0., 0., 0., 0., 0., 0.],
"errSysMinus":
[0., 0., 0., 0., 0., 0., 0., 0., 0., 0.],
"binMin":
[0.5, 1, 1.5, 2, 2.5, 3, 3.5, 4, 5, 6.5],
"binMax":
[1, 1.5, 2, 2.5, 3, 3.5, 4, 5, 6.5, 8]
},
"imageblobslnk":NULL,"scoreslnk":2,"accesslnk":1,
"parnames":["theta interval for secondary particle"], "parvalues":["0.2-0.25"]
},
{
"trid":1,"testlnk":0,"referencelnk":43,"mcdetaillnk":1,
"beamlnk":38,"targetlnk":13,"observablelnk":8,"secondarylnk":-211,"reactionlnk":1,
"datatable":{
"dtid":1,"datatypeslnk":2,
"title":"Production of pi- in proton-Al interactions at 5GeV/c, 0.35<theta<0.55 [rad]",
"npoints":0,
"nbins":[10],
"axisTitle":["momentum of pi- [GeV/c]","Cross section [mb/(GeV/c/rad)]"],
"val":
[243, 258, 289, 312, 293, 262, 257, 246, 217, 166],
"errStatPlus":
[21, 11, 12, 12, 9, 7.5, 7.5, 8.5, 9.5, 12.5],
"errStatMinus":
[21, 11, 12, 12, 9, 7.5, 7.5, 8.5, 9.5, 12.5],
"errSysPlus":
[0., 0., 0., 0., 0., 0., 0., 0., 0., 0.],
"errSysMinus":
[0., 0., 0., 0., 0., 0., 0., 0., 0., 0.],
"binMin":
[0.15, 0.2, 0.25, 0.3, 0.35, 0.4, 0.45, 0.5, 0.6, 0.7],
"binMax":
[0.2, 0.25, 0.3, 0.35, 0.4, 0.45, 0.5, 0.6, 0.7, 0.8]
},
"imageblobslnk":NULL,"scoreslnk":2,"accesslnk":1,
"parnames":["theta interval for secondary particle"], "parvalues":["0.35-0.55"]
},
{
"trid":1,"testlnk":0,"referencelnk":43,"mcdetaillnk":1,
"beamlnk":38,"targetlnk":13,"observablelnk":8,"secondarylnk":-211,"reactionlnk":1,
"datatable":{
"dtid":1,"datatypeslnk":2,
"title":"Production of pi- in proton-Al interactions at 5GeV/c, 0.55<theta<0.75 [rad]",
"npoints":0,
"nbins":[11],
"axisTitle":["momentum of pi- [GeV/c]","Cross section [mb/(GeV/c/rad)]"],
"val":
[176, 290, 273, 279, 265, 231, 219, 228, 201, 156, 126],
"errStatPlus":
[23.5, 12, 10, 9, 8, 6, 7.5, 7, 6.5, 8.5, 10],
"errStatMinus":
[23.5, 12, 10, 9, 8, 6, 7.5, 7, 6.5, 8.5, 10],
"errSysPlus":
[0., 0., 0., 0., 0., 0., 0., 0., 0., 0., 0.],
"errSysMinus":
[0., 0., 0., 0., 0., 0., 0., 0., 0., 0., 0.],
"binMin":
[0.1, 0.15, 0.2, 0.25, 0.3, 0.35, 0.4, 0.45, 0.5, 0.6, 0.7],
"binMax":
[0.15, 0.2, 0.25, 0.3, 0.35, 0.4, 0.45, 0.5, 0.6, 0.7, 0.8]
},
"imageblobslnk":NULL,"scoreslnk":2,"accesslnk":1,
"parnames":["theta interval for secondary particle"], "parvalues":["0.55-0.75"]
},
{
"trid":1,"testlnk":0,"referencelnk":43,"mcdetaillnk":1,
"beamlnk":38,"targetlnk":13,"observablelnk":8,"secondarylnk":-211,"reactionlnk":1,
"datatable":{
"dtid":1,"datatypeslnk":2,
"title":"Production of pi- in proton-Al interactions at 5GeV/c, 0.75<theta<0.95 [rad]",
"npoints":0,
"nbins":[10],
"axisTitle":["momentum of pi- [GeV/c]","Cross section [mb/(GeV/c/rad)]"],
"val":
[177, 322, 286, 280, 233, 220, 185, 158, 120, 86],
"errStatPlus":
[15, 11, 10, 8, 6.5, 6, 5.5, 4.5, 4.5, 5.5],
"errStatMinus":
[15, 11, 10, 8, 6.5, 6, 5.5, 4.5, 4.5, 5.5],
"errSysPlus":
[0., 0., 0., 0., 0., 0., 0., 0., 0., 0.],
"errSysMinus":
[0., 0., 0., 0., 0., 0., 0., 0., 0., 0.],
"binMin":
[0.1, 0.15, 0.2, 0.25, 0.3, 0.35, 0.4, 0.45, 0.5, 0.6],
"binMax":
[0.15, 0.2, 0.25, 0.3, 0.35, 0.4, 0.45, 0.5, 0.6, 0.7]
},
"imageblobslnk":NULL,"scoreslnk":2,"accesslnk":1,
"parnames":["theta interval for secondary particle"], "parvalues":["0.75-0.95"]
},
{
"trid":1,"testlnk":0,"referencelnk":43,"mcdetaillnk":1,
"beamlnk":38,"targetlnk":13,"observablelnk":8,"secondarylnk":-211,"reactionlnk":1,
"datatable":{
"dtid":1,"datatypeslnk":2,
"title":"Production of pi- in proton-Al interactions at 5GeV/c, 0.95<theta<1.15 [rad]",
"npoints":0,
"nbins":[9],
"axisTitle":["momentum of pi- [GeV/c]","Cross section [mb/(GeV/c/rad)]"],
"val":
[190, 305, 300, 227, 186, 147, 128, 97, 72],
"errStatPlus":
[12, 13.5, 8.5, 6.5, 5.5, 4.5, 4, 3.5, 3.5],
"errStatMinus":
[12, 13.5, 8.5, 6.5, 5.5, 4.5, 4, 3.5, 3.5],
"errSysPlus":
[0., 0., 0., 0., 0., 0., 0., 0., 0.],
"errSysMinus":
[0., 0., 0., 0., 0., 0., 0., 0., 0.],
"binMin":
[0.1, 0.15, 0.2, 0.25, 0.3, 0.35, 0.4, 0.45, 0.5],
"binMax":
[0.15, 0.2, 0.25, 0.3, 0.35, 0.4, 0.45, 0.5, 0.6]
},
"imageblobslnk":NULL,"scoreslnk":2,"accesslnk":1,
"parnames":["theta interval for secondary particle"], "parvalues":["0.95-1.15"]
},
{
"trid":1,"testlnk":0,"referencelnk":43,"mcdetaillnk":1,
"beamlnk":38,"targetlnk":13,"observablelnk":8,"secondarylnk":-211,"reactionlnk":1,
"datatable":{
"dtid":1,"datatypeslnk":2,
"title":"Production of pi- in proton-Al interactions at 5GeV/c, 1.15<theta<1.35 [rad]",
"npoints":0,
"nbins":[8],
"axisTitle":["momentum of pi- [GeV/c]","Cross section [mb/(GeV/c/rad)]"],
"val":
[211, 288, 239, 185, 164, 114, 87, 64],
"errStatPlus":
[12.5, 9.5, 7.5, 6.5, 5, 4, 3.5, 3],
"errStatMinus":
[12.5, 9.5, 7.5, 6.5, 5, 4, 3.5, 3],
"errSysPlus":
[0., 0., 0., 0., 0., 0., 0., 0.],
"errSysMinus":
[0., 0., 0., 0., 0., 0., 0., 0.],
"binMin":
[0.1, 0.15, 0.2, 0.25, 0.3, 0.35, 0.4, 0.45],
"binMax":
[0.15, 0.2, 0.25, 0.3, 0.35, 0.4, 0.45, 0.5]
},
"imageblobslnk":NULL,"scoreslnk":2,"accesslnk":1,
"parnames":["theta interval for secondary particle"], "parvalues":["1.15-1.35"]
},
{
"trid":1,"testlnk":0,"referencelnk":43,"mcdetaillnk":1,
"beamlnk":38,"targetlnk":13,"observablelnk":8,"secondarylnk":-211,"reactionlnk":1,
"datatable":{
"dtid":1,"datatypeslnk":2,
"title":"Production of pi- in proton-Al interactions at 5GeV/c, 1.35<theta<1.55 [rad]",
"npoints":0,
"nbins":[8],
"axisTitle":["momentum of pi- [GeV/c]","Cross section [mb/(GeV/c/rad)]"],
"val":
[224, 247, 209, 130, 107, 91, 66, 44],
"errStatPlus":
[13.5, 8.5, 7, 5.5, 4, 3.5, 3, 3],
"errStatMinus":
[13.5, 8.5, 7, 5.5, 4, 3.5, 3, 3],
"errSysPlus":
[0., 0., 0., 0., 0., 0., 0., 0.],
"errSysMinus":
[0., 0., 0., 0., 0., 0., 0., 0.],
"binMin":
[0.1, 0.15, 0.2, 0.25, 0.3, 0.35, 0.4, 0.45],
"binMax":
[0.15, 0.2, 0.25, 0.3, 0.35, 0.4, 0.45, 0.5]
},
"imageblobslnk":NULL,"scoreslnk":2,"accesslnk":1,
"parnames":["theta interval for secondary particle"], "parvalues":["1.35-1.55"]
},
{
"trid":1,"testlnk":0,"referencelnk":43,"mcdetaillnk":1,
"beamlnk":38,"targetlnk":13,"observablelnk":8,"secondarylnk":-211,"reactionlnk":1,
"datatable":{
"dtid":1,"datatypeslnk":2,
"title":"Production of pi- in proton-Al interactions at 5GeV/c, 1.55<theta<1.75 [rad]",
"npoints":0,
"nbins":[8],
"axisTitle":["momentum of pi- [GeV/c]","Cross section [mb/(GeV/c/rad)]"],
"val":
[224, 241, 171, 102, 79, 57, 40, 26],
"errStatPlus":
[12.5, 7.5, 6.5, 4.5, 3, 2.5, 2.5, 2],
"errStatMinus":
[12.5, 7.5, 6.5, 4.5, 3, 2.5, 2.5, 2],
"errSysPlus":
[0., 0., 0., 0., 0., 0., 0., 0.],
"errSysMinus":
[0., 0., 0., 0., 0., 0., 0., 0.],
"binMin":
[0.1, 0.15, 0.2, 0.25, 0.3, 0.35, 0.4, 0.45],
"binMax":
[0.15, 0.2, 0.25, 0.3, 0.35, 0.4, 0.45, 0.5]
},
"imageblobslnk":NULL,"scoreslnk":2,"accesslnk":1,
"parnames":["theta interval for secondary particle"], "parvalues":["1.55-1.75"]
},
{
"trid":1,"testlnk":0,"referencelnk":43,"mcdetaillnk":1,
"beamlnk":38,"targetlnk":13,"observablelnk":8,"secondarylnk":-211,"reactionlnk":1,
"datatable":{
"dtid":1,"datatypeslnk":2,
"title":"Production of pi- in proton-Al interactions at 5GeV/c, 1.75<theta<1.95 [rad]",
"npoints":0,
"nbins":[8],
"axisTitle":["momentum of pi- [GeV/c]","Cross section [mb/(GeV/c/rad)]"],
"val":
[190, 191, 136, 82, 55, 44, 24, 14],
"errStatPlus":
[9.5, 6.5, 5, 4, 2.5, 2.5, 2.5, 1.5],
"errStatMinus":
[9.5, 6.5, 5, 4, 2.5, 2.5, 2.5, 1.5],
"errSysPlus":
[0., 0., 0., 0., 0., 0., 0., 0.],
"errSysMinus":
[0., 0., 0., 0., 0., 0., 0., 0.],
"binMin":
[0.1, 0.15, 0.2, 0.25, 0.3, 0.35, 0.4, 0.45],
"binMax":
[0.15, 0.2, 0.25, 0.3, 0.35, 0.4, 0.45, 0.5]
},
"imageblobslnk":NULL,"scoreslnk":2,"accesslnk":1,
"parnames":["theta interval for secondary particle"], "parvalues":["1.75-1.95"]
},
{
"trid":1,"testlnk":0,"referencelnk":43,"mcdetaillnk":1,
"beamlnk":38,"targetlnk":13,"observablelnk":8,"secondarylnk":-211,"reactionlnk":1,
"datatable":{
"dtid":1,"datatypeslnk":2,
"title":"Production of pi- in proton-Al interactions at 5GeV/c, 1.95<theta<2.15 [rad]",
"npoints":0,
"nbins":[8],
"axisTitle":["momentum of pi- [GeV/c]","Cross section [mb/(GeV/c/rad)]"],
"val":
[132, 173, 103, 66, 38, 24, 12, 8],
"errStatPlus":
[7.5, 6, 4.5, 3.5, 2.5, 2, 1.5, 1],
"errStatMinus":
[7.5, 6, 4.5, 3.5, 2.5, 2, 1.5, 1],
"errSysPlus":
[0., 0., 0., 0., 0., 0., 0., 0.],
"errSysMinus":
[0., 0., 0., 0., 0., 0., 0., 0.],
"binMin":
[0.1, 0.15, 0.2, 0.25, 0.3, 0.35, 0.4, 0.45],
"binMax":
[0.15, 0.2, 0.25, 0.3, 0.35, 0.4, 0.45, 0.5]
},
"imageblobslnk":NULL,"scoreslnk":2,"accesslnk":1,
"parnames":["theta interval for secondary particle"], "parvalues":["1.95-2.15"]
},
{
"trid":1,"testlnk":0,"referencelnk":46,"mcdetaillnk":1,
"beamlnk":39,"targetlnk":13,"observablelnk":8,"secondarylnk":-211,"reactionlnk":1,
"datatable":{
"dtid":1,"datatypeslnk":2,
"title":"Production of pi- in proton-Al interactions at 8GeV/c, 0.05<theta<0.1 [rad]",
"npoints":0,
"nbins":[10],
"axisTitle":["momentum of pi- [GeV/c]","Cross section [mb/(GeV/c/rad)]"],
"val":
[280, 210, 190, 117, 66, 40, 32, 11, 1, 0],
"errStatPlus":
[20, 10, 10, 7, 6.5, 3.5, 3, 2, 0.5, 0],
"errStatMinus":
[20, 10, 10, 7, 6.5, 3.5, 3, 2, 0.5, 0],
"errSysPlus":
[0., 0., 0., 0., 0., 0., 0., 0., 0., 0.],
"errSysMinus":
[0., 0., 0., 0., 0., 0., 0., 0., 0., 0.],
"binMin":
[0.5, 1, 1.5, 2, 2.5, 3, 3.5, 4, 5, 6.5],
"binMax":
[1, 1.5, 2, 2.5, 3, 3.5, 4, 5, 6.5, 8]
},
"imageblobslnk":NULL,"scoreslnk":2,"accesslnk":1,
"parnames":["theta interval for secondary particle"], "parvalues":["0.05-0.1"]
},
{
"trid":1,"testlnk":0,"referencelnk":46,"mcdetaillnk":1,
"beamlnk":39,"targetlnk":13,"observablelnk":8,"secondarylnk":-211,"reactionlnk":1,
"datatable":{
"dtid":1,"datatypeslnk":2,
"title":"Production of pi- in proton-Al interactions at 8GeV/c, 0.1<theta<0.15 [rad]",
"npoints":0,
"nbins":[10],
"axisTitle":["momentum of pi- [GeV/c]","Cross section [mb/(GeV/c/rad)]"],
"val":
[320, 220, 140, 80, 38, 26, 14, 3, 0, 0],
"errStatPlus":
[20, 10, 10, 6, 3.5, 3, 1.5, 1, 0, 0],
"errStatMinus":
[20, 10, 10, 6, 3.5, 3, 1.5, 1, 0, 0],
"errSysPlus":
[0., 0., 0., 0., 0., 0., 0., 0., 0., 0.],
"errSysMinus":
[0., 0., 0., 0., 0., 0., 0., 0., 0., 0.],
"binMin":
[0.5, 1, 1.5, 2, 2.5, 3, 3.5, 4, 5, 6.5],
"binMax":
[1, 1.5, 2, 2.5, 3, 3.5, 4, 5, 6.5, 8]
},
"imageblobslnk":NULL,"scoreslnk":2,"accesslnk":1,
"parnames":["theta interval for secondary particle"], "parvalues":["0.1-0.15"]
},
{
"trid":1,"testlnk":0,"referencelnk":46,"mcdetaillnk":1,
"beamlnk":39,"targetlnk":13,"observablelnk":8,"secondarylnk":-211,"reactionlnk":1,
"datatable":{
"dtid":1,"datatypeslnk":2,
"title":"Production of pi- in proton-Al interactions at 8GeV/c, 0.15<theta<0.2 [rad]",
"npoints":0,
"nbins":[10],
"axisTitle":["momentum of pi- [GeV/c]","Cross section [mb/(GeV/c/rad)]"],
"val":
[350, 170, 93, 65, 40, 13, 5, 1, 0, 0],
"errStatPlus":
[20, 10, 7, 5.5, 4, 2, 1, 0.5, 0, 0],
"errStatMinus":
[20, 10, 7, 5.5, 4, 2, 1, 0.5, 0, 0],
"errSysPlus":
[0., 0., 0., 0., 0., 0., 0., 0., 0., 0.],
"errSysMinus":
[0., 0., 0., 0., 0., 0., 0., 0., 0., 0.],
"binMin":
[0.5, 1, 1.5, 2, 2.5, 3, 3.5, 4, 5, 6.5],
"binMax":
[1, 1.5, 2, 2.5, 3, 3.5, 4, 5, 6.5, 8]
},
"imageblobslnk":NULL,"scoreslnk":2,"accesslnk":1,
"parnames":["theta interval for secondary particle"], "parvalues":["0.15-0.2"]
},
{
"trid":1,"testlnk":0,"referencelnk":46,"mcdetaillnk":1,
"beamlnk":39,"targetlnk":13,"observablelnk":8,"secondarylnk":-211,"reactionlnk":1,
"datatable":{
"dtid":1,"datatypeslnk":2,
"title":"Production of pi- in proton-Al interactions at 8GeV/c, 0.2<theta<0.25 [rad]",
"npoints":0,
"nbins":[10],
"axisTitle":["momentum of pi- [GeV/c]","Cross section [mb/(GeV/c/rad)]"],
"val":
[210, 190, 140, 60, 22, 9, 2, 1, 0, 0],
"errStatPlus":
[15, 15, 15, 10, 3.5, 2, 1, 1.5, 0.5, 0],
"errStatMinus":
[15, 15, 15, 10, 3.5, 2, 1, 1.5, 0.5, 0],
"errSysPlus":
[0., 0., 0., 0., 0., 0., 0., 0., 0., 0.],
"errSysMinus":
[0., 0., 0., 0., 0., 0., 0., 0., 0., 0.],
"binMin":
[0.5, 1, 1.5, 2, 2.5, 3, 3.5, 4, 5, 6.5],
"binMax":
[1, 1.5, 2, 2.5, 3, 3.5, 4, 5, 6.5, 8]
},
"imageblobslnk":NULL,"scoreslnk":2,"accesslnk":1,
"parnames":["theta interval for secondary particle"], "parvalues":["0.2-0.25"]
},
{
"trid":1,"testlnk":0,"referencelnk":43,"mcdetaillnk":1,
"beamlnk":39,"targetlnk":13,"observablelnk":8,"secondarylnk":-211,"reactionlnk":1,
"datatable":{
"dtid":1,"datatypeslnk":2,
"title":"Production of pi- in proton-Al interactions at 8GeV/c, 0.35<theta<0.55 [rad]",
"npoints":0,
"nbins":[10],
"axisTitle":["momentum of pi- [GeV/c]","Cross section [mb/(GeV/c/rad)]"],
"val":
[338, 411, 479, 387, 428, 463, 428, 383, 377, 334],
"errStatPlus":
[25.5, 18.5, 13.5, 11.5, 17, 13, 11, 11, 14.5, 20],
"errStatMinus":
[25.5, 18.5, 13.5, 11.5, 17, 13, 11, 11, 14.5, 20],
"errSysPlus":
[0., 0., 0., 0., 0., 0., 0., 0., 0., 0.],
"errSysMinus":
[0., 0., 0., 0., 0., 0., 0., 0., 0., 0.],
"binMin":
[0.15, 0.2, 0.25, 0.3, 0.35, 0.4, 0.45, 0.5, 0.6, 0.7],
"binMax":
[0.2, 0.25, 0.3, 0.35, 0.4, 0.45, 0.5, 0.6, 0.7, 0.8]
},
"imageblobslnk":NULL,"scoreslnk":2,"accesslnk":1,
"parnames":["theta interval for secondary particle"], "parvalues":["0.35-0.55"]
},
{
"trid":1,"testlnk":0,"referencelnk":43,"mcdetaillnk":1,
"beamlnk":39,"targetlnk":13,"observablelnk":8,"secondarylnk":-211,"reactionlnk":1,
"datatable":{
"dtid":1,"datatypeslnk":2,
"title":"Production of pi- in proton-Al interactions at 8GeV/c, 0.55<theta<0.75 [rad]",
"npoints":0,
"nbins":[11],
"axisTitle":["momentum of pi- [GeV/c]","Cross section [mb/(GeV/c/rad)]"],
"val":
[223, 383, 438, 429, 382, 397, 361, 317, 304, 269, 214],
"errStatPlus":
[30, 15.5, 14, 12.5, 10.5, 12, 8.5, 8, 8.5, 13, 15.5],
"errStatMinus":
[30, 15.5, 14, 12.5, 10.5, 12, 8.5, 8, 8.5, 13, 15.5],
"errSysPlus":
[0., 0., 0., 0., 0., 0., 0., 0., 0., 0., 0.],
"errSysMinus":
[0., 0., 0., 0., 0., 0., 0., 0., 0., 0., 0.],
"binMin":
[0.1, 0.15, 0.2, 0.25, 0.3, 0.35, 0.4, 0.45, 0.5, 0.6, 0.7],
"binMax":
[0.15, 0.2, 0.25, 0.3, 0.35, 0.4, 0.45, 0.5, 0.6, 0.7, 0.8]
},
"imageblobslnk":NULL,"scoreslnk":2,"accesslnk":1,
"parnames":["theta interval for secondary particle"], "parvalues":["0.55-0.75"]
},
{
"trid":1,"testlnk":0,"referencelnk":43,"mcdetaillnk":1,
"beamlnk":39,"targetlnk":13,"observablelnk":8,"secondarylnk":-211,"reactionlnk":1,
"datatable":{
"dtid":1,"datatypeslnk":2,
"title":"Production of pi- in proton-Al interactions at 8GeV/c, 0.75<theta<0.95 [rad]",
"npoints":0,
"nbins":[10],
"axisTitle":["momentum of pi- [GeV/c]","Cross section [mb/(GeV/c/rad)]"],
"val":
[243, 394, 384, 350, 327, 304, 267, 241, 205, 158],
"errStatPlus":
[21.5, 11.5, 12.5, 10.5, 8, 7.5, 6, 5.5, 6.5, 8.5],
"errStatMinus":
[21.5, 11.5, 12.5, 10.5, 8, 7.5, 6, 5.5, 6.5, 8.5],
"errSysPlus":
[0., 0., 0., 0., 0., 0., 0., 0., 0., 0.],
"errSysMinus":
[0., 0., 0., 0., 0., 0., 0., 0., 0., 0.],
"binMin":
[0.1, 0.15, 0.2, 0.25, 0.3, 0.35, 0.4, 0.45, 0.5, 0.6],
"binMax":
[0.15, 0.2, 0.25, 0.3, 0.35, 0.4, 0.45, 0.5, 0.6, 0.7]
},
"imageblobslnk":NULL,"scoreslnk":2,"accesslnk":1,
"parnames":["theta interval for secondary particle"], "parvalues":["0.75-0.95"]
},
{
"trid":1,"testlnk":0,"referencelnk":43,"mcdetaillnk":1,
"beamlnk":39,"targetlnk":13,"observablelnk":8,"secondarylnk":-211,"reactionlnk":1,
"datatable":{
"dtid":1,"datatypeslnk":2,
"title":"Production of pi- in proton-Al interactions at 8GeV/c, 0.95<theta<1.15 [rad]",
"npoints":0,
"nbins":[9],
"axisTitle":["momentum of pi- [GeV/c]","Cross section [mb/(GeV/c/rad)]"],
"val":
[249, 364, 339, 301, 246, 188, 160, 144, 118],
"errStatPlus":
[16, 12, 9, 8, 6.5, 4.5, 3.5, 4.5, 4],
"errStatMinus":
[16, 12, 9, 8, 6.5, 4.5, 3.5, 4.5, 4],
"errSysPlus":
[0., 0., 0., 0., 0., 0., 0., 0., 0.],
"errSysMinus":
[0., 0., 0., 0., 0., 0., 0., 0., 0.],
"binMin":
[0.1, 0.15, 0.2, 0.25, 0.3, 0.35, 0.4, 0.45, 0.5],
"binMax":
[0.15, 0.2, 0.25, 0.3, 0.35, 0.4, 0.45, 0.5, 0.6]
},
"imageblobslnk":NULL,"scoreslnk":2,"accesslnk":1,
"parnames":["theta interval for secondary particle"], "parvalues":["0.95-1.15"]
},
{
"trid":1,"testlnk":0,"referencelnk":43,"mcdetaillnk":1,
"beamlnk":39,"targetlnk":13,"observablelnk":8,"secondarylnk":-211,"reactionlnk":1,
"datatable":{
"dtid":1,"datatypeslnk":2,
"title":"Production of pi- in proton-Al interactions at 8GeV/c, 1.15<theta<1.35 [rad]",
"npoints":0,
"nbins":[8],
"axisTitle":["momentum of pi- [GeV/c]","Cross section [mb/(GeV/c/rad)]"],
"val":
[266, 346, 305, 257, 181, 142, 115, 94],
"errStatPlus":
[16, 10, 8.5, 7, 6, 4, 3, 3],
"errStatMinus":
[16, 10, 8.5, 7, 6, 4, 3, 3],
"errSysPlus":
[0., 0., 0., 0., 0., 0., 0., 0.],
"errSysMinus":
[0., 0., 0., 0., 0., 0., 0., 0.],
"binMin":
[0.1, 0.15, 0.2, 0.25, 0.3, 0.35, 0.4, 0.45],
"binMax":
[0.15, 0.2, 0.25, 0.3, 0.35, 0.4, 0.45, 0.5]
},
"imageblobslnk":NULL,"scoreslnk":2,"accesslnk":1,
"parnames":["theta interval for secondary particle"], "parvalues":["1.15-1.35"]
},
{
"trid":1,"testlnk":0,"referencelnk":43,"mcdetaillnk":1,
"beamlnk":39,"targetlnk":13,"observablelnk":8,"secondarylnk":-211,"reactionlnk":1,
"datatable":{
"dtid":1,"datatypeslnk":2,
"title":"Production of pi- in proton-Al interactions at 8GeV/c, 1.35<theta<1.55 [rad]",
"npoints":0,
"nbins":[8],
"axisTitle":["momentum of pi- [GeV/c]","Cross section [mb/(GeV/c/rad)]"],
"val":
[251, 289, 251, 190, 147, 110, 89, 67],
"errStatPlus":
[13.5, 8.5, 6.5, 6, 4.5, 3.5, 3, 3],
"errStatMinus":
[13.5, 8.5, 6.5, 6, 4.5, 3.5, 3, 3],
"errSysPlus":
[0., 0., 0., 0., 0., 0., 0., 0.],
"errSysMinus":
[0., 0., 0., 0., 0., 0., 0., 0.],
"binMin":
[0.1, 0.15, 0.2, 0.25, 0.3, 0.35, 0.4, 0.45],
"binMax":
[0.15, 0.2, 0.25, 0.3, 0.35, 0.4, 0.45, 0.5]
},
"imageblobslnk":NULL,"scoreslnk":2,"accesslnk":1,
"parnames":["theta interval for secondary particle"], "parvalues":["1.35-1.55"]
},
{
"trid":1,"testlnk":0,"referencelnk":43,"mcdetaillnk":1,
"beamlnk":39,"targetlnk":13,"observablelnk":8,"secondarylnk":-211,"reactionlnk":1,
"datatable":{
"dtid":1,"datatypeslnk":2,
"title":"Production of pi- in proton-Al interactions at 8GeV/c, 1.55<theta<1.75 [rad]",
"npoints":0,
"nbins":[8],
"axisTitle":["momentum of pi- [GeV/c]","Cross section [mb/(GeV/c/rad)]"],
"val":
[257, 270, 208, 158, 91, 60, 46, 33],
"errStatPlus":
[16.5, 8, 6.5, 5.5, 4.5, 2.5, 2, 1.5],
"errStatMinus":
[16.5, 8, 6.5, 5.5, 4.5, 2.5, 2, 1.5],
"errSysPlus":
[0., 0., 0., 0., 0., 0., 0., 0.],
"errSysMinus":
[0., 0., 0., 0., 0., 0., 0., 0.],
"binMin":
[0.1, 0.15, 0.2, 0.25, 0.3, 0.35, 0.4, 0.45],
"binMax":
[0.15, 0.2, 0.25, 0.3, 0.35, 0.4, 0.45, 0.5]
},
"imageblobslnk":NULL,"scoreslnk":2,"accesslnk":1,
"parnames":["theta interval for secondary particle"], "parvalues":["1.55-1.75"]
},
{
"trid":1,"testlnk":0,"referencelnk":43,"mcdetaillnk":1,
"beamlnk":39,"targetlnk":13,"observablelnk":8,"secondarylnk":-211,"reactionlnk":1,
"datatable":{
"dtid":1,"datatypeslnk":2,
"title":"Production of pi- in proton-Al interactions at 8GeV/c, 1.75<theta<1.95 [rad]",
"npoints":0,
"nbins":[8],
"axisTitle":["momentum of pi- [GeV/c]","Cross section [mb/(GeV/c/rad)]"],
"val":
[227, 235, 168, 129, 70, 47, 37, 26],
"errStatPlus":
[11.5, 6.5, 5, 4.5, 4, 2, 1.5, 1.5],
"errStatMinus":
[11.5, 6.5, 5, 4.5, 4, 2, 1.5, 1.5],
"errSysPlus":
[0., 0., 0., 0., 0., 0., 0., 0.],
"errSysMinus":
[0., 0., 0., 0., 0., 0., 0., 0.],
"binMin":
[0.1, 0.15, 0.2, 0.25, 0.3, 0.35, 0.4, 0.45],
"binMax":
[0.15, 0.2, 0.25, 0.3, 0.35, 0.4, 0.45, 0.5]
},
"imageblobslnk":NULL,"scoreslnk":2,"accesslnk":1,
"parnames":["theta interval for secondary particle"], "parvalues":["1.75-1.95"]
},
{
"trid":1,"testlnk":0,"referencelnk":43,"mcdetaillnk":1,
"beamlnk":39,"targetlnk":13,"observablelnk":8,"secondarylnk":-211,"reactionlnk":1,
"datatable":{
"dtid":1,"datatypeslnk":2,
"title":"Production of pi- in proton-Al interactions at 8GeV/c, 1.95<theta<2.15 [rad]",
"npoints":0,
"nbins":[8],
"axisTitle":["momentum of pi- [GeV/c]","Cross section [mb/(GeV/c/rad)]"],
"val":
[197, 190, 117, 64, 44, 40, 25, 13],
"errStatPlus":
[9.5, 6, 4.5, 4, 2, 2, 2, 1.5],
"errStatMinus":
[9.5, 6, 4.5, 4, 2, 2, 2, 1.5],
"errSysPlus":
[0., 0., 0., 0., 0., 0., 0., 0.],
"errSysMinus":
[0., 0., 0., 0., 0., 0., 0., 0.],
"binMin":
[0.1, 0.15, 0.2, 0.25, 0.3, 0.35, 0.4, 0.45],
"binMax":
[0.15, 0.2, 0.25, 0.3, 0.35, 0.4, 0.45, 0.5]
},
"imageblobslnk":NULL,"scoreslnk":2,"accesslnk":1,
"parnames":["theta interval for secondary particle"], "parvalues":["1.95-2.15"]
},
{
"trid":1,"testlnk":0,"referencelnk":46,"mcdetaillnk":1,
"beamlnk":41,"targetlnk":13,"observablelnk":8,"secondarylnk":-211,"reactionlnk":1,
"datatable":{
"dtid":1,"datatypeslnk":2,
"title":"Production of pi- in proton-Al interactions at 12GeV/c, 0.05<theta<0.1 [rad]",
"npoints":0,
"nbins":[10],
"axisTitle":["momentum of pi- [GeV/c]","Cross section [mb/(GeV/c/rad)]"],
"val":
[380, 350, 340, 270, 170, 140, 110, 48, 20, 3],
"errStatPlus":
[25, 20, 20, 15, 10, 10, 10, 4.5, 2, 1],
"errStatMinus":
[25, 20, 20, 15, 10, 10, 10, 4.5, 2, 1],
"errSysPlus":
[0., 0., 0., 0., 0., 0., 0., 0., 0., 0.],
"errSysMinus":
[0., 0., 0., 0., 0., 0., 0., 0., 0., 0.],
"binMin":
[0.5, 1, 1.5, 2, 2.5, 3, 3.5, 4, 5, 6.5],
"binMax":
[1, 1.5, 2, 2.5, 3, 3.5, 4, 5, 6.5, 8]
},
"imageblobslnk":NULL,"scoreslnk":2,"accesslnk":1,
"parnames":["theta interval for secondary particle"], "parvalues":["0.05-0.1"]
},
{
"trid":1,"testlnk":0,"referencelnk":46,"mcdetaillnk":1,
"beamlnk":41,"targetlnk":13,"observablelnk":8,"secondarylnk":-211,"reactionlnk":1,
"datatable":{
"dtid":1,"datatypeslnk":2,
"title":"Production of pi- in proton-Al interactions at 12GeV/c, 0.1<theta<0.15 [rad]",
"npoints":0,
"nbins":[10],
"axisTitle":["momentum of pi- [GeV/c]","Cross section [mb/(GeV/c/rad)]"],
"val":
[480, 390, 240, 190, 140, 95, 66, 32, 8, 1],
"errStatPlus":
[35, 20, 15, 15, 10, 7.5, 6, 3.5, 1, 0],
"errStatMinus":
[35, 20, 15, 15, 10, 7.5, 6, 3.5, 1, 0],
"errSysPlus":
[0., 0., 0., 0., 0., 0., 0., 0., 0., 0.],
"errSysMinus":
[0., 0., 0., 0., 0., 0., 0., 0., 0., 0.],
"binMin":
[0.5, 1, 1.5, 2, 2.5, 3, 3.5, 4, 5, 6.5],
"binMax":
[1, 1.5, 2, 2.5, 3, 3.5, 4, 5, 6.5, 8]
},
"imageblobslnk":NULL,"scoreslnk":2,"accesslnk":1,
"parnames":["theta interval for secondary particle"], "parvalues":["0.1-0.15"]
},
{
"trid":1,"testlnk":0,"referencelnk":46,"mcdetaillnk":1,
"beamlnk":41,"targetlnk":13,"observablelnk":8,"secondarylnk":-211,"reactionlnk":1,
"datatable":{
"dtid":1,"datatypeslnk":2,
"title":"Production of pi- in proton-Al interactions at 12GeV/c, 0.15<theta<0.2 [rad]",
"npoints":0,
"nbins":[10],
"axisTitle":["momentum of pi- [GeV/c]","Cross section [mb/(GeV/c/rad)]"],
"val":
[490, 250, 190, 120, 64, 63, 22, 7, 1, 0],
"errStatPlus":
[35, 20, 15, 10, 6.5, 7, 3.5, 1.5, 0.5, 0],
"errStatMinus":
[35, 20, 15, 10, 6.5, 7, 3.5, 1.5, 0.5, 0],
"errSysPlus":
[0., 0., 0., 0., 0., 0., 0., 0., 0., 0.],
"errSysMinus":
[0., 0., 0., 0., 0., 0., 0., 0., 0., 0.],
"binMin":
[0.5, 1, 1.5, 2, 2.5, 3, 3.5, 4, 5, 6.5],
"binMax":
[1, 1.5, 2, 2.5, 3, 3.5, 4, 5, 6.5, 8]
},
"imageblobslnk":NULL,"scoreslnk":2,"accesslnk":1,
"parnames":["theta interval for secondary particle"], "parvalues":["0.15-0.2"]
},
{
"trid":1,"testlnk":0,"referencelnk":46,"mcdetaillnk":1,
"beamlnk":41,"targetlnk":13,"observablelnk":8,"secondarylnk":-211,"reactionlnk":1,
"datatable":{
"dtid":1,"datatypeslnk":2,
"title":"Production of pi- in proton-Al interactions at 12GeV/c, 0.2<theta<0.25 [rad]",
"npoints":0,
"nbins":[10],
"axisTitle":["momentum of pi- [GeV/c]","Cross section [mb/(GeV/c/rad)]"],
"val":
[290, 260, 160, 110, 28, 16, 13, 4, 0, 0],
"errStatPlus":
[25, 20, 20, 15, 6, 3.5, 3, 2, 0.5, 2],
"errStatMinus":
[25, 20, 20, 15, 6, 3.5, 3, 2, 0.5, 2],
"errSysPlus":
[0., 0., 0., 0., 0., 0., 0., 0., 0., 0.],
"errSysMinus":
[0., 0., 0., 0., 0., 0., 0., 0., 0., 0.],
"binMin":
[0.5, 1, 1.5, 2, 2.5, 3, 3.5, 4, 5, 6.5],
"binMax":
[1, 1.5, 2, 2.5, 3, 3.5, 4, 5, 6.5, 8]
},
"imageblobslnk":NULL,"scoreslnk":2,"accesslnk":1,
"parnames":["theta interval for secondary particle"], "parvalues":["0.2-0.25"]
},
{
"trid":1,"testlnk":0,"referencelnk":43,"mcdetaillnk":1,
"beamlnk":41,"targetlnk":13,"observablelnk":8,"secondarylnk":-211,"reactionlnk":1,
"datatable":{
"dtid":1,"datatypeslnk":2,
"title":"Production of pi- in proton-Al interactions at 12GeV/c, 0.35<theta<0.55 [rad]",
"npoints":0,
"nbins":[10],
"axisTitle":["momentum of pi- [GeV/c]","Cross section [mb/(GeV/c/rad)]"],
"val":
[342, 442, 516, 470, 485, 485, 440, 431, 415, 398],
"errStatPlus":
[26.5, 18.5, 16, 15.5, 13.5, 12.5, 11, 12.5, 17, 20.5],
"errStatMinus":
[26.5, 18.5, 16, 15.5, 13.5, 12.5, 11, 12.5, 17, 20.5],
"errSysPlus":
[0., 0., 0., 0., 0., 0., 0., 0., 0., 0.],
"errSysMinus":
[0., 0., 0., 0., 0., 0., 0., 0., 0., 0.],
"binMin":
[0.15, 0.2, 0.25, 0.3, 0.35, 0.4, 0.45, 0.5, 0.6, 0.7],
"binMax":
[0.2, 0.25, 0.3, 0.35, 0.4, 0.45, 0.5, 0.6, 0.7, 0.8]
},
"imageblobslnk":NULL,"scoreslnk":2,"accesslnk":1,
"parnames":["theta interval for secondary particle"], "parvalues":["0.35-0.55"]
},
{
"trid":1,"testlnk":0,"referencelnk":43,"mcdetaillnk":1,
"beamlnk":41,"targetlnk":13,"observablelnk":8,"secondarylnk":-211,"reactionlnk":1,
"datatable":{
"dtid":1,"datatypeslnk":2,
"title":"Production of pi- in proton-Al interactions at 12GeV/c, 0.55<theta<0.75 [rad]",
"npoints":0,
"nbins":[11],
"axisTitle":["momentum of pi- [GeV/c]","Cross section [mb/(GeV/c/rad)]"],
"val":
[275, 353, 389, 443, 447, 371, 374, 374, 337, 287, 240],
"errStatPlus":
[37.5, 14, 14.5, 15, 14, 7.5, 10, 8.5, 10, 13.5, 17],
"errStatMinus":
[37.5, 14, 14.5, 15, 14, 7.5, 10, 8.5, 10, 13.5, 17],
"errSysPlus":
[0., 0., 0., 0., 0., 0., 0., 0., 0., 0., 0.],
"errSysMinus":
[0., 0., 0., 0., 0., 0., 0., 0., 0., 0., 0.],
"binMin":
[0.1, 0.15, 0.2, 0.25, 0.3, 0.35, 0.4, 0.45, 0.5, 0.6, 0.7],
"binMax":
[0.15, 0.2, 0.25, 0.3, 0.35, 0.4, 0.45, 0.5, 0.6, 0.7, 0.8]
},
"imageblobslnk":NULL,"scoreslnk":2,"accesslnk":1,
"parnames":["theta interval for secondary particle"], "parvalues":["0.55-0.75"]
},
{
"trid":1,"testlnk":0,"referencelnk":43,"mcdetaillnk":1,
"beamlnk":41,"targetlnk":13,"observablelnk":8,"secondarylnk":-211,"reactionlnk":1,
"datatable":{
"dtid":1,"datatypeslnk":2,
"title":"Production of pi- in proton-Al interactions at 12GeV/c, 0.75<theta<0.95 [rad]",
"npoints":0,
"nbins":[10],
"axisTitle":["momentum of pi- [GeV/c]","Cross section [mb/(GeV/c/rad)]"],
"val":
[313, 404, 378, 402, 339, 296, 291, 249, 217, 171],
"errStatPlus":
[27, 11.5, 15.5, 10.5, 7.5, 7, 6.5, 7, 7, 9],
"errStatMinus":
[27, 11.5, 15.5, 10.5, 7.5, 7, 6.5, 7, 7, 9],
"errSysPlus":
[0., 0., 0., 0., 0., 0., 0., 0., 0., 0.],
"errSysMinus":
[0., 0., 0., 0., 0., 0., 0., 0., 0., 0.],
"binMin":
[0.1, 0.15, 0.2, 0.25, 0.3, 0.35, 0.4, 0.45, 0.5, 0.6],
"binMax":
[0.15, 0.2, 0.25, 0.3, 0.35, 0.4, 0.45, 0.5, 0.6, 0.7]
},
"imageblobslnk":NULL,"scoreslnk":2,"accesslnk":1,
"parnames":["theta interval for secondary particle"], "parvalues":["0.75-0.95"]
},
{
"trid":1,"testlnk":0,"referencelnk":43,"mcdetaillnk":1,
"beamlnk":41,"targetlnk":13,"observablelnk":8,"secondarylnk":-211,"reactionlnk":1,
"datatable":{
"dtid":1,"datatypeslnk":2,
"title":"Production of pi- in proton-Al interactions at 12GeV/c, 0.95<theta<1.15 [rad]",
"npoints":0,
"nbins":[9],
"axisTitle":["momentum of pi- [GeV/c]","Cross section [mb/(GeV/c/rad)]"],
"val":
[253, 356, 373, 321, 265, 214, 187, 157, 126],
"errStatPlus":
[18.5, 13, 10.5, 9, 6.5, 5, 5, 4.5, 4.5],
"errStatMinus":
[18.5, 13, 10.5, 9, 6.5, 5, 5, 4.5, 4.5],
"errSysPlus":
[0., 0., 0., 0., 0., 0., 0., 0., 0.],
"errSysMinus":
[0., 0., 0., 0., 0., 0., 0., 0., 0.],
"binMin":
[0.1, 0.15, 0.2, 0.25, 0.3, 0.35, 0.4, 0.45, 0.5],
"binMax":
[0.15, 0.2, 0.25, 0.3, 0.35, 0.4, 0.45, 0.5, 0.6]
},
"imageblobslnk":NULL,"scoreslnk":2,"accesslnk":1,
"parnames":["theta interval for secondary particle"], "parvalues":["0.95-1.15"]
},
{
"trid":1,"testlnk":0,"referencelnk":43,"mcdetaillnk":1,
"beamlnk":41,"targetlnk":13,"observablelnk":8,"secondarylnk":-211,"reactionlnk":1,
"datatable":{
"dtid":1,"datatypeslnk":2,
"title":"Production of pi- in proton-Al interactions at 12GeV/c, 1.15<theta<1.35 [rad]",
"npoints":0,
"nbins":[8],
"axisTitle":["momentum of pi- [GeV/c]","Cross section [mb/(GeV/c/rad)]"],
"val":
[266, 366, 321, 243, 208, 156, 126, 100],
"errStatPlus":
[18.5, 11.5, 9, 7, 6, 5, 4, 3.5],
"errStatMinus":
[18.5, 11.5, 9, 7, 6, 5, 4, 3.5],
"errSysPlus":
[0., 0., 0., 0., 0., 0., 0., 0.],
"errSysMinus":
[0., 0., 0., 0., 0., 0., 0., 0.],
"binMin":
[0.1, 0.15, 0.2, 0.25, 0.3, 0.35, 0.4, 0.45],
"binMax":
[0.15, 0.2, 0.25, 0.3, 0.35, 0.4, 0.45, 0.5]
},
"imageblobslnk":NULL,"scoreslnk":2,"accesslnk":1,
"parnames":["theta interval for secondary particle"], "parvalues":["1.15-1.35"]
},
{
"trid":1,"testlnk":0,"referencelnk":43,"mcdetaillnk":1,
"beamlnk":41,"targetlnk":13,"observablelnk":8,"secondarylnk":-211,"reactionlnk":1,
"datatable":{
"dtid":1,"datatypeslnk":2,
"title":"Production of pi- in proton-Al interactions at 12GeV/c, 1.35<theta<1.55 [rad]",
"npoints":0,
"nbins":[8],
"axisTitle":["momentum of pi- [GeV/c]","Cross section [mb/(GeV/c/rad)]"],
"val":
[270, 298, 273, 221, 151, 115, 90, 65],
"errStatPlus":
[16.5, 10.5, 9, 7, 5.5, 3.5, 3.5, 3.5],
"errStatMinus":
[16.5, 10.5, 9, 7, 5.5, 3.5, 3.5, 3.5],
"errSysPlus":
[0., 0., 0., 0., 0., 0., 0., 0.],
"errSysMinus":
[0., 0., 0., 0., 0., 0., 0., 0.],
"binMin":
[0.1, 0.15, 0.2, 0.25, 0.3, 0.35, 0.4, 0.45],
"binMax":
[0.15, 0.2, 0.25, 0.3, 0.35, 0.4, 0.45, 0.5]
},
"imageblobslnk":NULL,"scoreslnk":2,"accesslnk":1,
"parnames":["theta interval for secondary particle"], "parvalues":["1.35-1.55"]
},
{
"trid":1,"testlnk":0,"referencelnk":43,"mcdetaillnk":1,
"beamlnk":41,"targetlnk":13,"observablelnk":8,"secondarylnk":-211,"reactionlnk":1,
"datatable":{
"dtid":1,"datatypeslnk":2,
"title":"Production of pi- in proton-Al interactions at 12GeV/c, 1.55<theta<1.75 [rad]",
"npoints":0,
"nbins":[8],
"axisTitle":["momentum of pi- [GeV/c]","Cross section [mb/(GeV/c/rad)]"],
"val":
[267, 300, 229, 171, 95, 68, 49, 40],
"errStatPlus":
[18, 9.5, 7, 6.5, 5.5, 2.5, 2, 2.5],
"errStatMinus":
[18, 9.5, 7, 6.5, 5.5, 2.5, 2, 2.5],
"errSysPlus":
[0., 0., 0., 0., 0., 0., 0., 0.],
"errSysMinus":
[0., 0., 0., 0., 0., 0., 0., 0.],
"binMin":
[0.1, 0.15, 0.2, 0.25, 0.3, 0.35, 0.4, 0.45],
"binMax":
[0.15, 0.2, 0.25, 0.3, 0.35, 0.4, 0.45, 0.5]
},
"imageblobslnk":NULL,"scoreslnk":2,"accesslnk":1,
"parnames":["theta interval for secondary particle"], "parvalues":["1.55-1.75"]
},
{
"trid":1,"testlnk":0,"referencelnk":43,"mcdetaillnk":1,
"beamlnk":41,"targetlnk":13,"observablelnk":8,"secondarylnk":-211,"reactionlnk":1,
"datatable":{
"dtid":1,"datatypeslnk":2,
"title":"Production of pi- in proton-Al interactions at 12GeV/c, 1.75<theta<1.95 [rad]",
"npoints":0,
"nbins":[8],
"axisTitle":["momentum of pi- [GeV/c]","Cross section [mb/(GeV/c/rad)]"],
"val":
[261, 240, 170, 102, 80, 60, 38, 27],
"errStatPlus":
[14.5, 7.5, 6, 4, 3, 2.5, 2.5, 2],
"errStatMinus":
[14.5, 7.5, 6, 4, 3, 2.5, 2.5, 2],
"errSysPlus":
[0., 0., 0., 0., 0., 0., 0., 0.],
"errSysMinus":
[0., 0., 0., 0., 0., 0., 0., 0.],
"binMin":
[0.1, 0.15, 0.2, 0.25, 0.3, 0.35, 0.4, 0.45],
"binMax":
[0.15, 0.2, 0.25, 0.3, 0.35, 0.4, 0.45, 0.5]
},
"imageblobslnk":NULL,"scoreslnk":2,"accesslnk":1,
"parnames":["theta interval for secondary particle"], "parvalues":["1.75-1.95"]
},
{
"trid":1,"testlnk":0,"referencelnk":43,"mcdetaillnk":1,
"beamlnk":41,"targetlnk":13,"observablelnk":8,"secondarylnk":-211,"reactionlnk":1,
"datatable":{
"dtid":1,"datatypeslnk":2,
"title":"Production of pi- in proton-Al interactions at 12GeV/c, 1.95<theta<2.15 [rad]",
"npoints":0,
"nbins":[8],
"axisTitle":["momentum of pi- [GeV/c]","Cross section [mb/(GeV/c/rad)]"],
"val":
[187, 196, 130, 78, 52, 29, 19, 15],
"errStatPlus":
[10, 7.5, 6, 3.5, 3, 2, 1.5, 1.5],
"errStatMinus":
[10, 7.5, 6, 3.5, 3, 2, 1.5, 1.5],
"errSysPlus":
[0., 0., 0., 0., 0., 0., 0., 0.],
"errSysMinus":
[0., 0., 0., 0., 0., 0., 0., 0.],
"binMin":
[0.1, 0.15, 0.2, 0.25, 0.3, 0.35, 0.4, 0.45],
"binMax":
[0.15, 0.2, 0.25, 0.3, 0.35, 0.4, 0.45, 0.5]
},
"imageblobslnk":NULL,"scoreslnk":2,"accesslnk":1,
"parnames":["theta interval for secondary particle"], "parvalues":["1.95-2.15"]
}
]}
