{"ResultList":[
{
"trid":1,"testlnk":0,"referencelnk":44,"mcdetaillnk":1,
"beamlnk":46,"targetlnk":73,"observablelnk":8,"secondarylnk":211,"reactionlnk":1,
"datatable":{
"dtid":1,"datatypeslnk":2,
"title":"Production of pi+ in pi- on Ta interactions at 3GeV/c, 0.05<theta<0.1 [rad]",
"npoints":0,
"nbins":[4],
"axisTitle":["momentum of pi+ [GeV/c]","Cross section [mb/(GeV/c/rad)]"],
"val":
[80, 60, 130, 170],
"errStatPlus":
[15, 15, 25, 30],
"errStatMinus":
[15, 15, 25, 30],
"errSysPlus":
[0., 0., 0., 0.],
"errSysMinus":
[0., 0., 0., 0.],
"binMin":
[0.5, 1, 1.5, 2],
"binMax":
[1, 1.5, 2, 2.5]
},
"imageblobslnk":NULL,"scoreslnk":2,"accesslnk":1,
"parnames":["theta interval for secondary particle"], "parvalues":["0.05-0.1"]
},
{
"trid":1,"testlnk":0,"referencelnk":44,"mcdetaillnk":1,
"beamlnk":46,"targetlnk":73,"observablelnk":8,"secondarylnk":211,"reactionlnk":1,
"datatable":{
"dtid":1,"datatypeslnk":2,
"title":"Production of pi+ in pi- on Ta interactions at 3GeV/c, 0.1<theta<0.15 [rad]",
"npoints":0,
"nbins":[4],
"axisTitle":["momentum of pi+ [GeV/c]","Cross section [mb/(GeV/c/rad)]"],
"val":
[130, 90, 100, 40],
"errStatPlus":
[20, 15, 25, 10],
"errStatMinus":
[20, 15, 25, 10],
"errSysPlus":
[0., 0., 0., 0.],
"errSysMinus":
[0., 0., 0., 0.],
"binMin":
[0.5, 1, 1.5, 2],
"binMax":
[1, 1.5, 2, 2.5]
},
"imageblobslnk":NULL,"scoreslnk":2,"accesslnk":1,
"parnames":["theta interval for secondary particle"], "parvalues":["0.1-0.15"]
},
{
"trid":1,"testlnk":0,"referencelnk":44,"mcdetaillnk":1,
"beamlnk":46,"targetlnk":73,"observablelnk":8,"secondarylnk":211,"reactionlnk":1,
"datatable":{
"dtid":1,"datatypeslnk":2,
"title":"Production of pi+ in pi- on Ta interactions at 3GeV/c, 0.15<theta<0.2 [rad]",
"npoints":0,
"nbins":[4],
"axisTitle":["momentum of pi+ [GeV/c]","Cross section [mb/(GeV/c/rad)]"],
"val":
[110, 120, 60, 60],
"errStatPlus":
[25, 25, 10, 20],
"errStatMinus":
[25, 25, 10, 20],
"errSysPlus":
[0., 0., 0., 0.],
"errSysMinus":
[0., 0., 0., 0.],
"binMin":
[0.5, 1, 1.5, 2],
"binMax":
[1, 1.5, 2, 2.5]
},
"imageblobslnk":NULL,"scoreslnk":2,"accesslnk":1,
"parnames":["theta interval for secondary particle"], "parvalues":["0.15-0.2"]
},
{
"trid":1,"testlnk":0,"referencelnk":44,"mcdetaillnk":1,
"beamlnk":46,"targetlnk":73,"observablelnk":8,"secondarylnk":211,"reactionlnk":1,
"datatable":{
"dtid":1,"datatypeslnk":2,
"title":"Production of pi+ in pi- on Ta interactions at 3GeV/c, 0.2<theta<0.25 [rad]",
"npoints":0,
"nbins":[4],
"axisTitle":["momentum of pi+ [GeV/c]","Cross section [mb/(GeV/c/rad)]"],
"val":
[250, 150, 70, 20],
"errStatPlus":
[55, 35, 25, 15],
"errStatMinus":
[55, 35, 25, 15],
"errSysPlus":
[0., 0., 0., 0.],
"errSysMinus":
[0., 0., 0., 0.],
"binMin":
[0.5, 1, 1.5, 2],
"binMax":
[1, 1.5, 2, 2.5]
},
"imageblobslnk":NULL,"scoreslnk":2,"accesslnk":1,
"parnames":["theta interval for secondary particle"], "parvalues":["0.2-0.25"]
},
{
"trid":1,"testlnk":0,"referencelnk":45,"mcdetaillnk":1,
"beamlnk":46,"targetlnk":73,"observablelnk":8,"secondarylnk":211,"reactionlnk":1,
"datatable":{
"dtid":1,"datatypeslnk":2,
"title":"Production of pi+ in pi- on Ta interactions at 3GeV/c, 0.35<theta<0.55 [rad]",
"npoints":0,
"nbins":[10],
"axisTitle":["momentum of pi+ [GeV/c]","Cross section [mb/(GeV/c/rad)]"],
"val":
[470, 620, 690, 750, 670, 620, 580, 690, 580, 420],
"errStatPlus":
[120, 85, 50, 40, 30, 25, 25, 35, 35, 40],
"errStatMinus":
[120, 85, 50, 40, 30, 25, 25, 35, 35, 40],
"errSysPlus":
[0., 0., 0., 0., 0., 0., 0., 0., 0., 0.],
"errSysMinus":
[0., 0., 0., 0., 0., 0., 0., 0., 0., 0.],
"binMin":
[0.15, 0.2, 0.25, 0.3, 0.35, 0.4, 0.45, 0.5, 0.6, 0.7],
"binMax":
[0.2, 0.25, 0.3, 0.35, 0.4, 0.45, 0.5, 0.6, 0.7, 0.8]
},
"imageblobslnk":NULL,"scoreslnk":2,"accesslnk":1,
"parnames":["theta interval for secondary particle"], "parvalues":["0.35-0.55"]
},
{
"trid":1,"testlnk":0,"referencelnk":45,"mcdetaillnk":1,
"beamlnk":46,"targetlnk":73,"observablelnk":8,"secondarylnk":211,"reactionlnk":1,
"datatable":{
"dtid":1,"datatypeslnk":2,
"title":"Production of pi+ in pi- on Ta interactions at 3GeV/c, 0.55<theta<0.75 [rad]",
"npoints":0,
"nbins":[11],
"axisTitle":["momentum of pi+ [GeV/c]","Cross section [mb/(GeV/c/rad)]"],
"val":
[520, 770, 900, 720, 810, 780, 710, 690, 540, 330, 220],
"errStatPlus":
[160, 110, 50, 40, 35, 30, 30, 30, 30, 30, 20],
"errStatMinus":
[160, 110, 50, 40, 35, 30, 30, 30, 30, 30, 20],
"errSysPlus":
[0., 0., 0., 0., 0., 0., 0., 0., 0., 0., 0.],
"errSysMinus":
[0., 0., 0., 0., 0., 0., 0., 0., 0., 0., 0.],
"binMin":
[0.1, 0.15, 0.2, 0.25, 0.3, 0.35, 0.4, 0.45, 0.5, 0.6, 0.7],
"binMax":
[0.15, 0.2, 0.25, 0.3, 0.35, 0.4, 0.45, 0.5, 0.6, 0.7, 0.8]
},
"imageblobslnk":NULL,"scoreslnk":2,"accesslnk":1,
"parnames":["theta interval for secondary particle"], "parvalues":["0.55-0.75"]
},
{
"trid":1,"testlnk":0,"referencelnk":45,"mcdetaillnk":1,
"beamlnk":46,"targetlnk":73,"observablelnk":8,"secondarylnk":211,"reactionlnk":1,
"datatable":{
"dtid":1,"datatypeslnk":2,
"title":"Production of pi+ in pi- on Ta interactions at 3GeV/c, 0.75<theta<0.95 [rad]",
"npoints":0,
"nbins":[10],
"axisTitle":["momentum of pi+ [GeV/c]","Cross section [mb/(GeV/c/rad)]"],
"val":
[470, 990, 870, 900, 660, 650, 560, 470, 380, 250],
"errStatPlus":
[130, 75, 45, 40, 25, 30, 25, 20, 20, 20],
"errStatMinus":
[130, 75, 45, 40, 25, 30, 25, 20, 20, 20],
"errSysPlus":
[0., 0., 0., 0., 0., 0., 0., 0., 0., 0.],
"errSysMinus":
[0., 0., 0., 0., 0., 0., 0., 0., 0., 0.],
"binMin":
[0.1, 0.15, 0.2, 0.25, 0.3, 0.35, 0.4, 0.45, 0.5, 0.6],
"binMax":
[0.15, 0.2, 0.25, 0.3, 0.35, 0.4, 0.45, 0.5, 0.6, 0.7]
},
"imageblobslnk":NULL,"scoreslnk":2,"accesslnk":1,
"parnames":["theta interval for secondary particle"], "parvalues":["0.75-0.95"]
},
{
"trid":1,"testlnk":0,"referencelnk":45,"mcdetaillnk":1,
"beamlnk":46,"targetlnk":73,"observablelnk":8,"secondarylnk":211,"reactionlnk":1,
"datatable":{
"dtid":1,"datatypeslnk":2,
"title":"Production of pi+ in pi- on Ta interactions at 3GeV/c, 0.95<theta<1.15 [rad]",
"npoints":0,
"nbins":[9],
"axisTitle":["momentum of pi+ [GeV/c]","Cross section [mb/(GeV/c/rad)]"],
"val":
[560, 1140, 840, 620, 560, 450, 410, 370, 250],
"errStatPlus":
[100, 75, 40, 25, 25, 20, 20, 20, 15],
"errStatMinus":
[100, 75, 40, 25, 25, 20, 20, 20, 15],
"errSysPlus":
[0., 0., 0., 0., 0., 0., 0., 0., 0.],
"errSysMinus":
[0., 0., 0., 0., 0., 0., 0., 0., 0.],
"binMin":
[0.1, 0.15, 0.2, 0.25, 0.3, 0.35, 0.4, 0.45, 0.5],
"binMax":
[0.15, 0.2, 0.25, 0.3, 0.35, 0.4, 0.45, 0.5, 0.6]
},
"imageblobslnk":NULL,"scoreslnk":2,"accesslnk":1,
"parnames":["theta interval for secondary particle"], "parvalues":["0.95-1.15"]
},
{
"trid":1,"testlnk":0,"referencelnk":45,"mcdetaillnk":1,
"beamlnk":46,"targetlnk":73,"observablelnk":8,"secondarylnk":211,"reactionlnk":1,
"datatable":{
"dtid":1,"datatypeslnk":2,
"title":"Production of pi+ in pi- on Ta interactions at 3GeV/c, 1.15<theta<1.35 [rad]",
"npoints":0,
"nbins":[8],
"axisTitle":["momentum of pi+ [GeV/c]","Cross section [mb/(GeV/c/rad)]"],
"val":
[680, 920, 860, 570, 530, 420, 300, 210],
"errStatPlus":
[90, 60, 35, 25, 20, 20, 15, 10],
"errStatMinus":
[90, 60, 35, 25, 20, 20, 15, 10],
"errSysPlus":
[0., 0., 0., 0., 0., 0., 0., 0.],
"errSysMinus":
[0., 0., 0., 0., 0., 0., 0., 0.],
"binMin":
[0.1, 0.15, 0.2, 0.25, 0.3, 0.35, 0.4, 0.45],
"binMax":
[0.15, 0.2, 0.25, 0.3, 0.35, 0.4, 0.45, 0.5]
},
"imageblobslnk":NULL,"scoreslnk":2,"accesslnk":1,
"parnames":["theta interval for secondary particle"], "parvalues":["1.15-1.35"]
},
{
"trid":1,"testlnk":0,"referencelnk":45,"mcdetaillnk":1,
"beamlnk":46,"targetlnk":73,"observablelnk":8,"secondarylnk":211,"reactionlnk":1,
"datatable":{
"dtid":1,"datatypeslnk":2,
"title":"Production of pi+ in pi- on Ta interactions at 3GeV/c, 1.35<theta<1.55 [rad]",
"npoints":0,
"nbins":[8],
"axisTitle":["momentum of pi+ [GeV/c]","Cross section [mb/(GeV/c/rad)]"],
"val":
[670, 880, 780, 470, 380, 290, 200, 140],
"errStatPlus":
[90, 65, 40, 20, 15, 15, 10, 10],
"errStatMinus":
[90, 65, 40, 20, 15, 15, 10, 10],
"errSysPlus":
[0., 0., 0., 0., 0., 0., 0., 0.],
"errSysMinus":
[0., 0., 0., 0., 0., 0., 0., 0.],
"binMin":
[0.1, 0.15, 0.2, 0.25, 0.3, 0.35, 0.4, 0.45],
"binMax":
[0.15, 0.2, 0.25, 0.3, 0.35, 0.4, 0.45, 0.5]
},
"imageblobslnk":NULL,"scoreslnk":2,"accesslnk":1,
"parnames":["theta interval for secondary particle"], "parvalues":["1.35-1.55"]
},
{
"trid":1,"testlnk":0,"referencelnk":45,"mcdetaillnk":1,
"beamlnk":46,"targetlnk":73,"observablelnk":8,"secondarylnk":211,"reactionlnk":1,
"datatable":{
"dtid":1,"datatypeslnk":2,
"title":"Production of pi+ in pi- on Ta interactions at 3GeV/c, 1.55<theta<1.75 [rad]",
"npoints":0,
"nbins":[8],
"axisTitle":["momentum of pi+ [GeV/c]","Cross section [mb/(GeV/c/rad)]"],
"val":
[740, 910, 760, 510, 370, 290, 200, 130],
"errStatPlus":
[80, 60, 35, 25, 20, 15, 10, 10],
"errStatMinus":
[80, 60, 35, 25, 20, 15, 10, 10],
"errSysPlus":
[0., 0., 0., 0., 0., 0., 0., 0.],
"errSysMinus":
[0., 0., 0., 0., 0., 0., 0., 0.],
"binMin":
[0.1, 0.15, 0.2, 0.25, 0.3, 0.35, 0.4, 0.45],
"binMax":
[0.15, 0.2, 0.25, 0.3, 0.35, 0.4, 0.45, 0.5]
},
"imageblobslnk":NULL,"scoreslnk":2,"accesslnk":1,
"parnames":["theta interval for secondary particle"], "parvalues":["1.55-1.75"]
},
{
"trid":1,"testlnk":0,"referencelnk":45,"mcdetaillnk":1,
"beamlnk":46,"targetlnk":73,"observablelnk":8,"secondarylnk":211,"reactionlnk":1,
"datatable":{
"dtid":1,"datatypeslnk":2,
"title":"Production of pi+ in pi- on Ta interactions at 3GeV/c, 1.75<theta<1.95 [rad]",
"npoints":0,
"nbins":[8],
"axisTitle":["momentum of pi+ [GeV/c]","Cross section [mb/(GeV/c/rad)]"],
"val":
[730, 830, 560, 380, 260, 180, 110, 60],
"errStatPlus":
[80, 35, 25, 20, 15, 10, 10, 5],
"errStatMinus":
[80, 35, 25, 20, 15, 10, 10, 5],
"errSysPlus":
[0., 0., 0., 0., 0., 0., 0., 0.],
"errSysMinus":
[0., 0., 0., 0., 0., 0., 0., 0.],
"binMin":
[0.1, 0.15, 0.2, 0.25, 0.3, 0.35, 0.4, 0.45],
"binMax":
[0.15, 0.2, 0.25, 0.3, 0.35, 0.4, 0.45, 0.5]
},
"imageblobslnk":NULL,"scoreslnk":2,"accesslnk":1,
"parnames":["theta interval for secondary particle"], "parvalues":["1.75-1.95"]
},
{
"trid":1,"testlnk":0,"referencelnk":45,"mcdetaillnk":1,
"beamlnk":46,"targetlnk":73,"observablelnk":8,"secondarylnk":211,"reactionlnk":1,
"datatable":{
"dtid":1,"datatypeslnk":2,
"title":"Production of pi+ in pi- on Ta interactions at 3GeV/c, 1.95<theta<2.15 [rad]",
"npoints":0,
"nbins":[8],
"axisTitle":["momentum of pi+ [GeV/c]","Cross section [mb/(GeV/c/rad)]"],
"val":
[670, 580, 360, 300, 150, 80, 40, 20],
"errStatPlus":
[60, 25, 20, 15, 15, 5, 5, 5],
"errStatMinus":
[60, 25, 20, 15, 15, 5, 5, 5],
"errSysPlus":
[0., 0., 0., 0., 0., 0., 0., 0.],
"errSysMinus":
[0., 0., 0., 0., 0., 0., 0., 0.],
"binMin":
[0.1, 0.15, 0.2, 0.25, 0.3, 0.35, 0.4, 0.45],
"binMax":
[0.15, 0.2, 0.25, 0.3, 0.35, 0.4, 0.45, 0.5]
},
"imageblobslnk":NULL,"scoreslnk":2,"accesslnk":1,
"parnames":["theta interval for secondary particle"], "parvalues":["1.95-2.15"]
},
{
"trid":1,"testlnk":0,"referencelnk":44,"mcdetaillnk":1,
"beamlnk":47,"targetlnk":73,"observablelnk":8,"secondarylnk":211,"reactionlnk":1,
"datatable":{
"dtid":1,"datatypeslnk":2,
"title":"Production of pi+ in pi- on Ta interactions at 5GeV/c, 0.05<theta<0.1 [rad]",
"npoints":0,
"nbins":[8],
"axisTitle":["momentum of pi+ [GeV/c]","Cross section [mb/(GeV/c/rad)]"],
"val":
[420, 330, 290, 240, 230, 190, 170, 50],
"errStatPlus":
[30, 25, 20, 20, 20, 15, 15, 10],
"errStatMinus":
[30, 25, 20, 20, 20, 15, 15, 10],
"errSysPlus":
[0., 0., 0., 0., 0., 0., 0., 0.],
"errSysMinus":
[0., 0., 0., 0., 0., 0., 0., 0.],
"binMin":
[0.5, 1, 1.5, 2, 2.5, 3, 3.5, 4],
"binMax":
[1, 1.5, 2, 2.5, 3, 3.5, 4, 5]
},
"imageblobslnk":NULL,"scoreslnk":2,"accesslnk":1,
"parnames":["theta interval for secondary particle"], "parvalues":["0.05-0.1"]
},
{
"trid":1,"testlnk":0,"referencelnk":44,"mcdetaillnk":1,
"beamlnk":47,"targetlnk":73,"observablelnk":8,"secondarylnk":211,"reactionlnk":1,
"datatable":{
"dtid":1,"datatypeslnk":2,
"title":"Production of pi+ in pi- on Ta interactions at 5GeV/c, 0.1<theta<0.15 [rad]",
"npoints":0,
"nbins":[8],
"axisTitle":["momentum of pi+ [GeV/c]","Cross section [mb/(GeV/c/rad)]"],
"val":
[460, 380, 210, 230, 150, 110, 60, 20],
"errStatPlus":
[35, 25, 20, 20, 15, 10, 10, 5],
"errStatMinus":
[35, 25, 20, 20, 15, 10, 10, 5],
"errSysPlus":
[0., 0., 0., 0., 0., 0., 0., 0.],
"errSysMinus":
[0., 0., 0., 0., 0., 0., 0., 0.],
"binMin":
[0.5, 1, 1.5, 2, 2.5, 3, 3.5, 4],
"binMax":
[1, 1.5, 2, 2.5, 3, 3.5, 4, 5]
},
"imageblobslnk":NULL,"scoreslnk":2,"accesslnk":1,
"parnames":["theta interval for secondary particle"], "parvalues":["0.1-0.15"]
},
{
"trid":1,"testlnk":0,"referencelnk":44,"mcdetaillnk":1,
"beamlnk":47,"targetlnk":73,"observablelnk":8,"secondarylnk":211,"reactionlnk":1,
"datatable":{
"dtid":1,"datatypeslnk":2,
"title":"Production of pi+ in pi- on Ta interactions at 5GeV/c, 0.15<theta<0.2 [rad]",
"npoints":0,
"nbins":[8],
"axisTitle":["momentum of pi+ [GeV/c]","Cross section [mb/(GeV/c/rad)]"],
"val":
[450, 290, 240, 180, 40, 40, 9, 1],
"errStatPlus":
[40, 25, 20, 20, 10, 7.5, 3.5, 1],
"errStatMinus":
[40, 25, 20, 20, 10, 7.5, 3.5, 1],
"errSysPlus":
[0., 0., 0., 0., 0., 0., 0., 0.],
"errSysMinus":
[0., 0., 0., 0., 0., 0., 0., 0.],
"binMin":
[0.5, 1, 1.5, 2, 2.5, 3, 3.5, 4],
"binMax":
[1, 1.5, 2, 2.5, 3, 3.5, 4, 5]
},
"imageblobslnk":NULL,"scoreslnk":2,"accesslnk":1,
"parnames":["theta interval for secondary particle"], "parvalues":["0.15-0.2"]
},
{
"trid":1,"testlnk":0,"referencelnk":44,"mcdetaillnk":1,
"beamlnk":47,"targetlnk":73,"observablelnk":8,"secondarylnk":211,"reactionlnk":1,
"datatable":{
"dtid":1,"datatypeslnk":2,
"title":"Production of pi+ in pi- on Ta interactions at 5GeV/c, 0.2<theta<0.25 [rad]",
"npoints":0,
"nbins":[8],
"axisTitle":["momentum of pi+ [GeV/c]","Cross section [mb/(GeV/c/rad)]"],
"val":
[530, 510, 300, 200, 50, 9, 5, 3],
"errStatPlus":
[50, 45, 30, 20, 10, 2.5, 2, 1.5],
"errStatMinus":
[50, 45, 30, 20, 10, 2.5, 2, 1.5],
"errSysPlus":
[0., 0., 0., 0., 0., 0., 0., 0.],
"errSysMinus":
[0., 0., 0., 0., 0., 0., 0., 0.],
"binMin":
[0.5, 1, 1.5, 2, 2.5, 3, 3.5, 4],
"binMax":
[1, 1.5, 2, 2.5, 3, 3.5, 4, 5]
},
"imageblobslnk":NULL,"scoreslnk":2,"accesslnk":1,
"parnames":["theta interval for secondary particle"], "parvalues":["0.2-0.25"]
},
{
"trid":1,"testlnk":0,"referencelnk":45,"mcdetaillnk":1,
"beamlnk":47,"targetlnk":73,"observablelnk":8,"secondarylnk":211,"reactionlnk":1,
"datatable":{
"dtid":1,"datatypeslnk":2,
"title":"Production of pi+ in pi- on Ta interactions at 5GeV/c, 0.35<theta<0.55 [rad]",
"npoints":0,
"nbins":[10],
"axisTitle":["momentum of pi+ [GeV/c]","Cross section [mb/(GeV/c/rad)]"],
"val":
[1190, 1240, 1510, 1560, 1400, 1340, 1350, 1420, 1200, 960],
"errStatPlus":
[215, 145, 70, 55, 35, 35, 40, 40, 65, 75],
"errStatMinus":
[215, 145, 70, 55, 35, 35, 40, 40, 65, 75],
"errSysPlus":
[0., 0., 0., 0., 0., 0., 0., 0., 0., 0.],
"errSysMinus":
[0., 0., 0., 0., 0., 0., 0., 0., 0., 0.],
"binMin":
[0.15, 0.2, 0.25, 0.3, 0.35, 0.4, 0.45, 0.5, 0.6, 0.7],
"binMax":
[0.2, 0.25, 0.3, 0.35, 0.4, 0.45, 0.5, 0.6, 0.7, 0.8]
},
"imageblobslnk":NULL,"scoreslnk":2,"accesslnk":1,
"parnames":["theta interval for secondary particle"], "parvalues":["0.35-0.55"]
},
{
"trid":1,"testlnk":0,"referencelnk":45,"mcdetaillnk":1,
"beamlnk":47,"targetlnk":73,"observablelnk":8,"secondarylnk":211,"reactionlnk":1,
"datatable":{
"dtid":1,"datatypeslnk":2,
"title":"Production of pi+ in pi- on Ta interactions at 5GeV/c, 0.55<theta<0.75 [rad]",
"npoints":0,
"nbins":[11],
"axisTitle":["momentum of pi+ [GeV/c]","Cross section [mb/(GeV/c/rad)]"],
"val":
[920, 1430, 1660, 1610, 1460, 1390, 1220, 1100, 1020, 770, 530],
"errStatPlus":
[235, 145, 70, 45, 40, 35, 30, 30, 35, 50, 50],
"errStatMinus":
[235, 145, 70, 45, 40, 35, 30, 30, 35, 50, 50],
"errSysPlus":
[0., 0., 0., 0., 0., 0., 0., 0., 0., 0., 0.],
"errSysMinus":
[0., 0., 0., 0., 0., 0., 0., 0., 0., 0., 0.],
"binMin":
[0.1, 0.15, 0.2, 0.25, 0.3, 0.35, 0.4, 0.45, 0.5, 0.6, 0.7],
"binMax":
[0.15, 0.2, 0.25, 0.3, 0.35, 0.4, 0.45, 0.5, 0.6, 0.7, 0.8]
},
"imageblobslnk":NULL,"scoreslnk":2,"accesslnk":1,
"parnames":["theta interval for secondary particle"], "parvalues":["0.55-0.75"]
},
{
"trid":1,"testlnk":0,"referencelnk":45,"mcdetaillnk":1,
"beamlnk":47,"targetlnk":73,"observablelnk":8,"secondarylnk":211,"reactionlnk":1,
"datatable":{
"dtid":1,"datatypeslnk":2,
"title":"Production of pi+ in pi- on Ta interactions at 5GeV/c, 0.75<theta<0.95 [rad]",
"npoints":0,
"nbins":[10],
"axisTitle":["momentum of pi+ [GeV/c]","Cross section [mb/(GeV/c/rad)]"],
"val":
[1050, 1640, 1510, 1310, 1230, 1100, 1040, 960, 700, 470],
"errStatPlus":
[175, 80, 50, 35, 35, 30, 25, 25, 30, 35],
"errStatMinus":
[175, 80, 50, 35, 35, 30, 25, 25, 30, 35],
"errSysPlus":
[0., 0., 0., 0., 0., 0., 0., 0., 0., 0.],
"errSysMinus":
[0., 0., 0., 0., 0., 0., 0., 0., 0., 0.],
"binMin":
[0.1, 0.15, 0.2, 0.25, 0.3, 0.35, 0.4, 0.45, 0.5, 0.6],
"binMax":
[0.15, 0.2, 0.25, 0.3, 0.35, 0.4, 0.45, 0.5, 0.6, 0.7]
},
"imageblobslnk":NULL,"scoreslnk":2,"accesslnk":1,
"parnames":["theta interval for secondary particle"], "parvalues":["0.75-0.95"]
},
{
"trid":1,"testlnk":0,"referencelnk":45,"mcdetaillnk":1,
"beamlnk":47,"targetlnk":73,"observablelnk":8,"secondarylnk":211,"reactionlnk":1,
"datatable":{
"dtid":1,"datatypeslnk":2,
"title":"Production of pi+ in pi- on Ta interactions at 5GeV/c, 0.95<theta<1.15 [rad]",
"npoints":0,
"nbins":[9],
"axisTitle":["momentum of pi+ [GeV/c]","Cross section [mb/(GeV/c/rad)]"],
"val":
[1210, 1830, 1600, 1240, 1020, 810, 670, 550, 380],
"errStatPlus":
[130, 65, 45, 35, 30, 25, 20, 20, 20],
"errStatMinus":
[130, 65, 45, 35, 30, 25, 20, 20, 20],
"errSysPlus":
[0., 0., 0., 0., 0., 0., 0., 0., 0.],
"errSysMinus":
[0., 0., 0., 0., 0., 0., 0., 0., 0.],
"binMin":
[0.1, 0.15, 0.2, 0.25, 0.3, 0.35, 0.4, 0.45, 0.5],
"binMax":
[0.15, 0.2, 0.25, 0.3, 0.35, 0.4, 0.45, 0.5, 0.6]
},
"imageblobslnk":NULL,"scoreslnk":2,"accesslnk":1,
"parnames":["theta interval for secondary particle"], "parvalues":["0.95-1.15"]
},
{
"trid":1,"testlnk":0,"referencelnk":45,"mcdetaillnk":1,
"beamlnk":47,"targetlnk":73,"observablelnk":8,"secondarylnk":211,"reactionlnk":1,
"datatable":{
"dtid":1,"datatypeslnk":2,
"title":"Production of pi+ in pi- on Ta interactions at 5GeV/c, 1.15<theta<1.35 [rad]",
"npoints":0,
"nbins":[8],
"axisTitle":["momentum of pi+ [GeV/c]","Cross section [mb/(GeV/c/rad)]"],
"val":
[1220, 1570, 1390, 1010, 740, 600, 460, 350],
"errStatPlus":
[115, 65, 40, 30, 25, 20, 15, 15],
"errStatMinus":
[115, 65, 40, 30, 25, 20, 15, 15],
"errSysPlus":
[0., 0., 0., 0., 0., 0., 0., 0.],
"errSysMinus":
[0., 0., 0., 0., 0., 0., 0., 0.],
"binMin":
[0.1, 0.15, 0.2, 0.25, 0.3, 0.35, 0.4, 0.45],
"binMax":
[0.15, 0.2, 0.25, 0.3, 0.35, 0.4, 0.45, 0.5]
},
"imageblobslnk":NULL,"scoreslnk":2,"accesslnk":1,
"parnames":["theta interval for secondary particle"], "parvalues":["1.15-1.35"]
},
{
"trid":1,"testlnk":0,"referencelnk":45,"mcdetaillnk":1,
"beamlnk":47,"targetlnk":73,"observablelnk":8,"secondarylnk":211,"reactionlnk":1,
"datatable":{
"dtid":1,"datatypeslnk":2,
"title":"Production of pi+ in pi- on Ta interactions at 5GeV/c, 1.35<theta<1.55 [rad]",
"npoints":0,
"nbins":[8],
"axisTitle":["momentum of pi+ [GeV/c]","Cross section [mb/(GeV/c/rad)]"],
"val":
[1040, 1350, 1230, 810, 550, 400, 310, 230],
"errStatPlus":
[120, 75, 40, 30, 20, 15, 10, 10],
"errStatMinus":
[120, 75, 40, 30, 20, 15, 10, 10],
"errSysPlus":
[0., 0., 0., 0., 0., 0., 0., 0.],
"errSysMinus":
[0., 0., 0., 0., 0., 0., 0., 0.],
"binMin":
[0.1, 0.15, 0.2, 0.25, 0.3, 0.35, 0.4, 0.45],
"binMax":
[0.15, 0.2, 0.25, 0.3, 0.35, 0.4, 0.45, 0.5]
},
"imageblobslnk":NULL,"scoreslnk":2,"accesslnk":1,
"parnames":["theta interval for secondary particle"], "parvalues":["1.35-1.55"]
},
{
"trid":1,"testlnk":0,"referencelnk":45,"mcdetaillnk":1,
"beamlnk":47,"targetlnk":73,"observablelnk":8,"secondarylnk":211,"reactionlnk":1,
"datatable":{
"dtid":1,"datatypeslnk":2,
"title":"Production of pi+ in pi- on Ta interactions at 5GeV/c, 1.55<theta<1.75 [rad]",
"npoints":0,
"nbins":[8],
"axisTitle":["momentum of pi+ [GeV/c]","Cross section [mb/(GeV/c/rad)]"],
"val":
[1020, 1160, 1030, 690, 400, 310, 220, 160],
"errStatPlus":
[110, 60, 40, 25, 15, 10, 10, 10],
"errStatMinus":
[110, 60, 40, 25, 15, 10, 10, 10],
"errSysPlus":
[0., 0., 0., 0., 0., 0., 0., 0.],
"errSysMinus":
[0., 0., 0., 0., 0., 0., 0., 0.],
"binMin":
[0.1, 0.15, 0.2, 0.25, 0.3, 0.35, 0.4, 0.45],
"binMax":
[0.15, 0.2, 0.25, 0.3, 0.35, 0.4, 0.45, 0.5]
},
"imageblobslnk":NULL,"scoreslnk":2,"accesslnk":1,
"parnames":["theta interval for secondary particle"], "parvalues":["1.55-1.75"]
},
{
"trid":1,"testlnk":0,"referencelnk":45,"mcdetaillnk":1,
"beamlnk":47,"targetlnk":73,"observablelnk":8,"secondarylnk":211,"reactionlnk":1,
"datatable":{
"dtid":1,"datatypeslnk":2,
"title":"Production of pi+ in pi- on Ta interactions at 5GeV/c, 1.75<theta<1.95 [rad]",
"npoints":0,
"nbins":[8],
"axisTitle":["momentum of pi+ [GeV/c]","Cross section [mb/(GeV/c/rad)]"],
"val":
[980, 1040, 820, 460, 280, 190, 120, 90],
"errStatPlus":
[80, 35, 25, 20, 10, 10, 5, 5],
"errStatMinus":
[80, 35, 25, 20, 10, 10, 5, 5],
"errSysPlus":
[0., 0., 0., 0., 0., 0., 0., 0.],
"errSysMinus":
[0., 0., 0., 0., 0., 0., 0., 0.],
"binMin":
[0.1, 0.15, 0.2, 0.25, 0.3, 0.35, 0.4, 0.45],
"binMax":
[0.15, 0.2, 0.25, 0.3, 0.35, 0.4, 0.45, 0.5]
},
"imageblobslnk":NULL,"scoreslnk":2,"accesslnk":1,
"parnames":["theta interval for secondary particle"], "parvalues":["1.75-1.95"]
},
{
"trid":1,"testlnk":0,"referencelnk":45,"mcdetaillnk":1,
"beamlnk":47,"targetlnk":73,"observablelnk":8,"secondarylnk":211,"reactionlnk":1,
"datatable":{
"dtid":1,"datatypeslnk":2,
"title":"Production of pi+ in pi- on Ta interactions at 5GeV/c, 1.95<theta<2.15 [rad]",
"npoints":0,
"nbins":[8],
"axisTitle":["momentum of pi+ [GeV/c]","Cross section [mb/(GeV/c/rad)]"],
"val":
[780, 830, 550, 270, 170, 130, 80, 50],
"errStatPlus":
[65, 25, 20, 15, 5, 5, 5, 5],
"errStatMinus":
[65, 25, 20, 15, 5, 5, 5, 5],
"errSysPlus":
[0., 0., 0., 0., 0., 0., 0., 0.],
"errSysMinus":
[0., 0., 0., 0., 0., 0., 0., 0.],
"binMin":
[0.1, 0.15, 0.2, 0.25, 0.3, 0.35, 0.4, 0.45],
"binMax":
[0.15, 0.2, 0.25, 0.3, 0.35, 0.4, 0.45, 0.5]
},
"imageblobslnk":NULL,"scoreslnk":2,"accesslnk":1,
"parnames":["theta interval for secondary particle"], "parvalues":["1.95-2.15"]
},
{
"trid":1,"testlnk":0,"referencelnk":44,"mcdetaillnk":1,
"beamlnk":48,"targetlnk":73,"observablelnk":8,"secondarylnk":211,"reactionlnk":1,
"datatable":{
"dtid":1,"datatypeslnk":2,
"title":"Production of pi+ in pi- on Ta interactions at 8GeV/c, 0.05<theta<0.1 [rad]",
"npoints":0,
"nbins":[9],
"axisTitle":["momentum of pi+ [GeV/c]","Cross section [mb/(GeV/c/rad)]"],
"val":
[1060, 1270, 1040, 700, 360, 370, 290, 180, 110],
"errStatPlus":
[55, 45, 35, 35, 30, 30, 25, 15, 10],
"errStatMinus":
[55, 45, 35, 35, 30, 30, 25, 15, 10],
"errSysPlus":
[0., 0., 0., 0., 0., 0., 0., 0., 0.],
"errSysMinus":
[0., 0., 0., 0., 0., 0., 0., 0., 0.],
"binMin":
[0.5, 1, 1.5, 2, 2.5, 3, 3.5, 4, 5],
"binMax":
[1, 1.5, 2, 2.5, 3, 3.5, 4, 5, 6.5]
},
"imageblobslnk":NULL,"scoreslnk":2,"accesslnk":1,
"parnames":["theta interval for secondary particle"], "parvalues":["0.05-0.1"]
},
{
"trid":1,"testlnk":0,"referencelnk":44,"mcdetaillnk":1,
"beamlnk":48,"targetlnk":73,"observablelnk":8,"secondarylnk":211,"reactionlnk":1,
"datatable":{
"dtid":1,"datatypeslnk":2,
"title":"Production of pi+ in pi- on Ta interactions at 8GeV/c, 0.1<theta<0.15 [rad]",
"npoints":0,
"nbins":[9],
"axisTitle":["momentum of pi+ [GeV/c]","Cross section [mb/(GeV/c/rad)]"],
"val":
[1370, 920, 680, 580, 420, 220, 220, 80, 19],
"errStatPlus":
[70, 45, 35, 30, 25, 20, 15, 10, 3.5],
"errStatMinus":
[70, 45, 35, 30, 25, 20, 15, 10, 3.5],
"errSysPlus":
[0., 0., 0., 0., 0., 0., 0., 0., 0.],
"errSysMinus":
[0., 0., 0., 0., 0., 0., 0., 0., 0.],
"binMin":
[0.5, 1, 1.5, 2, 2.5, 3, 3.5, 4, 5],
"binMax":
[1, 1.5, 2, 2.5, 3, 3.5, 4, 5, 6.5]
},
"imageblobslnk":NULL,"scoreslnk":2,"accesslnk":1,
"parnames":["theta interval for secondary particle"], "parvalues":["0.1-0.15"]
},
{
"trid":1,"testlnk":0,"referencelnk":44,"mcdetaillnk":1,
"beamlnk":48,"targetlnk":73,"observablelnk":8,"secondarylnk":211,"reactionlnk":1,
"datatable":{
"dtid":1,"datatypeslnk":2,
"title":"Production of pi+ in pi- on Ta interactions at 8GeV/c, 0.15<theta<0.2 [rad]",
"npoints":0,
"nbins":[9],
"axisTitle":["momentum of pi+ [GeV/c]","Cross section [mb/(GeV/c/rad)]"],
"val":
[1220, 640, 510, 410, 270, 160, 100, 24, 4],
"errStatPlus":
[70, 35, 30, 25, 20, 15, 10, 3.5, 1],
"errStatMinus":
[70, 35, 30, 25, 20, 15, 10, 3.5, 1],
"errSysPlus":
[0., 0., 0., 0., 0., 0., 0., 0., 0.],
"errSysMinus":
[0., 0., 0., 0., 0., 0., 0., 0., 0.],
"binMin":
[0.5, 1, 1.5, 2, 2.5, 3, 3.5, 4, 5],
"binMax":
[1, 1.5, 2, 2.5, 3, 3.5, 4, 5, 6.5]
},
"imageblobslnk":NULL,"scoreslnk":2,"accesslnk":1,
"parnames":["theta interval for secondary particle"], "parvalues":["0.15-0.2"]
},
{
"trid":1,"testlnk":0,"referencelnk":44,"mcdetaillnk":1,
"beamlnk":48,"targetlnk":73,"observablelnk":8,"secondarylnk":211,"reactionlnk":1,
"datatable":{
"dtid":1,"datatypeslnk":2,
"title":"Production of pi+ in pi- on Ta interactions at 8GeV/c, 0.2<theta<0.25 [rad]",
"npoints":0,
"nbins":[9],
"axisTitle":["momentum of pi+ [GeV/c]","Cross section [mb/(GeV/c/rad)]"],
"val":
[1010, 900, 790, 420, 220, 50, 16, 7, 2],
"errStatPlus":
[70, 60, 60, 40, 25, 10, 6, 3.5, 1],
"errStatMinus":
[70, 60, 60, 40, 25, 10, 6, 3.5, 1],
"errSysPlus":
[0., 0., 0., 0., 0., 0., 0., 0., 0.],
"errSysMinus":
[0., 0., 0., 0., 0., 0., 0., 0., 0.],
"binMin":
[0.5, 1, 1.5, 2, 2.5, 3, 3.5, 4, 5],
"binMax":
[1, 1.5, 2, 2.5, 3, 3.5, 4, 5, 6.5]
},
"imageblobslnk":NULL,"scoreslnk":2,"accesslnk":1,
"parnames":["theta interval for secondary particle"], "parvalues":["0.2-0.25"]
},
{
"trid":1,"testlnk":0,"referencelnk":45,"mcdetaillnk":1,
"beamlnk":48,"targetlnk":73,"observablelnk":8,"secondarylnk":211,"reactionlnk":1,
"datatable":{
"dtid":1,"datatypeslnk":2,
"title":"Production of pi+ in pi- on Ta interactions at 8GeV/c, 0.35<theta<0.55 [rad]",
"npoints":0,
"nbins":[10],
"axisTitle":["momentum of pi+ [GeV/c]","Cross section [mb/(GeV/c/rad)]"],
"val":
[1230, 1280, 1910, 1940, 1930, 1770, 1880, 1780, 1590, 1240],
"errStatPlus":
[255, 180, 100, 60, 55, 40, 50, 45, 70, 95],
"errStatMinus":
[255, 180, 100, 60, 55, 40, 50, 45, 70, 95],
"errSysPlus":
[0., 0., 0., 0., 0., 0., 0., 0., 0., 0.],
"errSysMinus":
[0., 0., 0., 0., 0., 0., 0., 0., 0., 0.],
"binMin":
[0.15, 0.2, 0.25, 0.3, 0.35, 0.4, 0.45, 0.5, 0.6, 0.7],
"binMax":
[0.2, 0.25, 0.3, 0.35, 0.4, 0.45, 0.5, 0.6, 0.7, 0.8]
},
"imageblobslnk":NULL,"scoreslnk":2,"accesslnk":1,
"parnames":["theta interval for secondary particle"], "parvalues":["0.35-0.55"]
},
{
"trid":1,"testlnk":0,"referencelnk":45,"mcdetaillnk":1,
"beamlnk":48,"targetlnk":73,"observablelnk":8,"secondarylnk":211,"reactionlnk":1,
"datatable":{
"dtid":1,"datatypeslnk":2,
"title":"Production of pi+ in pi- on Ta interactions at 8GeV/c, 0.55<theta<0.75 [rad]",
"npoints":0,
"nbins":[11],
"axisTitle":["momentum of pi+ [GeV/c]","Cross section [mb/(GeV/c/rad)]"],
"val":
[830, 1330, 1940, 1950, 1950, 1790, 1580, 1550, 1330, 1000, 650],
"errStatPlus":
[245, 160, 100, 60, 65, 40, 35, 35, 45, 60, 60],
"errStatMinus":
[245, 160, 100, 60, 65, 40, 35, 35, 45, 60, 60],
"errSysPlus":
[0., 0., 0., 0., 0., 0., 0., 0., 0., 0., 0.],
"errSysMinus":
[0., 0., 0., 0., 0., 0., 0., 0., 0., 0., 0.],
"binMin":
[0.1, 0.15, 0.2, 0.25, 0.3, 0.35, 0.4, 0.45, 0.5, 0.6, 0.7],
"binMax":
[0.15, 0.2, 0.25, 0.3, 0.35, 0.4, 0.45, 0.5, 0.6, 0.7, 0.8]
},
"imageblobslnk":NULL,"scoreslnk":2,"accesslnk":1,
"parnames":["theta interval for secondary particle"], "parvalues":["0.55-0.75"]
},
{
"trid":1,"testlnk":0,"referencelnk":45,"mcdetaillnk":1,
"beamlnk":48,"targetlnk":73,"observablelnk":8,"secondarylnk":211,"reactionlnk":1,
"datatable":{
"dtid":1,"datatypeslnk":2,
"title":"Production of pi+ in pi- on Ta interactions at 8GeV/c, 0.75<theta<0.95 [rad]",
"npoints":0,
"nbins":[10],
"axisTitle":["momentum of pi+ [GeV/c]","Cross section [mb/(GeV/c/rad)]"],
"val":
[910, 1700, 2030, 1900, 1580, 1360, 1270, 1120, 860, 550],
"errStatPlus":
[175, 105, 60, 50, 35, 35, 30, 30, 30, 40],
"errStatMinus":
[175, 105, 60, 50, 35, 35, 30, 30, 30, 40],
"errSysPlus":
[0., 0., 0., 0., 0., 0., 0., 0., 0., 0.],
"errSysMinus":
[0., 0., 0., 0., 0., 0., 0., 0., 0., 0.],
"binMin":
[0.1, 0.15, 0.2, 0.25, 0.3, 0.35, 0.4, 0.45, 0.5, 0.6],
"binMax":
[0.15, 0.2, 0.25, 0.3, 0.35, 0.4, 0.45, 0.5, 0.6, 0.7]
},
"imageblobslnk":NULL,"scoreslnk":2,"accesslnk":1,
"parnames":["theta interval for secondary particle"], "parvalues":["0.75-0.95"]
},
{
"trid":1,"testlnk":0,"referencelnk":45,"mcdetaillnk":1,
"beamlnk":48,"targetlnk":73,"observablelnk":8,"secondarylnk":211,"reactionlnk":1,
"datatable":{
"dtid":1,"datatypeslnk":2,
"title":"Production of pi+ in pi- on Ta interactions at 8GeV/c, 0.95<theta<1.15 [rad]",
"npoints":0,
"nbins":[9],
"axisTitle":["momentum of pi+ [GeV/c]","Cross section [mb/(GeV/c/rad)]"],
"val":
[1190, 1810, 1820, 1580, 1330, 1070, 840, 640, 410],
"errStatPlus":
[125, 75, 50, 45, 35, 25, 25, 25, 20],
"errStatMinus":
[125, 75, 50, 45, 35, 25, 25, 25, 20],
"errSysPlus":
[0., 0., 0., 0., 0., 0., 0., 0., 0.],
"errSysMinus":
[0., 0., 0., 0., 0., 0., 0., 0., 0.],
"binMin":
[0.1, 0.15, 0.2, 0.25, 0.3, 0.35, 0.4, 0.45, 0.5],
"binMax":
[0.15, 0.2, 0.25, 0.3, 0.35, 0.4, 0.45, 0.5, 0.6]
},
"imageblobslnk":NULL,"scoreslnk":2,"accesslnk":1,
"parnames":["theta interval for secondary particle"], "parvalues":["0.95-1.15"]
},
{
"trid":1,"testlnk":0,"referencelnk":45,"mcdetaillnk":1,
"beamlnk":48,"targetlnk":73,"observablelnk":8,"secondarylnk":211,"reactionlnk":1,
"datatable":{
"dtid":1,"datatypeslnk":2,
"title":"Production of pi+ in pi- on Ta interactions at 8GeV/c, 1.15<theta<1.35 [rad]",
"npoints":0,
"nbins":[8],
"axisTitle":["momentum of pi+ [GeV/c]","Cross section [mb/(GeV/c/rad)]"],
"val":
[1310, 1720, 1550, 1280, 930, 710, 560, 420],
"errStatPlus":
[125, 65, 45, 35, 30, 20, 15, 20],
"errStatMinus":
[125, 65, 45, 35, 30, 20, 15, 20],
"errSysPlus":
[0., 0., 0., 0., 0., 0., 0., 0.],
"errSysMinus":
[0., 0., 0., 0., 0., 0., 0., 0.],
"binMin":
[0.1, 0.15, 0.2, 0.25, 0.3, 0.35, 0.4, 0.45],
"binMax":
[0.15, 0.2, 0.25, 0.3, 0.35, 0.4, 0.45, 0.5]
},
"imageblobslnk":NULL,"scoreslnk":2,"accesslnk":1,
"parnames":["theta interval for secondary particle"], "parvalues":["1.15-1.35"]
},
{
"trid":1,"testlnk":0,"referencelnk":45,"mcdetaillnk":1,
"beamlnk":48,"targetlnk":73,"observablelnk":8,"secondarylnk":211,"reactionlnk":1,
"datatable":{
"dtid":1,"datatypeslnk":2,
"title":"Production of pi+ in pi- on Ta interactions at 8GeV/c, 1.35<theta<1.55 [rad]",
"npoints":0,
"nbins":[8],
"axisTitle":["momentum of pi+ [GeV/c]","Cross section [mb/(GeV/c/rad)]"],
"val":
[1100, 1560, 1380, 940, 680, 490, 350, 230],
"errStatPlus":
[130, 90, 50, 35, 25, 15, 15, 10],
"errStatMinus":
[130, 90, 50, 35, 25, 15, 15, 10],
"errSysPlus":
[0., 0., 0., 0., 0., 0., 0., 0.],
"errSysMinus":
[0., 0., 0., 0., 0., 0., 0., 0.],
"binMin":
[0.1, 0.15, 0.2, 0.25, 0.3, 0.35, 0.4, 0.45],
"binMax":
[0.15, 0.2, 0.25, 0.3, 0.35, 0.4, 0.45, 0.5]
},
"imageblobslnk":NULL,"scoreslnk":2,"accesslnk":1,
"parnames":["theta interval for secondary particle"], "parvalues":["1.35-1.55"]
},
{
"trid":1,"testlnk":0,"referencelnk":45,"mcdetaillnk":1,
"beamlnk":48,"targetlnk":73,"observablelnk":8,"secondarylnk":211,"reactionlnk":1,
"datatable":{
"dtid":1,"datatypeslnk":2,
"title":"Production of pi+ in pi- on Ta interactions at 8GeV/c, 1.55<theta<1.75 [rad]",
"npoints":0,
"nbins":[8],
"axisTitle":["momentum of pi+ [GeV/c]","Cross section [mb/(GeV/c/rad)]"],
"val":
[1190, 1390, 1220, 730, 510, 350, 230, 140],
"errStatPlus":
[125, 65, 40, 25, 20, 15, 10, 10],
"errStatMinus":
[125, 65, 40, 25, 20, 15, 10, 10],
"errSysPlus":
[0., 0., 0., 0., 0., 0., 0., 0.],
"errSysMinus":
[0., 0., 0., 0., 0., 0., 0., 0.],
"binMin":
[0.1, 0.15, 0.2, 0.25, 0.3, 0.35, 0.4, 0.45],
"binMax":
[0.15, 0.2, 0.25, 0.3, 0.35, 0.4, 0.45, 0.5]
},
"imageblobslnk":NULL,"scoreslnk":2,"accesslnk":1,
"parnames":["theta interval for secondary particle"], "parvalues":["1.55-1.75"]
},
{
"trid":1,"testlnk":0,"referencelnk":45,"mcdetaillnk":1,
"beamlnk":48,"targetlnk":73,"observablelnk":8,"secondarylnk":211,"reactionlnk":1,
"datatable":{
"dtid":1,"datatypeslnk":2,
"title":"Production of pi+ in pi- on Ta interactions at 8GeV/c, 1.75<theta<1.95 [rad]",
"npoints":0,
"nbins":[8],
"axisTitle":["momentum of pi+ [GeV/c]","Cross section [mb/(GeV/c/rad)]"],
"val":
[1200, 1170, 830, 470, 320, 210, 140, 80],
"errStatPlus":
[95, 35, 25, 20, 10, 10, 10, 5],
"errStatMinus":
[95, 35, 25, 20, 10, 10, 10, 5],
"errSysPlus":
[0., 0., 0., 0., 0., 0., 0., 0.],
"errSysMinus":
[0., 0., 0., 0., 0., 0., 0., 0.],
"binMin":
[0.1, 0.15, 0.2, 0.25, 0.3, 0.35, 0.4, 0.45],
"binMax":
[0.15, 0.2, 0.25, 0.3, 0.35, 0.4, 0.45, 0.5]
},
"imageblobslnk":NULL,"scoreslnk":2,"accesslnk":1,
"parnames":["theta interval for secondary particle"], "parvalues":["1.75-1.95"]
},
{
"trid":1,"testlnk":0,"referencelnk":45,"mcdetaillnk":1,
"beamlnk":48,"targetlnk":73,"observablelnk":8,"secondarylnk":211,"reactionlnk":1,
"datatable":{
"dtid":1,"datatypeslnk":2,
"title":"Production of pi+ in pi- on Ta interactions at 8GeV/c, 1.95<theta<2.15 [rad]",
"npoints":0,
"nbins":[8],
"axisTitle":["momentum of pi+ [GeV/c]","Cross section [mb/(GeV/c/rad)]"],
"val":
[930, 860, 590, 310, 180, 120, 100, 50],
"errStatPlus":
[70, 20, 20, 15, 10, 5, 5, 5],
"errStatMinus":
[70, 20, 20, 15, 10, 5, 5, 5],
"errSysPlus":
[0., 0., 0., 0., 0., 0., 0., 0.],
"errSysMinus":
[0., 0., 0., 0., 0., 0., 0., 0.],
"binMin":
[0.1, 0.15, 0.2, 0.25, 0.3, 0.35, 0.4, 0.45],
"binMax":
[0.15, 0.2, 0.25, 0.3, 0.35, 0.4, 0.45, 0.5]
},
"imageblobslnk":NULL,"scoreslnk":2,"accesslnk":1,
"parnames":["theta interval for secondary particle"], "parvalues":["1.95-2.15"]
},
{
"trid":1,"testlnk":0,"referencelnk":44,"mcdetaillnk":1,
"beamlnk":49,"targetlnk":73,"observablelnk":8,"secondarylnk":211,"reactionlnk":1,
"datatable":{
"dtid":1,"datatypeslnk":2,
"title":"Production of pi+ in pi- on Ta interactions at 12GeV/c, 0.05<theta<0.1 [rad]",
"npoints":0,
"nbins":[10],
"axisTitle":["momentum of pi+ [GeV/c]","Cross section [mb/(GeV/c/rad)]"],
"val":
[1600, 1670, 1270, 1080, 890, 890, 690, 430, 220, 104],
"errStatPlus":
[85, 65, 45, 40, 35, 35, 35, 20, 15, 7],
"errStatMinus":
[85, 65, 45, 40, 35, 35, 35, 20, 15, 7],
"errSysPlus":
[0., 0., 0., 0., 0., 0., 0., 0., 0., 0.],
"errSysMinus":
[0., 0., 0., 0., 0., 0., 0., 0., 0., 0.],
"binMin":
[0.5, 1, 1.5, 2, 2.5, 3, 3.5, 4, 5, 6.5],
"binMax":
[1, 1.5, 2, 2.5, 3, 3.5, 4, 5, 6.5, 8]
},
"imageblobslnk":NULL,"scoreslnk":2,"accesslnk":1,
"parnames":["theta interval for secondary particle"], "parvalues":["0.05-0.1"]
},
{
"trid":1,"testlnk":0,"referencelnk":44,"mcdetaillnk":1,
"beamlnk":49,"targetlnk":73,"observablelnk":8,"secondarylnk":211,"reactionlnk":1,
"datatable":{
"dtid":1,"datatypeslnk":2,
"title":"Production of pi+ in pi- on Ta interactions at 12GeV/c, 0.1<theta<0.15 [rad]",
"npoints":0,
"nbins":[10],
"axisTitle":["momentum of pi+ [GeV/c]","Cross section [mb/(GeV/c/rad)]"],
"val":
[1720, 1480, 1190, 970, 780, 620, 480, 240, 74, 14],
"errStatPlus":
[85, 65, 50, 45, 35, 30, 25, 15, 6, 1.5],
"errStatMinus":
[85, 65, 50, 45, 35, 30, 25, 15, 6, 1.5],
"errSysPlus":
[0., 0., 0., 0., 0., 0., 0., 0., 0., 0.],
"errSysMinus":
[0., 0., 0., 0., 0., 0., 0., 0., 0., 0.],
"binMin":
[0.5, 1, 1.5, 2, 2.5, 3, 3.5, 4, 5, 6.5],
"binMax":
[1, 1.5, 2, 2.5, 3, 3.5, 4, 5, 6.5, 8]
},
"imageblobslnk":NULL,"scoreslnk":2,"accesslnk":1,
"parnames":["theta interval for secondary particle"], "parvalues":["0.1-0.15"]
},
{
"trid":1,"testlnk":0,"referencelnk":44,"mcdetaillnk":1,
"beamlnk":49,"targetlnk":73,"observablelnk":8,"secondarylnk":211,"reactionlnk":1,
"datatable":{
"dtid":1,"datatypeslnk":2,
"title":"Production of pi+ in pi- on Ta interactions at 12GeV/c, 0.15<theta<0.2 [rad]",
"npoints":0,
"nbins":[10],
"axisTitle":["momentum of pi+ [GeV/c]","Cross section [mb/(GeV/c/rad)]"],
"val":
[1780, 980, 900, 710, 450, 270, 140, 46, 11, 2],
"errStatPlus":
[95, 50, 45, 40, 30, 20, 15, 6, 2.5, 0.5],
"errStatMinus":
[95, 50, 45, 40, 30, 20, 15, 6, 2.5, 0.5],
"errSysPlus":
[0., 0., 0., 0., 0., 0., 0., 0., 0., 0.],
"errSysMinus":
[0., 0., 0., 0., 0., 0., 0., 0., 0., 0.],
"binMin":
[0.5, 1, 1.5, 2, 2.5, 3, 3.5, 4, 5, 6.5],
"binMax":
[1, 1.5, 2, 2.5, 3, 3.5, 4, 5, 6.5, 8]
},
"imageblobslnk":NULL,"scoreslnk":2,"accesslnk":1,
"parnames":["theta interval for secondary particle"], "parvalues":["0.15-0.2"]
},
{
"trid":1,"testlnk":0,"referencelnk":44,"mcdetaillnk":1,
"beamlnk":49,"targetlnk":73,"observablelnk":8,"secondarylnk":211,"reactionlnk":1,
"datatable":{
"dtid":1,"datatypeslnk":2,
"title":"Production of pi+ in pi- on Ta interactions at 12GeV/c, 0.2<theta<0.25 [rad]",
"npoints":0,
"nbins":[10],
"axisTitle":["momentum of pi+ [GeV/c]","Cross section [mb/(GeV/c/rad)]"],
"val":
[1240, 1320, 1110, 590, 320, 120, 50, 15, 1, 0],
"errStatPlus":
[85, 85, 80, 50, 30, 15, 10, 6.5, 0.5, 6.5],
"errStatMinus":
[85, 85, 80, 50, 30, 15, 10, 6.5, 0.5, 6.5],
"errSysPlus":
[0., 0., 0., 0., 0., 0., 0., 0., 0., 0.],
"errSysMinus":
[0., 0., 0., 0., 0., 0., 0., 0., 0., 0.],
"binMin":
[0.5, 1, 1.5, 2, 2.5, 3, 3.5, 4, 5, 6.5],
"binMax":
[1, 1.5, 2, 2.5, 3, 3.5, 4, 5, 6.5, 8]
},
"imageblobslnk":NULL,"scoreslnk":2,"accesslnk":1,
"parnames":["theta interval for secondary particle"], "parvalues":["0.2-0.25"]
},
{
"trid":1,"testlnk":0,"referencelnk":45,"mcdetaillnk":1,
"beamlnk":49,"targetlnk":73,"observablelnk":8,"secondarylnk":211,"reactionlnk":1,
"datatable":{
"dtid":1,"datatypeslnk":2,
"title":"Production of pi+ in pi- on Ta interactions at 12GeV/c, 0.35<theta<0.55 [rad]",
"npoints":0,
"nbins":[10],
"axisTitle":["momentum of pi+ [GeV/c]","Cross section [mb/(GeV/c/rad)]"],
"val":
[2140, 2480, 2780, 2780, 2600, 2590, 2580, 2640, 2530, 2140],
"errStatPlus":
[320, 195, 105, 85, 65, 55, 55, 65, 105, 145],
"errStatMinus":
[320, 195, 105, 85, 65, 55, 55, 65, 105, 145],
"errSysPlus":
[0., 0., 0., 0., 0., 0., 0., 0., 0., 0.],
"errSysMinus":
[0., 0., 0., 0., 0., 0., 0., 0., 0., 0.],
"binMin":
[0.15, 0.2, 0.25, 0.3, 0.35, 0.4, 0.45, 0.5, 0.6, 0.7],
"binMax":
[0.2, 0.25, 0.3, 0.35, 0.4, 0.45, 0.5, 0.6, 0.7, 0.8]
},
"imageblobslnk":NULL,"scoreslnk":2,"accesslnk":1,
"parnames":["theta interval for secondary particle"], "parvalues":["0.35-0.55"]
},
{
"trid":1,"testlnk":0,"referencelnk":45,"mcdetaillnk":1,
"beamlnk":49,"targetlnk":73,"observablelnk":8,"secondarylnk":211,"reactionlnk":1,
"datatable":{
"dtid":1,"datatypeslnk":2,
"title":"Production of pi+ in pi- on Ta interactions at 12GeV/c, 0.55<theta<0.75 [rad]",
"npoints":0,
"nbins":[11],
"axisTitle":["momentum of pi+ [GeV/c]","Cross section [mb/(GeV/c/rad)]"],
"val":
[1660, 2510, 2610, 2660, 2580, 2510, 2420, 2150, 1990, 1480, 960],
"errStatPlus":
[365, 185, 105, 85, 55, 70, 55, 50, 60, 95, 100],
"errStatMinus":
[365, 185, 105, 85, 55, 70, 55, 50, 60, 95, 100],
"errSysPlus":
[0., 0., 0., 0., 0., 0., 0., 0., 0., 0., 0.],
"errSysMinus":
[0., 0., 0., 0., 0., 0., 0., 0., 0., 0., 0.],
"binMin":
[0.1, 0.15, 0.2, 0.25, 0.3, 0.35, 0.4, 0.45, 0.5, 0.6, 0.7],
"binMax":
[0.15, 0.2, 0.25, 0.3, 0.35, 0.4, 0.45, 0.5, 0.6, 0.7, 0.8]
},
"imageblobslnk":NULL,"scoreslnk":2,"accesslnk":1,
"parnames":["theta interval for secondary particle"], "parvalues":["0.55-0.75"]
},
{
"trid":1,"testlnk":0,"referencelnk":45,"mcdetaillnk":1,
"beamlnk":49,"targetlnk":73,"observablelnk":8,"secondarylnk":211,"reactionlnk":1,
"datatable":{
"dtid":1,"datatypeslnk":2,
"title":"Production of pi+ in pi- on Ta interactions at 12GeV/c, 0.75<theta<0.95 [rad]",
"npoints":0,
"nbins":[10],
"axisTitle":["momentum of pi+ [GeV/c]","Cross section [mb/(GeV/c/rad)]"],
"val":
[1670, 2450, 2650, 2370, 2010, 1810, 1710, 1490, 1130, 720],
"errStatPlus":
[220, 90, 70, 60, 55, 50, 40, 40, 40, 55],
"errStatMinus":
[220, 90, 70, 60, 55, 50, 40, 40, 40, 55],
"errSysPlus":
[0., 0., 0., 0., 0., 0., 0., 0., 0., 0.],
"errSysMinus":
[0., 0., 0., 0., 0., 0., 0., 0., 0., 0.],
"binMin":
[0.1, 0.15, 0.2, 0.25, 0.3, 0.35, 0.4, 0.45, 0.5, 0.6],
"binMax":
[0.15, 0.2, 0.25, 0.3, 0.35, 0.4, 0.45, 0.5, 0.6, 0.7]
},
"imageblobslnk":NULL,"scoreslnk":2,"accesslnk":1,
"parnames":["theta interval for secondary particle"], "parvalues":["0.75-0.95"]
},
{
"trid":1,"testlnk":0,"referencelnk":45,"mcdetaillnk":1,
"beamlnk":49,"targetlnk":73,"observablelnk":8,"secondarylnk":211,"reactionlnk":1,
"datatable":{
"dtid":1,"datatypeslnk":2,
"title":"Production of pi+ in pi- on Ta interactions at 12GeV/c, 0.95<theta<1.15 [rad]",
"npoints":0,
"nbins":[9],
"axisTitle":["momentum of pi+ [GeV/c]","Cross section [mb/(GeV/c/rad)]"],
"val":
[1610, 2300, 2280, 1840, 1550, 1290, 1100, 880, 610],
"errStatPlus":
[145, 70, 55, 55, 50, 30, 30, 30, 30],
"errStatMinus":
[145, 70, 55, 55, 50, 30, 30, 30, 30],
"errSysPlus":
[0., 0., 0., 0., 0., 0., 0., 0., 0.],
"errSysMinus":
[0., 0., 0., 0., 0., 0., 0., 0., 0.],
"binMin":
[0.1, 0.15, 0.2, 0.25, 0.3, 0.35, 0.4, 0.45, 0.5],
"binMax":
[0.15, 0.2, 0.25, 0.3, 0.35, 0.4, 0.45, 0.5, 0.6]
},
"imageblobslnk":NULL,"scoreslnk":2,"accesslnk":1,
"parnames":["theta interval for secondary particle"], "parvalues":["0.95-1.15"]
},
{
"trid":1,"testlnk":0,"referencelnk":45,"mcdetaillnk":1,
"beamlnk":49,"targetlnk":73,"observablelnk":8,"secondarylnk":211,"reactionlnk":1,
"datatable":{
"dtid":1,"datatypeslnk":2,
"title":"Production of pi+ in pi- on Ta interactions at 12GeV/c, 1.15<theta<1.35 [rad]",
"npoints":0,
"nbins":[8],
"axisTitle":["momentum of pi+ [GeV/c]","Cross section [mb/(GeV/c/rad)]"],
"val":
[1710, 2190, 1880, 1370, 1110, 900, 660, 450],
"errStatPlus":
[155, 80, 50, 35, 35, 25, 20, 20],
"errStatMinus":
[155, 80, 50, 35, 35, 25, 20, 20],
"errSysPlus":
[0., 0., 0., 0., 0., 0., 0., 0.],
"errSysMinus":
[0., 0., 0., 0., 0., 0., 0., 0.],
"binMin":
[0.1, 0.15, 0.2, 0.25, 0.3, 0.35, 0.4, 0.45],
"binMax":
[0.15, 0.2, 0.25, 0.3, 0.35, 0.4, 0.45, 0.5]
},
"imageblobslnk":NULL,"scoreslnk":2,"accesslnk":1,
"parnames":["theta interval for secondary particle"], "parvalues":["1.15-1.35"]
},
{
"trid":1,"testlnk":0,"referencelnk":45,"mcdetaillnk":1,
"beamlnk":49,"targetlnk":73,"observablelnk":8,"secondarylnk":211,"reactionlnk":1,
"datatable":{
"dtid":1,"datatypeslnk":2,
"title":"Production of pi+ in pi- on Ta interactions at 12GeV/c, 1.35<theta<1.55 [rad]",
"npoints":0,
"nbins":[8],
"axisTitle":["momentum of pi+ [GeV/c]","Cross section [mb/(GeV/c/rad)]"],
"val":
[1630, 1960, 1600, 1060, 780, 580, 430, 280],
"errStatPlus":
[170, 95, 55, 35, 25, 20, 15, 15],
"errStatMinus":
[170, 95, 55, 35, 25, 20, 15, 15],
"errSysPlus":
[0., 0., 0., 0., 0., 0., 0., 0.],
"errSysMinus":
[0., 0., 0., 0., 0., 0., 0., 0.],
"binMin":
[0.1, 0.15, 0.2, 0.25, 0.3, 0.35, 0.4, 0.45],
"binMax":
[0.15, 0.2, 0.25, 0.3, 0.35, 0.4, 0.45, 0.5]
},
"imageblobslnk":NULL,"scoreslnk":2,"accesslnk":1,
"parnames":["theta interval for secondary particle"], "parvalues":["1.35-1.55"]
},
{
"trid":1,"testlnk":0,"referencelnk":45,"mcdetaillnk":1,
"beamlnk":49,"targetlnk":73,"observablelnk":8,"secondarylnk":211,"reactionlnk":1,
"datatable":{
"dtid":1,"datatypeslnk":2,
"title":"Production of pi+ in pi- on Ta interactions at 12GeV/c, 1.55<theta<1.75 [rad]",
"npoints":0,
"nbins":[8],
"axisTitle":["momentum of pi+ [GeV/c]","Cross section [mb/(GeV/c/rad)]"],
"val":
[1470, 1650, 1350, 850, 580, 400, 280, 180],
"errStatPlus":
[170, 80, 45, 30, 20, 15, 10, 10],
"errStatMinus":
[170, 80, 45, 30, 20, 15, 10, 10],
"errSysPlus":
[0., 0., 0., 0., 0., 0., 0., 0.],
"errSysMinus":
[0., 0., 0., 0., 0., 0., 0., 0.],
"binMin":
[0.1, 0.15, 0.2, 0.25, 0.3, 0.35, 0.4, 0.45],
"binMax":
[0.15, 0.2, 0.25, 0.3, 0.35, 0.4, 0.45, 0.5]
},
"imageblobslnk":NULL,"scoreslnk":2,"accesslnk":1,
"parnames":["theta interval for secondary particle"], "parvalues":["1.55-1.75"]
},
{
"trid":1,"testlnk":0,"referencelnk":45,"mcdetaillnk":1,
"beamlnk":49,"targetlnk":73,"observablelnk":8,"secondarylnk":211,"reactionlnk":1,
"datatable":{
"dtid":1,"datatypeslnk":2,
"title":"Production of pi+ in pi- on Ta interactions at 12GeV/c, 1.75<theta<1.95 [rad]",
"npoints":0,
"nbins":[8],
"axisTitle":["momentum of pi+ [GeV/c]","Cross section [mb/(GeV/c/rad)]"],
"val":
[1330, 1410, 970, 560, 340, 220, 130, 100],
"errStatPlus":
[110, 40, 30, 20, 15, 10, 5, 5],
"errStatMinus":
[110, 40, 30, 20, 15, 10, 5, 5],
"errSysPlus":
[0., 0., 0., 0., 0., 0., 0., 0.],
"errSysMinus":
[0., 0., 0., 0., 0., 0., 0., 0.],
"binMin":
[0.1, 0.15, 0.2, 0.25, 0.3, 0.35, 0.4, 0.45],
"binMax":
[0.15, 0.2, 0.25, 0.3, 0.35, 0.4, 0.45, 0.5]
},
"imageblobslnk":NULL,"scoreslnk":2,"accesslnk":1,
"parnames":["theta interval for secondary particle"], "parvalues":["1.75-1.95"]
},
{
"trid":1,"testlnk":0,"referencelnk":45,"mcdetaillnk":1,
"beamlnk":49,"targetlnk":73,"observablelnk":8,"secondarylnk":211,"reactionlnk":1,
"datatable":{
"dtid":1,"datatypeslnk":2,
"title":"Production of pi+ in pi- on Ta interactions at 12GeV/c, 1.95<theta<2.15 [rad]",
"npoints":0,
"nbins":[8],
"axisTitle":["momentum of pi+ [GeV/c]","Cross section [mb/(GeV/c/rad)]"],
"val":
[1090, 1100, 690, 400, 250, 160, 100, 60],
"errStatPlus":
[80, 25, 20, 15, 10, 10, 5, 5],
"errStatMinus":
[80, 25, 20, 15, 10, 10, 5, 5],
"errSysPlus":
[0., 0., 0., 0., 0., 0., 0., 0.],
"errSysMinus":
[0., 0., 0., 0., 0., 0., 0., 0.],
"binMin":
[0.1, 0.15, 0.2, 0.25, 0.3, 0.35, 0.4, 0.45],
"binMax":
[0.15, 0.2, 0.25, 0.3, 0.35, 0.4, 0.45, 0.5]
},
"imageblobslnk":NULL,"scoreslnk":2,"accesslnk":1,
"parnames":["theta interval for secondary particle"], "parvalues":["1.95-2.15"]
},
{
"trid":1,"testlnk":0,"referencelnk":44,"mcdetaillnk":1,
"beamlnk":46,"targetlnk":73,"observablelnk":8,"secondarylnk":-211,"reactionlnk":1,
"datatable":{
"dtid":1,"datatypeslnk":2,
"title":"Production of pi- in pi- on Ta interactions at 3GeV/c, 0.05<theta<0.1 [rad]",
"npoints":0,
"nbins":[4],
"axisTitle":["momentum of pi- [GeV/c]","Cross section [mb/(GeV/c/rad)]"],
"val":
[220, 110, 90, 70],
"errStatPlus":
[30, 15, 10, 10],
"errStatMinus":
[30, 15, 10, 10],
"errSysPlus":
[0., 0., 0., 0.],
"errSysMinus":
[0., 0., 0., 0.],
"binMin":
[0.5, 1, 1.5, 2],
"binMax":
[1, 1.5, 2, 2.5]
},
"imageblobslnk":NULL,"scoreslnk":2,"accesslnk":1,
"parnames":["theta interval for secondary particle"], "parvalues":["0.05-0.1"]
},
{
"trid":1,"testlnk":0,"referencelnk":44,"mcdetaillnk":1,
"beamlnk":46,"targetlnk":73,"observablelnk":8,"secondarylnk":-211,"reactionlnk":1,
"datatable":{
"dtid":1,"datatypeslnk":2,
"title":"Production of pi- in pi- on Ta interactions at 3GeV/c, 0.1<theta<0.15 [rad]",
"npoints":0,
"nbins":[4],
"axisTitle":["momentum of pi- [GeV/c]","Cross section [mb/(GeV/c/rad)]"],
"val":
[380, 220, 280, 450],
"errStatPlus":
[40, 25, 35, 45],
"errStatMinus":
[40, 25, 35, 45],
"errSysPlus":
[0., 0., 0., 0.],
"errSysMinus":
[0., 0., 0., 0.],
"binMin":
[0.5, 1, 1.5, 2],
"binMax":
[1, 1.5, 2, 2.5]
},
"imageblobslnk":NULL,"scoreslnk":2,"accesslnk":1,
"parnames":["theta interval for secondary particle"], "parvalues":["0.1-0.15"]
},
{
"trid":1,"testlnk":0,"referencelnk":44,"mcdetaillnk":1,
"beamlnk":46,"targetlnk":73,"observablelnk":8,"secondarylnk":-211,"reactionlnk":1,
"datatable":{
"dtid":1,"datatypeslnk":2,
"title":"Production of pi- in pi- on Ta interactions at 3GeV/c, 0.15<theta<0.2 [rad]",
"npoints":0,
"nbins":[4],
"axisTitle":["momentum of pi- [GeV/c]","Cross section [mb/(GeV/c/rad)]"],
"val":
[340, 270, 220, 160],
"errStatPlus":
[50, 35, 35, 20],
"errStatMinus":
[50, 35, 35, 20],
"errSysPlus":
[0., 0., 0., 0.],
"errSysMinus":
[0., 0., 0., 0.],
"binMin":
[0.5, 1, 1.5, 2],
"binMax":
[1, 1.5, 2, 2.5]
},
"imageblobslnk":NULL,"scoreslnk":2,"accesslnk":1,
"parnames":["theta interval for secondary particle"], "parvalues":["0.15-0.2"]
},
{
"trid":1,"testlnk":0,"referencelnk":44,"mcdetaillnk":1,
"beamlnk":46,"targetlnk":73,"observablelnk":8,"secondarylnk":-211,"reactionlnk":1,
"datatable":{
"dtid":1,"datatypeslnk":2,
"title":"Production of pi- in pi- on Ta interactions at 3GeV/c, 0.2<theta<0.25 [rad]",
"npoints":0,
"nbins":[4],
"axisTitle":["momentum of pi- [GeV/c]","Cross section [mb/(GeV/c/rad)]"],
"val":
[170, 110, 60, 30],
"errStatPlus":
[35, 25, 15, 10],
"errStatMinus":
[35, 25, 15, 10],
"errSysPlus":
[0., 0., 0., 0.],
"errSysMinus":
[0., 0., 0., 0.],
"binMin":
[0.5, 1, 1.5, 2],
"binMax":
[1, 1.5, 2, 2.5]
},
"imageblobslnk":NULL,"scoreslnk":2,"accesslnk":1,
"parnames":["theta interval for secondary particle"], "parvalues":["0.2-0.25"]
},
{
"trid":1,"testlnk":0,"referencelnk":45,"mcdetaillnk":1,
"beamlnk":46,"targetlnk":73,"observablelnk":8,"secondarylnk":-211,"reactionlnk":1,
"datatable":{
"dtid":1,"datatypeslnk":2,
"title":"Production of pi- in pi- on Ta interactions at 3GeV/c, 0.35<theta<0.55 [rad]",
"npoints":0,
"nbins":[10],
"axisTitle":["momentum of pi- [GeV/c]","Cross section [mb/(GeV/c/rad)]"],
"val":
[960, 940, 1110, 1250, 880, 1000, 1150, 990, 970, 910],
"errStatPlus":
[150, 85, 70, 50, 35, 60, 45, 35, 45, 55],
"errStatMinus":
[150, 85, 70, 50, 35, 60, 45, 35, 45, 55],
"errSysPlus":
[0., 0., 0., 0., 0., 0., 0., 0., 0., 0.],
"errSysMinus":
[0., 0., 0., 0., 0., 0., 0., 0., 0., 0.],
"binMin":
[0.15, 0.2, 0.25, 0.3, 0.35, 0.4, 0.45, 0.5, 0.6, 0.7],
"binMax":
[0.2, 0.25, 0.3, 0.35, 0.4, 0.45, 0.5, 0.6, 0.7, 0.8]
},
"imageblobslnk":NULL,"scoreslnk":2,"accesslnk":1,
"parnames":["theta interval for secondary particle"], "parvalues":["0.35-0.55"]
},
{
"trid":1,"testlnk":0,"referencelnk":45,"mcdetaillnk":1,
"beamlnk":46,"targetlnk":73,"observablelnk":8,"secondarylnk":-211,"reactionlnk":1,
"datatable":{
"dtid":1,"datatypeslnk":2,
"title":"Production of pi- in pi- on Ta interactions at 3GeV/c, 0.55<theta<0.75 [rad]",
"npoints":0,
"nbins":[11],
"axisTitle":["momentum of pi- [GeV/c]","Cross section [mb/(GeV/c/rad)]"],
"val":
[980, 1410, 1440, 1520, 1250, 1190, 1110, 1120, 1080, 870, 680],
"errStatPlus":
[200, 105, 70, 60, 45, 40, 40, 35, 35, 50, 50],
"errStatMinus":
[200, 105, 70, 60, 45, 40, 40, 35, 35, 50, 50],
"errSysPlus":
[0., 0., 0., 0., 0., 0., 0., 0., 0., 0., 0.],
"errSysMinus":
[0., 0., 0., 0., 0., 0., 0., 0., 0., 0., 0.],
"binMin":
[0.1, 0.15, 0.2, 0.25, 0.3, 0.35, 0.4, 0.45, 0.5, 0.6, 0.7],
"binMax":
[0.15, 0.2, 0.25, 0.3, 0.35, 0.4, 0.45, 0.5, 0.6, 0.7, 0.8]
},
"imageblobslnk":NULL,"scoreslnk":2,"accesslnk":1,
"parnames":["theta interval for secondary particle"], "parvalues":["0.55-0.75"]
},
{
"trid":1,"testlnk":0,"referencelnk":45,"mcdetaillnk":1,
"beamlnk":46,"targetlnk":73,"observablelnk":8,"secondarylnk":-211,"reactionlnk":1,
"datatable":{
"dtid":1,"datatypeslnk":2,
"title":"Production of pi- in pi- on Ta interactions at 3GeV/c, 0.75<theta<0.95 [rad]",
"npoints":0,
"nbins":[10],
"axisTitle":["momentum of pi- [GeV/c]","Cross section [mb/(GeV/c/rad)]"],
"val":
[1420, 1770, 1540, 1320, 1120, 1000, 940, 850, 690, 560],
"errStatPlus":
[175, 80, 60, 50, 35, 35, 30, 25, 25, 30],
"errStatMinus":
[175, 80, 60, 50, 35, 35, 30, 25, 25, 30],
"errSysPlus":
[0., 0., 0., 0., 0., 0., 0., 0., 0., 0.],
"errSysMinus":
[0., 0., 0., 0., 0., 0., 0., 0., 0., 0.],
"binMin":
[0.1, 0.15, 0.2, 0.25, 0.3, 0.35, 0.4, 0.45, 0.5, 0.6],
"binMax":
[0.15, 0.2, 0.25, 0.3, 0.35, 0.4, 0.45, 0.5, 0.6, 0.7]
},
"imageblobslnk":NULL,"scoreslnk":2,"accesslnk":1,
"parnames":["theta interval for secondary particle"], "parvalues":["0.75-0.95"]
},
{
"trid":1,"testlnk":0,"referencelnk":45,"mcdetaillnk":1,
"beamlnk":46,"targetlnk":73,"observablelnk":8,"secondarylnk":-211,"reactionlnk":1,
"datatable":{
"dtid":1,"datatypeslnk":2,
"title":"Production of pi- in pi- on Ta interactions at 3GeV/c, 0.95<theta<1.15 [rad]",
"npoints":0,
"nbins":[9],
"axisTitle":["momentum of pi- [GeV/c]","Cross section [mb/(GeV/c/rad)]"],
"val":
[1760, 1980, 1670, 1270, 1000, 770, 730, 650, 510],
"errStatPlus":
[160, 75, 55, 45, 40, 25, 25, 20, 20],
"errStatMinus":
[160, 75, 55, 45, 40, 25, 25, 20, 20],
"errSysPlus":
[0., 0., 0., 0., 0., 0., 0., 0., 0.],
"errSysMinus":
[0., 0., 0., 0., 0., 0., 0., 0., 0.],
"binMin":
[0.1, 0.15, 0.2, 0.25, 0.3, 0.35, 0.4, 0.45, 0.5],
"binMax":
[0.15, 0.2, 0.25, 0.3, 0.35, 0.4, 0.45, 0.5, 0.6]
},
"imageblobslnk":NULL,"scoreslnk":2,"accesslnk":1,
"parnames":["theta interval for secondary particle"], "parvalues":["0.95-1.15"]
},
{
"trid":1,"testlnk":0,"referencelnk":45,"mcdetaillnk":1,
"beamlnk":46,"targetlnk":73,"observablelnk":8,"secondarylnk":-211,"reactionlnk":1,
"datatable":{
"dtid":1,"datatypeslnk":2,
"title":"Production of pi- in pi- on Ta interactions at 3GeV/c, 1.15<theta<1.35 [rad]",
"npoints":0,
"nbins":[8],
"axisTitle":["momentum of pi- [GeV/c]","Cross section [mb/(GeV/c/rad)]"],
"val":
[2070, 1740, 1180, 990, 860, 650, 510, 410],
"errStatPlus":
[175, 80, 50, 40, 35, 25, 20, 15],
"errStatMinus":
[175, 80, 50, 40, 35, 25, 20, 15],
"errSysPlus":
[0., 0., 0., 0., 0., 0., 0., 0.],
"errSysMinus":
[0., 0., 0., 0., 0., 0., 0., 0.],
"binMin":
[0.1, 0.15, 0.2, 0.25, 0.3, 0.35, 0.4, 0.45],
"binMax":
[0.15, 0.2, 0.25, 0.3, 0.35, 0.4, 0.45, 0.5]
},
"imageblobslnk":NULL,"scoreslnk":2,"accesslnk":1,
"parnames":["theta interval for secondary particle"], "parvalues":["1.15-1.35"]
},
{
"trid":1,"testlnk":0,"referencelnk":45,"mcdetaillnk":1,
"beamlnk":46,"targetlnk":73,"observablelnk":8,"secondarylnk":-211,"reactionlnk":1,
"datatable":{
"dtid":1,"datatypeslnk":2,
"title":"Production of pi- in pi- on Ta interactions at 3GeV/c, 1.35<theta<1.55 [rad]",
"npoints":0,
"nbins":[8],
"axisTitle":["momentum of pi- [GeV/c]","Cross section [mb/(GeV/c/rad)]"],
"val":
[2350, 1590, 990, 650, 640, 550, 430, 320],
"errStatPlus":
[250, 80, 45, 30, 30, 25, 20, 15],
"errStatMinus":
[250, 80, 45, 30, 30, 25, 20, 15],
"errSysPlus":
[0., 0., 0., 0., 0., 0., 0., 0.],
"errSysMinus":
[0., 0., 0., 0., 0., 0., 0., 0.],
"binMin":
[0.1, 0.15, 0.2, 0.25, 0.3, 0.35, 0.4, 0.45],
"binMax":
[0.15, 0.2, 0.25, 0.3, 0.35, 0.4, 0.45, 0.5]
},
"imageblobslnk":NULL,"scoreslnk":2,"accesslnk":1,
"parnames":["theta interval for secondary particle"], "parvalues":["1.35-1.55"]
},
{
"trid":1,"testlnk":0,"referencelnk":45,"mcdetaillnk":1,
"beamlnk":46,"targetlnk":73,"observablelnk":8,"secondarylnk":-211,"reactionlnk":1,
"datatable":{
"dtid":1,"datatypeslnk":2,
"title":"Production of pi- in pi- on Ta interactions at 3GeV/c, 1.55<theta<1.75 [rad]",
"npoints":0,
"nbins":[8],
"axisTitle":["momentum of pi- [GeV/c]","Cross section [mb/(GeV/c/rad)]"],
"val":
[1940, 1360, 880, 530, 440, 390, 280, 200],
"errStatPlus":
[180, 80, 45, 25, 20, 20, 15, 10],
"errStatMinus":
[180, 80, 45, 25, 20, 20, 15, 10],
"errSysPlus":
[0., 0., 0., 0., 0., 0., 0., 0.],
"errSysMinus":
[0., 0., 0., 0., 0., 0., 0., 0.],
"binMin":
[0.1, 0.15, 0.2, 0.25, 0.3, 0.35, 0.4, 0.45],
"binMax":
[0.15, 0.2, 0.25, 0.3, 0.35, 0.4, 0.45, 0.5]
},
"imageblobslnk":NULL,"scoreslnk":2,"accesslnk":1,
"parnames":["theta interval for secondary particle"], "parvalues":["1.55-1.75"]
},
{
"trid":1,"testlnk":0,"referencelnk":45,"mcdetaillnk":1,
"beamlnk":46,"targetlnk":73,"observablelnk":8,"secondarylnk":-211,"reactionlnk":1,
"datatable":{
"dtid":1,"datatypeslnk":2,
"title":"Production of pi- in pi- on Ta interactions at 3GeV/c, 1.75<theta<1.95 [rad]",
"npoints":0,
"nbins":[8],
"axisTitle":["momentum of pi- [GeV/c]","Cross section [mb/(GeV/c/rad)]"],
"val":
[1650, 1360, 840, 470, 360, 240, 150, 110],
"errStatPlus":
[130, 50, 35, 25, 20, 15, 10, 5],
"errStatMinus":
[130, 50, 35, 25, 20, 15, 10, 5],
"errSysPlus":
[0., 0., 0., 0., 0., 0., 0., 0.],
"errSysMinus":
[0., 0., 0., 0., 0., 0., 0., 0.],
"binMin":
[0.1, 0.15, 0.2, 0.25, 0.3, 0.35, 0.4, 0.45],
"binMax":
[0.15, 0.2, 0.25, 0.3, 0.35, 0.4, 0.45, 0.5]
},
"imageblobslnk":NULL,"scoreslnk":2,"accesslnk":1,
"parnames":["theta interval for secondary particle"], "parvalues":["1.75-1.95"]
},
{
"trid":1,"testlnk":0,"referencelnk":45,"mcdetaillnk":1,
"beamlnk":46,"targetlnk":73,"observablelnk":8,"secondarylnk":-211,"reactionlnk":1,
"datatable":{
"dtid":1,"datatypeslnk":2,
"title":"Production of pi- in pi- on Ta interactions at 3GeV/c, 1.95<theta<2.15 [rad]",
"npoints":0,
"nbins":[8],
"axisTitle":["momentum of pi- [GeV/c]","Cross section [mb/(GeV/c/rad)]"],
"val":
[1640, 1060, 500, 330, 330, 210, 140, 100],
"errStatPlus":
[115, 40, 30, 15, 20, 15, 10, 10],
"errStatMinus":
[115, 40, 30, 15, 20, 15, 10, 10],
"errSysPlus":
[0., 0., 0., 0., 0., 0., 0., 0.],
"errSysMinus":
[0., 0., 0., 0., 0., 0., 0., 0.],
"binMin":
[0.1, 0.15, 0.2, 0.25, 0.3, 0.35, 0.4, 0.45],
"binMax":
[0.15, 0.2, 0.25, 0.3, 0.35, 0.4, 0.45, 0.5]
},
"imageblobslnk":NULL,"scoreslnk":2,"accesslnk":1,
"parnames":["theta interval for secondary particle"], "parvalues":["1.95-2.15"]
},
{
"trid":1,"testlnk":0,"referencelnk":44,"mcdetaillnk":1,
"beamlnk":47,"targetlnk":73,"observablelnk":8,"secondarylnk":-211,"reactionlnk":1,
"datatable":{
"dtid":1,"datatypeslnk":2,
"title":"Production of pi- in pi- on Ta interactions at 5GeV/c, 0.05<theta<0.1 [rad]",
"npoints":0,
"nbins":[8],
"axisTitle":["momentum of pi- [GeV/c]","Cross section [mb/(GeV/c/rad)]"],
"val":
[790, 500, 580, 480, 610, 630, 550, 570],
"errStatPlus":
[45, 30, 30, 30, 35, 35, 35, 50],
"errStatMinus":
[45, 30, 30, 30, 35, 35, 35, 50],
"errSysPlus":
[0., 0., 0., 0., 0., 0., 0., 0.],
"errSysMinus":
[0., 0., 0., 0., 0., 0., 0., 0.],
"binMin":
[0.5, 1, 1.5, 2, 2.5, 3, 3.5, 4],
"binMax":
[1, 1.5, 2, 2.5, 3, 3.5, 4, 5]
},
"imageblobslnk":NULL,"scoreslnk":2,"accesslnk":1,
"parnames":["theta interval for secondary particle"], "parvalues":["0.05-0.1"]
},
{
"trid":1,"testlnk":0,"referencelnk":44,"mcdetaillnk":1,
"beamlnk":47,"targetlnk":73,"observablelnk":8,"secondarylnk":-211,"reactionlnk":1,
"datatable":{
"dtid":1,"datatypeslnk":2,
"title":"Production of pi- in pi- on Ta interactions at 5GeV/c, 0.1<theta<0.15 [rad]",
"npoints":0,
"nbins":[8],
"axisTitle":["momentum of pi- [GeV/c]","Cross section [mb/(GeV/c/rad)]"],
"val":
[770, 590, 450, 500, 440, 390, 330, 310],
"errStatPlus":
[50, 35, 30, 30, 25, 25, 20, 25],
"errStatMinus":
[50, 35, 30, 30, 25, 25, 20, 25],
"errSysPlus":
[0., 0., 0., 0., 0., 0., 0., 0.],
"errSysMinus":
[0., 0., 0., 0., 0., 0., 0., 0.],
"binMin":
[0.5, 1, 1.5, 2, 2.5, 3, 3.5, 4],
"binMax":
[1, 1.5, 2, 2.5, 3, 3.5, 4, 5]
},
"imageblobslnk":NULL,"scoreslnk":2,"accesslnk":1,
"parnames":["theta interval for secondary particle"], "parvalues":["0.1-0.15"]
},
{
"trid":1,"testlnk":0,"referencelnk":44,"mcdetaillnk":1,
"beamlnk":47,"targetlnk":73,"observablelnk":8,"secondarylnk":-211,"reactionlnk":1,
"datatable":{
"dtid":1,"datatypeslnk":2,
"title":"Production of pi- in pi- on Ta interactions at 5GeV/c, 0.15<theta<0.2 [rad]",
"npoints":0,
"nbins":[8],
"axisTitle":["momentum of pi- [GeV/c]","Cross section [mb/(GeV/c/rad)]"],
"val":
[950, 450, 390, 260, 120, 110, 70, 60],
"errStatPlus":
[65, 30, 30, 25, 10, 10, 10, 10],
"errStatMinus":
[65, 30, 30, 25, 10, 10, 10, 10],
"errSysPlus":
[0., 0., 0., 0., 0., 0., 0., 0.],
"errSysMinus":
[0., 0., 0., 0., 0., 0., 0., 0.],
"binMin":
[0.5, 1, 1.5, 2, 2.5, 3, 3.5, 4],
"binMax":
[1, 1.5, 2, 2.5, 3, 3.5, 4, 5]
},
"imageblobslnk":NULL,"scoreslnk":2,"accesslnk":1,
"parnames":["theta interval for secondary particle"], "parvalues":["0.15-0.2"]
},
{
"trid":1,"testlnk":0,"referencelnk":44,"mcdetaillnk":1,
"beamlnk":47,"targetlnk":73,"observablelnk":8,"secondarylnk":-211,"reactionlnk":1,
"datatable":{
"dtid":1,"datatypeslnk":2,
"title":"Production of pi- in pi- on Ta interactions at 5GeV/c, 0.2<theta<0.25 [rad]",
"npoints":0,
"nbins":[8],
"axisTitle":["momentum of pi- [GeV/c]","Cross section [mb/(GeV/c/rad)]"],
"val":
[500, 300, 230, 150, 80, 100, 50, 26],
"errStatPlus":
[45, 25, 25, 20, 10, 15, 7, 4.5],
"errStatMinus":
[45, 25, 25, 20, 10, 15, 7, 4.5],
"errSysPlus":
[0., 0., 0., 0., 0., 0., 0., 0.],
"errSysMinus":
[0., 0., 0., 0., 0., 0., 0., 0.],
"binMin":
[0.5, 1, 1.5, 2, 2.5, 3, 3.5, 4],
"binMax":
[1, 1.5, 2, 2.5, 3, 3.5, 4, 5]
},
"imageblobslnk":NULL,"scoreslnk":2,"accesslnk":1,
"parnames":["theta interval for secondary particle"], "parvalues":["0.2-0.25"]
},
{
"trid":1,"testlnk":0,"referencelnk":45,"mcdetaillnk":1,
"beamlnk":47,"targetlnk":73,"observablelnk":8,"secondarylnk":-211,"reactionlnk":1,
"datatable":{
"dtid":1,"datatypeslnk":2,
"title":"Production of pi- in pi- on Ta interactions at 5GeV/c, 0.35<theta<0.55 [rad]",
"npoints":0,
"nbins":[10],
"axisTitle":["momentum of pi- [GeV/c]","Cross section [mb/(GeV/c/rad)]"],
"val":
[1680, 1930, 2000, 2010, 1760, 1570, 1610, 1640, 1580, 1410],
"errStatPlus":
[230, 135, 75, 60, 45, 45, 45, 45, 65, 75],
"errStatMinus":
[230, 135, 75, 60, 45, 45, 45, 45, 65, 75],
"errSysPlus":
[0., 0., 0., 0., 0., 0., 0., 0., 0., 0.],
"errSysMinus":
[0., 0., 0., 0., 0., 0., 0., 0., 0., 0.],
"binMin":
[0.15, 0.2, 0.25, 0.3, 0.35, 0.4, 0.45, 0.5, 0.6, 0.7],
"binMax":
[0.2, 0.25, 0.3, 0.35, 0.4, 0.45, 0.5, 0.6, 0.7, 0.8]
},
"imageblobslnk":NULL,"scoreslnk":2,"accesslnk":1,
"parnames":["theta interval for secondary particle"], "parvalues":["0.35-0.55"]
},
{
"trid":1,"testlnk":0,"referencelnk":45,"mcdetaillnk":1,
"beamlnk":47,"targetlnk":73,"observablelnk":8,"secondarylnk":-211,"reactionlnk":1,
"datatable":{
"dtid":1,"datatypeslnk":2,
"title":"Production of pi- in pi- on Ta interactions at 5GeV/c, 0.55<theta<0.75 [rad]",
"npoints":0,
"nbins":[11],
"axisTitle":["momentum of pi- [GeV/c]","Cross section [mb/(GeV/c/rad)]"],
"val":
[1690, 2300, 2120, 1960, 1930, 1640, 1580, 1520, 1430, 1210, 950],
"errStatPlus":
[285, 145, 75, 60, 50, 40, 40, 35, 35, 60, 70],
"errStatMinus":
[285, 145, 75, 60, 50, 40, 40, 35, 35, 60, 70],
"errSysPlus":
[0., 0., 0., 0., 0., 0., 0., 0., 0., 0., 0.],
"errSysMinus":
[0., 0., 0., 0., 0., 0., 0., 0., 0., 0., 0.],
"binMin":
[0.1, 0.15, 0.2, 0.25, 0.3, 0.35, 0.4, 0.45, 0.5, 0.6, 0.7],
"binMax":
[0.15, 0.2, 0.25, 0.3, 0.35, 0.4, 0.45, 0.5, 0.6, 0.7, 0.8]
},
"imageblobslnk":NULL,"scoreslnk":2,"accesslnk":1,
"parnames":["theta interval for secondary particle"], "parvalues":["0.55-0.75"]
},
{
"trid":1,"testlnk":0,"referencelnk":45,"mcdetaillnk":1,
"beamlnk":47,"targetlnk":73,"observablelnk":8,"secondarylnk":-211,"reactionlnk":1,
"datatable":{
"dtid":1,"datatypeslnk":2,
"title":"Production of pi- in pi- on Ta interactions at 5GeV/c, 0.75<theta<0.95 [rad]",
"npoints":0,
"nbins":[10],
"axisTitle":["momentum of pi- [GeV/c]","Cross section [mb/(GeV/c/rad)]"],
"val":
[1990, 2390, 2120, 1950, 1650, 1390, 1240, 1120, 1000, 830],
"errStatPlus":
[210, 90, 65, 50, 40, 35, 30, 25, 25, 40],
"errStatMinus":
[210, 90, 65, 50, 40, 35, 30, 25, 25, 40],
"errSysPlus":
[0., 0., 0., 0., 0., 0., 0., 0., 0., 0.],
"errSysMinus":
[0., 0., 0., 0., 0., 0., 0., 0., 0., 0.],
"binMin":
[0.1, 0.15, 0.2, 0.25, 0.3, 0.35, 0.4, 0.45, 0.5, 0.6],
"binMax":
[0.15, 0.2, 0.25, 0.3, 0.35, 0.4, 0.45, 0.5, 0.6, 0.7]
},
"imageblobslnk":NULL,"scoreslnk":2,"accesslnk":1,
"parnames":["theta interval for secondary particle"], "parvalues":["0.75-0.95"]
},
{
"trid":1,"testlnk":0,"referencelnk":45,"mcdetaillnk":1,
"beamlnk":47,"targetlnk":73,"observablelnk":8,"secondarylnk":-211,"reactionlnk":1,
"datatable":{
"dtid":1,"datatypeslnk":2,
"title":"Production of pi- in pi- on Ta interactions at 5GeV/c, 0.95<theta<1.15 [rad]",
"npoints":0,
"nbins":[9],
"axisTitle":["momentum of pi- [GeV/c]","Cross section [mb/(GeV/c/rad)]"],
"val":
[2460, 2380, 2090, 1660, 1280, 1050, 910, 810, 630],
"errStatPlus":
[195, 75, 60, 50, 35, 25, 20, 20, 20],
"errStatMinus":
[195, 75, 60, 50, 35, 25, 20, 20, 20],
"errSysPlus":
[0., 0., 0., 0., 0., 0., 0., 0., 0.],
"errSysMinus":
[0., 0., 0., 0., 0., 0., 0., 0., 0.],
"binMin":
[0.1, 0.15, 0.2, 0.25, 0.3, 0.35, 0.4, 0.45, 0.5],
"binMax":
[0.15, 0.2, 0.25, 0.3, 0.35, 0.4, 0.45, 0.5, 0.6]
},
"imageblobslnk":NULL,"scoreslnk":2,"accesslnk":1,
"parnames":["theta interval for secondary particle"], "parvalues":["0.95-1.15"]
},
{
"trid":1,"testlnk":0,"referencelnk":45,"mcdetaillnk":1,
"beamlnk":47,"targetlnk":73,"observablelnk":8,"secondarylnk":-211,"reactionlnk":1,
"datatable":{
"dtid":1,"datatypeslnk":2,
"title":"Production of pi- in pi- on Ta interactions at 5GeV/c, 1.15<theta<1.35 [rad]",
"npoints":0,
"nbins":[8],
"axisTitle":["momentum of pi- [GeV/c]","Cross section [mb/(GeV/c/rad)]"],
"val":
[2730, 2420, 1750, 1350, 1020, 770, 600, 510],
"errStatPlus":
[215, 80, 55, 40, 35, 20, 15, 15],
"errStatMinus":
[215, 80, 55, 40, 35, 20, 15, 15],
"errSysPlus":
[0., 0., 0., 0., 0., 0., 0., 0.],
"errSysMinus":
[0., 0., 0., 0., 0., 0., 0., 0.],
"binMin":
[0.1, 0.15, 0.2, 0.25, 0.3, 0.35, 0.4, 0.45],
"binMax":
[0.15, 0.2, 0.25, 0.3, 0.35, 0.4, 0.45, 0.5]
},
"imageblobslnk":NULL,"scoreslnk":2,"accesslnk":1,
"parnames":["theta interval for secondary particle"], "parvalues":["1.15-1.35"]
},
{
"trid":1,"testlnk":0,"referencelnk":45,"mcdetaillnk":1,
"beamlnk":47,"targetlnk":73,"observablelnk":8,"secondarylnk":-211,"reactionlnk":1,
"datatable":{
"dtid":1,"datatypeslnk":2,
"title":"Production of pi- in pi- on Ta interactions at 5GeV/c, 1.35<theta<1.55 [rad]",
"npoints":0,
"nbins":[8],
"axisTitle":["momentum of pi- [GeV/c]","Cross section [mb/(GeV/c/rad)]"],
"val":
[2290, 2110, 1360, 940, 730, 520, 420, 360],
"errStatPlus":
[240, 100, 55, 40, 25, 20, 15, 10],
"errStatMinus":
[240, 100, 55, 40, 25, 20, 15, 10],
"errSysPlus":
[0., 0., 0., 0., 0., 0., 0., 0.],
"errSysMinus":
[0., 0., 0., 0., 0., 0., 0., 0.],
"binMin":
[0.1, 0.15, 0.2, 0.25, 0.3, 0.35, 0.4, 0.45],
"binMax":
[0.15, 0.2, 0.25, 0.3, 0.35, 0.4, 0.45, 0.5]
},
"imageblobslnk":NULL,"scoreslnk":2,"accesslnk":1,
"parnames":["theta interval for secondary particle"], "parvalues":["1.35-1.55"]
},
{
"trid":1,"testlnk":0,"referencelnk":45,"mcdetaillnk":1,
"beamlnk":47,"targetlnk":73,"observablelnk":8,"secondarylnk":-211,"reactionlnk":1,
"datatable":{
"dtid":1,"datatypeslnk":2,
"title":"Production of pi- in pi- on Ta interactions at 5GeV/c, 1.55<theta<1.75 [rad]",
"npoints":0,
"nbins":[8],
"axisTitle":["momentum of pi- [GeV/c]","Cross section [mb/(GeV/c/rad)]"],
"val":
[2060, 1840, 1140, 740, 510, 380, 300, 230],
"errStatPlus":
[210, 85, 45, 30, 20, 15, 10, 10],
"errStatMinus":
[210, 85, 45, 30, 20, 15, 10, 10],
"errSysPlus":
[0., 0., 0., 0., 0., 0., 0., 0.],
"errSysMinus":
[0., 0., 0., 0., 0., 0., 0., 0.],
"binMin":
[0.1, 0.15, 0.2, 0.25, 0.3, 0.35, 0.4, 0.45],
"binMax":
[0.15, 0.2, 0.25, 0.3, 0.35, 0.4, 0.45, 0.5]
},
"imageblobslnk":NULL,"scoreslnk":2,"accesslnk":1,
"parnames":["theta interval for secondary particle"], "parvalues":["1.55-1.75"]
},
{
"trid":1,"testlnk":0,"referencelnk":45,"mcdetaillnk":1,
"beamlnk":47,"targetlnk":73,"observablelnk":8,"secondarylnk":-211,"reactionlnk":1,
"datatable":{
"dtid":1,"datatypeslnk":2,
"title":"Production of pi- in pi- on Ta interactions at 5GeV/c, 1.75<theta<1.95 [rad]",
"npoints":0,
"nbins":[8],
"axisTitle":["momentum of pi- [GeV/c]","Cross section [mb/(GeV/c/rad)]"],
"val":
[1910, 1540, 930, 610, 400, 280, 220, 170],
"errStatPlus":
[140, 50, 30, 25, 15, 10, 10, 10],
"errStatMinus":
[140, 50, 30, 25, 15, 10, 10, 10],
"errSysPlus":
[0., 0., 0., 0., 0., 0., 0., 0.],
"errSysMinus":
[0., 0., 0., 0., 0., 0., 0., 0.],
"binMin":
[0.1, 0.15, 0.2, 0.25, 0.3, 0.35, 0.4, 0.45],
"binMax":
[0.15, 0.2, 0.25, 0.3, 0.35, 0.4, 0.45, 0.5]
},
"imageblobslnk":NULL,"scoreslnk":2,"accesslnk":1,
"parnames":["theta interval for secondary particle"], "parvalues":["1.75-1.95"]
},
{
"trid":1,"testlnk":0,"referencelnk":45,"mcdetaillnk":1,
"beamlnk":47,"targetlnk":73,"observablelnk":8,"secondarylnk":-211,"reactionlnk":1,
"datatable":{
"dtid":1,"datatypeslnk":2,
"title":"Production of pi- in pi- on Ta interactions at 5GeV/c, 1.95<theta<2.15 [rad]",
"npoints":0,
"nbins":[8],
"axisTitle":["momentum of pi- [GeV/c]","Cross section [mb/(GeV/c/rad)]"],
"val":
[1850, 1200, 740, 360, 260, 220, 150, 110],
"errStatPlus":
[120, 40, 25, 20, 10, 10, 10, 5],
"errStatMinus":
[120, 40, 25, 20, 10, 10, 10, 5],
"errSysPlus":
[0., 0., 0., 0., 0., 0., 0., 0.],
"errSysMinus":
[0., 0., 0., 0., 0., 0., 0., 0.],
"binMin":
[0.1, 0.15, 0.2, 0.25, 0.3, 0.35, 0.4, 0.45],
"binMax":
[0.15, 0.2, 0.25, 0.3, 0.35, 0.4, 0.45, 0.5]
},
"imageblobslnk":NULL,"scoreslnk":2,"accesslnk":1,
"parnames":["theta interval for secondary particle"], "parvalues":["1.95-2.15"]
},
{
"trid":1,"testlnk":0,"referencelnk":44,"mcdetaillnk":1,
"beamlnk":48,"targetlnk":73,"observablelnk":8,"secondarylnk":-211,"reactionlnk":1,
"datatable":{
"dtid":1,"datatypeslnk":2,
"title":"Production of pi- in pi- on Ta interactions at 8GeV/c, 0.05<theta<0.1 [rad]",
"npoints":0,
"nbins":[9],
"axisTitle":["momentum of pi- [GeV/c]","Cross section [mb/(GeV/c/rad)]"],
"val":
[1480, 1100, 1220, 1230, 1000, 810, 690, 670, 490],
"errStatPlus":
[65, 45, 40, 50, 35, 40, 35, 30, 25],
"errStatMinus":
[65, 45, 40, 50, 35, 40, 35, 30, 25],
"errSysPlus":
[0., 0., 0., 0., 0., 0., 0., 0., 0.],
"errSysMinus":
[0., 0., 0., 0., 0., 0., 0., 0., 0.],
"binMin":
[0.5, 1, 1.5, 2, 2.5, 3, 3.5, 4, 5],
"binMax":
[1, 1.5, 2, 2.5, 3, 3.5, 4, 5, 6.5]
},
"imageblobslnk":NULL,"scoreslnk":2,"accesslnk":1,
"parnames":["theta interval for secondary particle"], "parvalues":["0.05-0.1"]
},
{
"trid":1,"testlnk":0,"referencelnk":44,"mcdetaillnk":1,
"beamlnk":48,"targetlnk":73,"observablelnk":8,"secondarylnk":-211,"reactionlnk":1,
"datatable":{
"dtid":1,"datatypeslnk":2,
"title":"Production of pi- in pi- on Ta interactions at 8GeV/c, 0.1<theta<0.15 [rad]",
"npoints":0,
"nbins":[9],
"axisTitle":["momentum of pi- [GeV/c]","Cross section [mb/(GeV/c/rad)]"],
"val":
[1800, 1140, 990, 910, 670, 380, 310, 210, 95],
"errStatPlus":
[100, 50, 45, 40, 30, 25, 20, 15, 7.5],
"errStatMinus":
[100, 50, 45, 40, 30, 25, 20, 15, 7.5],
"errSysPlus":
[0., 0., 0., 0., 0., 0., 0., 0., 0.],
"errSysMinus":
[0., 0., 0., 0., 0., 0., 0., 0., 0.],
"binMin":
[0.5, 1, 1.5, 2, 2.5, 3, 3.5, 4, 5],
"binMax":
[1, 1.5, 2, 2.5, 3, 3.5, 4, 5, 6.5]
},
"imageblobslnk":NULL,"scoreslnk":2,"accesslnk":1,
"parnames":["theta interval for secondary particle"], "parvalues":["0.1-0.15"]
},
{
"trid":1,"testlnk":0,"referencelnk":44,"mcdetaillnk":1,
"beamlnk":48,"targetlnk":73,"observablelnk":8,"secondarylnk":-211,"reactionlnk":1,
"datatable":{
"dtid":1,"datatypeslnk":2,
"title":"Production of pi- in pi- on Ta interactions at 8GeV/c, 0.15<theta<0.2 [rad]",
"npoints":0,
"nbins":[9],
"axisTitle":["momentum of pi- [GeV/c]","Cross section [mb/(GeV/c/rad)]"],
"val":
[1430, 1310, 880, 530, 310, 170, 160, 79, 34],
"errStatPlus":
[85, 60, 45, 30, 20, 15, 10, 7, 3.5],
"errStatMinus":
[85, 60, 45, 30, 20, 15, 10, 7, 3.5],
"errSysPlus":
[0., 0., 0., 0., 0., 0., 0., 0., 0.],
"errSysMinus":
[0., 0., 0., 0., 0., 0., 0., 0., 0.],
"binMin":
[0.5, 1, 1.5, 2, 2.5, 3, 3.5, 4, 5],
"binMax":
[1, 1.5, 2, 2.5, 3, 3.5, 4, 5, 6.5]
},
"imageblobslnk":NULL,"scoreslnk":2,"accesslnk":1,
"parnames":["theta interval for secondary particle"], "parvalues":["0.15-0.2"]
},
{
"trid":1,"testlnk":0,"referencelnk":44,"mcdetaillnk":1,
"beamlnk":48,"targetlnk":73,"observablelnk":8,"secondarylnk":-211,"reactionlnk":1,
"datatable":{
"dtid":1,"datatypeslnk":2,
"title":"Production of pi- in pi- on Ta interactions at 8GeV/c, 0.2<theta<0.25 [rad]",
"npoints":0,
"nbins":[9],
"axisTitle":["momentum of pi- [GeV/c]","Cross section [mb/(GeV/c/rad)]"],
"val":
[1100, 400, 390, 280, 210, 150, 80, 60, 25],
"errStatPlus":
[70, 30, 40, 25, 20, 15, 10, 10, 5],
"errStatMinus":
[70, 30, 40, 25, 20, 15, 10, 10, 5],
"errSysPlus":
[0., 0., 0., 0., 0., 0., 0., 0., 0.],
"errSysMinus":
[0., 0., 0., 0., 0., 0., 0., 0., 0.],
"binMin":
[0.5, 1, 1.5, 2, 2.5, 3, 3.5, 4, 5],
"binMax":
[1, 1.5, 2, 2.5, 3, 3.5, 4, 5, 6.5]
},
"imageblobslnk":NULL,"scoreslnk":2,"accesslnk":1,
"parnames":["theta interval for secondary particle"], "parvalues":["0.2-0.25"]
},
{
"trid":1,"testlnk":0,"referencelnk":45,"mcdetaillnk":1,
"beamlnk":48,"targetlnk":73,"observablelnk":8,"secondarylnk":-211,"reactionlnk":1,
"datatable":{
"dtid":1,"datatypeslnk":2,
"title":"Production of pi- in pi- on Ta interactions at 8GeV/c, 0.35<theta<0.55 [rad]",
"npoints":0,
"nbins":[10],
"axisTitle":["momentum of pi- [GeV/c]","Cross section [mb/(GeV/c/rad)]"],
"val":
[1710, 2020, 2400, 2430, 2290, 2160, 2140, 2040, 1900, 1620],
"errStatPlus":
[285, 175, 110, 75, 55, 50, 45, 50, 65, 95],
"errStatMinus":
[285, 175, 110, 75, 55, 50, 45, 50, 65, 95],
"errSysPlus":
[0., 0., 0., 0., 0., 0., 0., 0., 0., 0.],
"errSysMinus":
[0., 0., 0., 0., 0., 0., 0., 0., 0., 0.],
"binMin":
[0.15, 0.2, 0.25, 0.3, 0.35, 0.4, 0.45, 0.5, 0.6, 0.7],
"binMax":
[0.2, 0.25, 0.3, 0.35, 0.4, 0.45, 0.5, 0.6, 0.7, 0.8]
},
"imageblobslnk":NULL,"scoreslnk":2,"accesslnk":1,
"parnames":["theta interval for secondary particle"], "parvalues":["0.35-0.55"]
},
{
"trid":1,"testlnk":0,"referencelnk":45,"mcdetaillnk":1,
"beamlnk":48,"targetlnk":73,"observablelnk":8,"secondarylnk":-211,"reactionlnk":1,
"datatable":{
"dtid":1,"datatypeslnk":2,
"title":"Production of pi- in pi- on Ta interactions at 8GeV/c, 0.55<theta<0.75 [rad]",
"npoints":0,
"nbins":[11],
"axisTitle":["momentum of pi- [GeV/c]","Cross section [mb/(GeV/c/rad)]"],
"val":
[1250, 2110, 2440, 2480, 2330, 2250, 1980, 1780, 1580, 1310, 990],
"errStatPlus":
[270, 165, 95, 70, 70, 50, 40, 35, 40, 55, 65],
"errStatMinus":
[270, 165, 95, 70, 70, 50, 40, 35, 40, 55, 65],
"errSysPlus":
[0., 0., 0., 0., 0., 0., 0., 0., 0., 0., 0.],
"errSysMinus":
[0., 0., 0., 0., 0., 0., 0., 0., 0., 0., 0.],
"binMin":
[0.1, 0.15, 0.2, 0.25, 0.3, 0.35, 0.4, 0.45, 0.5, 0.6, 0.7],
"binMax":
[0.15, 0.2, 0.25, 0.3, 0.35, 0.4, 0.45, 0.5, 0.6, 0.7, 0.8]
},
"imageblobslnk":NULL,"scoreslnk":2,"accesslnk":1,
"parnames":["theta interval for secondary particle"], "parvalues":["0.55-0.75"]
},
{
"trid":1,"testlnk":0,"referencelnk":45,"mcdetaillnk":1,
"beamlnk":48,"targetlnk":73,"observablelnk":8,"secondarylnk":-211,"reactionlnk":1,
"datatable":{
"dtid":1,"datatypeslnk":2,
"title":"Production of pi- in pi- on Ta interactions at 8GeV/c, 0.75<theta<0.95 [rad]",
"npoints":0,
"nbins":[10],
"axisTitle":["momentum of pi- [GeV/c]","Cross section [mb/(GeV/c/rad)]"],
"val":
[1850, 2630, 2520, 2200, 1920, 1710, 1450, 1210, 950, 760],
"errStatPlus":
[215, 105, 75, 55, 45, 40, 35, 30, 25, 30],
"errStatMinus":
[215, 105, 75, 55, 45, 40, 35, 30, 25, 30],
"errSysPlus":
[0., 0., 0., 0., 0., 0., 0., 0., 0., 0.],
"errSysMinus":
[0., 0., 0., 0., 0., 0., 0., 0., 0., 0.],
"binMin":
[0.1, 0.15, 0.2, 0.25, 0.3, 0.35, 0.4, 0.45, 0.5, 0.6],
"binMax":
[0.15, 0.2, 0.25, 0.3, 0.35, 0.4, 0.45, 0.5, 0.6, 0.7]
},
"imageblobslnk":NULL,"scoreslnk":2,"accesslnk":1,
"parnames":["theta interval for secondary particle"], "parvalues":["0.75-0.95"]
},
{
"trid":1,"testlnk":0,"referencelnk":45,"mcdetaillnk":1,
"beamlnk":48,"targetlnk":73,"observablelnk":8,"secondarylnk":-211,"reactionlnk":1,
"datatable":{
"dtid":1,"datatypeslnk":2,
"title":"Production of pi- in pi- on Ta interactions at 8GeV/c, 0.95<theta<1.15 [rad]",
"npoints":0,
"nbins":[9],
"axisTitle":["momentum of pi- [GeV/c]","Cross section [mb/(GeV/c/rad)]"],
"val":
[2390, 2850, 2400, 1910, 1480, 1190, 1030, 870, 670],
"errStatPlus":
[195, 85, 60, 50, 40, 30, 25, 20, 20],
"errStatMinus":
[195, 85, 60, 50, 40, 30, 25, 20, 20],
"errSysPlus":
[0., 0., 0., 0., 0., 0., 0., 0., 0.],
"errSysMinus":
[0., 0., 0., 0., 0., 0., 0., 0., 0.],
"binMin":
[0.1, 0.15, 0.2, 0.25, 0.3, 0.35, 0.4, 0.45, 0.5],
"binMax":
[0.15, 0.2, 0.25, 0.3, 0.35, 0.4, 0.45, 0.5, 0.6]
},
"imageblobslnk":NULL,"scoreslnk":2,"accesslnk":1,
"parnames":["theta interval for secondary particle"], "parvalues":["0.95-1.15"]
},
{
"trid":1,"testlnk":0,"referencelnk":45,"mcdetaillnk":1,
"beamlnk":48,"targetlnk":73,"observablelnk":8,"secondarylnk":-211,"reactionlnk":1,
"datatable":{
"dtid":1,"datatypeslnk":2,
"title":"Production of pi- in pi- on Ta interactions at 8GeV/c, 1.15<theta<1.35 [rad]",
"npoints":0,
"nbins":[8],
"axisTitle":["momentum of pi- [GeV/c]","Cross section [mb/(GeV/c/rad)]"],
"val":
[2580, 2630, 2000, 1540, 1120, 880, 700, 580],
"errStatPlus":
[235, 95, 60, 45, 35, 25, 20, 15],
"errStatMinus":
[235, 95, 60, 45, 35, 25, 20, 15],
"errSysPlus":
[0., 0., 0., 0., 0., 0., 0., 0.],
"errSysMinus":
[0., 0., 0., 0., 0., 0., 0., 0.],
"binMin":
[0.1, 0.15, 0.2, 0.25, 0.3, 0.35, 0.4, 0.45],
"binMax":
[0.15, 0.2, 0.25, 0.3, 0.35, 0.4, 0.45, 0.5]
},
"imageblobslnk":NULL,"scoreslnk":2,"accesslnk":1,
"parnames":["theta interval for secondary particle"], "parvalues":["1.15-1.35"]
},
{
"trid":1,"testlnk":0,"referencelnk":45,"mcdetaillnk":1,
"beamlnk":48,"targetlnk":73,"observablelnk":8,"secondarylnk":-211,"reactionlnk":1,
"datatable":{
"dtid":1,"datatypeslnk":2,
"title":"Production of pi- in pi- on Ta interactions at 8GeV/c, 1.35<theta<1.55 [rad]",
"npoints":0,
"nbins":[8],
"axisTitle":["momentum of pi- [GeV/c]","Cross section [mb/(GeV/c/rad)]"],
"val":
[2570, 2290, 1690, 1160, 800, 630, 500, 370],
"errStatPlus":
[245, 110, 60, 45, 30, 20, 15, 15],
"errStatMinus":
[245, 110, 60, 45, 30, 20, 15, 15],
"errSysPlus":
[0., 0., 0., 0., 0., 0., 0., 0.],
"errSysMinus":
[0., 0., 0., 0., 0., 0., 0., 0.],
"binMin":
[0.1, 0.15, 0.2, 0.25, 0.3, 0.35, 0.4, 0.45],
"binMax":
[0.15, 0.2, 0.25, 0.3, 0.35, 0.4, 0.45, 0.5]
},
"imageblobslnk":NULL,"scoreslnk":2,"accesslnk":1,
"parnames":["theta interval for secondary particle"], "parvalues":["1.35-1.55"]
},
{
"trid":1,"testlnk":0,"referencelnk":45,"mcdetaillnk":1,
"beamlnk":48,"targetlnk":73,"observablelnk":8,"secondarylnk":-211,"reactionlnk":1,
"datatable":{
"dtid":1,"datatypeslnk":2,
"title":"Production of pi- in pi- on Ta interactions at 8GeV/c, 1.55<theta<1.75 [rad]",
"npoints":0,
"nbins":[8],
"axisTitle":["momentum of pi- [GeV/c]","Cross section [mb/(GeV/c/rad)]"],
"val":
[2580, 1960, 1390, 890, 620, 430, 320, 230],
"errStatPlus":
[250, 85, 50, 35, 25, 15, 10, 10],
"errStatMinus":
[250, 85, 50, 35, 25, 15, 10, 10],
"errSysPlus":
[0., 0., 0., 0., 0., 0., 0., 0.],
"errSysMinus":
[0., 0., 0., 0., 0., 0., 0., 0.],
"binMin":
[0.1, 0.15, 0.2, 0.25, 0.3, 0.35, 0.4, 0.45],
"binMax":
[0.15, 0.2, 0.25, 0.3, 0.35, 0.4, 0.45, 0.5]
},
"imageblobslnk":NULL,"scoreslnk":2,"accesslnk":1,
"parnames":["theta interval for secondary particle"], "parvalues":["1.55-1.75"]
},
{
"trid":1,"testlnk":0,"referencelnk":45,"mcdetaillnk":1,
"beamlnk":48,"targetlnk":73,"observablelnk":8,"secondarylnk":-211,"reactionlnk":1,
"datatable":{
"dtid":1,"datatypeslnk":2,
"title":"Production of pi- in pi- on Ta interactions at 8GeV/c, 1.75<theta<1.95 [rad]",
"npoints":0,
"nbins":[8],
"axisTitle":["momentum of pi- [GeV/c]","Cross section [mb/(GeV/c/rad)]"],
"val":
[2020, 1560, 1010, 570, 420, 320, 230, 170],
"errStatPlus":
[145, 50, 30, 25, 15, 10, 10, 5],
"errStatMinus":
[145, 50, 30, 25, 15, 10, 10, 5],
"errSysPlus":
[0., 0., 0., 0., 0., 0., 0., 0.],
"errSysMinus":
[0., 0., 0., 0., 0., 0., 0., 0.],
"binMin":
[0.1, 0.15, 0.2, 0.25, 0.3, 0.35, 0.4, 0.45],
"binMax":
[0.15, 0.2, 0.25, 0.3, 0.35, 0.4, 0.45, 0.5]
},
"imageblobslnk":NULL,"scoreslnk":2,"accesslnk":1,
"parnames":["theta interval for secondary particle"], "parvalues":["1.75-1.95"]
},
{
"trid":1,"testlnk":0,"referencelnk":45,"mcdetaillnk":1,
"beamlnk":48,"targetlnk":73,"observablelnk":8,"secondarylnk":-211,"reactionlnk":1,
"datatable":{
"dtid":1,"datatypeslnk":2,
"title":"Production of pi- in pi- on Ta interactions at 8GeV/c, 1.95<theta<2.15 [rad]",
"npoints":0,
"nbins":[8],
"axisTitle":["momentum of pi- [GeV/c]","Cross section [mb/(GeV/c/rad)]"],
"val":
[1700, 1260, 650, 380, 280, 230, 160, 120],
"errStatPlus":
[120, 35, 25, 15, 10, 10, 5, 5],
"errStatMinus":
[120, 35, 25, 15, 10, 10, 5, 5],
"errSysPlus":
[0., 0., 0., 0., 0., 0., 0., 0.],
"errSysMinus":
[0., 0., 0., 0., 0., 0., 0., 0.],
"binMin":
[0.1, 0.15, 0.2, 0.25, 0.3, 0.35, 0.4, 0.45],
"binMax":
[0.15, 0.2, 0.25, 0.3, 0.35, 0.4, 0.45, 0.5]
},
"imageblobslnk":NULL,"scoreslnk":2,"accesslnk":1,
"parnames":["theta interval for secondary particle"], "parvalues":["1.95-2.15"]
},
{
"trid":1,"testlnk":0,"referencelnk":44,"mcdetaillnk":1,
"beamlnk":49,"targetlnk":73,"observablelnk":8,"secondarylnk":-211,"reactionlnk":1,
"datatable":{
"dtid":1,"datatypeslnk":2,
"title":"Production of pi- in pi- on Ta interactions at 12GeV/c, 0.05<theta<0.1 [rad]",
"npoints":0,
"nbins":[10],
"axisTitle":["momentum of pi- [GeV/c]","Cross section [mb/(GeV/c/rad)]"],
"val":
[2160, 1800, 1630, 1590, 1490, 1270, 1020, 770, 510, 320],
"errStatPlus":
[100, 70, 55, 55, 50, 40, 35, 25, 15, 15],
"errStatMinus":
[100, 70, 55, 55, 50, 40, 35, 25, 15, 15],
"errSysPlus":
[0., 0., 0., 0., 0., 0., 0., 0., 0., 0.],
"errSysMinus":
[0., 0., 0., 0., 0., 0., 0., 0., 0., 0.],
"binMin":
[0.5, 1, 1.5, 2, 2.5, 3, 3.5, 4, 5, 6.5],
"binMax":
[1, 1.5, 2, 2.5, 3, 3.5, 4, 5, 6.5, 8]
},
"imageblobslnk":NULL,"scoreslnk":2,"accesslnk":1,
"parnames":["theta interval for secondary particle"], "parvalues":["0.05-0.1"]
},
{
"trid":1,"testlnk":0,"referencelnk":44,"mcdetaillnk":1,
"beamlnk":49,"targetlnk":73,"observablelnk":8,"secondarylnk":-211,"reactionlnk":1,
"datatable":{
"dtid":1,"datatypeslnk":2,
"title":"Production of pi- in pi- on Ta interactions at 12GeV/c, 0.1<theta<0.15 [rad]",
"npoints":0,
"nbins":[10],
"axisTitle":["momentum of pi- [GeV/c]","Cross section [mb/(GeV/c/rad)]"],
"val":
[2560, 1910, 1680, 1510, 1110, 890, 620, 380, 170, 58],
"errStatPlus":
[135, 80, 65, 65, 50, 40, 30, 20, 10, 5],
"errStatMinus":
[135, 80, 65, 65, 50, 40, 30, 20, 10, 5],
"errSysPlus":
[0., 0., 0., 0., 0., 0., 0., 0., 0., 0.],
"errSysMinus":
[0., 0., 0., 0., 0., 0., 0., 0., 0., 0.],
"binMin":
[0.5, 1, 1.5, 2, 2.5, 3, 3.5, 4, 5, 6.5],
"binMax":
[1, 1.5, 2, 2.5, 3, 3.5, 4, 5, 6.5, 8]
},
"imageblobslnk":NULL,"scoreslnk":2,"accesslnk":1,
"parnames":["theta interval for secondary particle"], "parvalues":["0.1-0.15"]
},
{
"trid":1,"testlnk":0,"referencelnk":44,"mcdetaillnk":1,
"beamlnk":49,"targetlnk":73,"observablelnk":8,"secondarylnk":-211,"reactionlnk":1,
"datatable":{
"dtid":1,"datatypeslnk":2,
"title":"Production of pi- in pi- on Ta interactions at 12GeV/c, 0.15<theta<0.2 [rad]",
"npoints":0,
"nbins":[10],
"axisTitle":["momentum of pi- [GeV/c]","Cross section [mb/(GeV/c/rad)]"],
"val":
[2250, 1890, 1100, 810, 460, 400, 210, 160, 47, 12],
"errStatPlus":
[125, 85, 55, 40, 25, 25, 15, 10, 5, 2],
"errStatMinus":
[125, 85, 55, 40, 25, 25, 15, 10, 5, 2],
"errSysPlus":
[0., 0., 0., 0., 0., 0., 0., 0., 0., 0.],
"errSysMinus":
[0., 0., 0., 0., 0., 0., 0., 0., 0., 0.],
"binMin":
[0.5, 1, 1.5, 2, 2.5, 3, 3.5, 4, 5, 6.5],
"binMax":
[1, 1.5, 2, 2.5, 3, 3.5, 4, 5, 6.5, 8]
},
"imageblobslnk":NULL,"scoreslnk":2,"accesslnk":1,
"parnames":["theta interval for secondary particle"], "parvalues":["0.15-0.2"]
},
{
"trid":1,"testlnk":0,"referencelnk":44,"mcdetaillnk":1,
"beamlnk":49,"targetlnk":73,"observablelnk":8,"secondarylnk":-211,"reactionlnk":1,
"datatable":{
"dtid":1,"datatypeslnk":2,
"title":"Production of pi- in pi- on Ta interactions at 12GeV/c, 0.2<theta<0.25 [rad]",
"npoints":0,
"nbins":[10],
"axisTitle":["momentum of pi- [GeV/c]","Cross section [mb/(GeV/c/rad)]"],
"val":
[1220, 580, 640, 490, 320, 210, 140, 110, 35, 12],
"errStatPlus":
[80, 40, 50, 40, 35, 20, 15, 15, 5, 4],
"errStatMinus":
[80, 40, 50, 40, 35, 20, 15, 15, 5, 4],
"errSysPlus":
[0., 0., 0., 0., 0., 0., 0., 0., 0., 0.],
"errSysMinus":
[0., 0., 0., 0., 0., 0., 0., 0., 0., 0.],
"binMin":
[0.5, 1, 1.5, 2, 2.5, 3, 3.5, 4, 5, 6.5],
"binMax":
[1, 1.5, 2, 2.5, 3, 3.5, 4, 5, 6.5, 8]
},
"imageblobslnk":NULL,"scoreslnk":2,"accesslnk":1,
"parnames":["theta interval for secondary particle"], "parvalues":["0.2-0.25"]
},
{
"trid":1,"testlnk":0,"referencelnk":45,"mcdetaillnk":1,
"beamlnk":49,"targetlnk":73,"observablelnk":8,"secondarylnk":-211,"reactionlnk":1,
"datatable":{
"dtid":1,"datatypeslnk":2,
"title":"Production of pi- in pi- on Ta interactions at 12GeV/c, 0.35<theta<0.55 [rad]",
"npoints":0,
"nbins":[10],
"axisTitle":["momentum of pi- [GeV/c]","Cross section [mb/(GeV/c/rad)]"],
"val":
[2700, 3050, 3380, 3270, 2980, 2890, 2770, 2650, 2670, 2370],
"errStatPlus":
[345, 190, 120, 85, 65, 70, 60, 70, 95, 125],
"errStatMinus":
[345, 190, 120, 85, 65, 70, 60, 70, 95, 125],
"errSysPlus":
[0., 0., 0., 0., 0., 0., 0., 0., 0., 0.],
"errSysMinus":
[0., 0., 0., 0., 0., 0., 0., 0., 0., 0.],
"binMin":
[0.15, 0.2, 0.25, 0.3, 0.35, 0.4, 0.45, 0.5, 0.6, 0.7],
"binMax":
[0.2, 0.25, 0.3, 0.35, 0.4, 0.45, 0.5, 0.6, 0.7, 0.8]
},
"imageblobslnk":NULL,"scoreslnk":2,"accesslnk":1,
"parnames":["theta interval for secondary particle"], "parvalues":["0.35-0.55"]
},
{
"trid":1,"testlnk":0,"referencelnk":45,"mcdetaillnk":1,
"beamlnk":49,"targetlnk":73,"observablelnk":8,"secondarylnk":-211,"reactionlnk":1,
"datatable":{
"dtid":1,"datatypeslnk":2,
"title":"Production of pi- in pi- on Ta interactions at 12GeV/c, 0.55<theta<0.75 [rad]",
"npoints":0,
"nbins":[11],
"axisTitle":["momentum of pi- [GeV/c]","Cross section [mb/(GeV/c/rad)]"],
"val":
[2440, 3140, 3310, 3080, 2820, 2520, 2270, 2170, 1970, 1680, 1410],
"errStatPlus":
[380, 215, 115, 85, 65, 55, 45, 50, 50, 75, 95],
"errStatMinus":
[380, 215, 115, 85, 65, 55, 45, 50, 50, 75, 95],
"errSysPlus":
[0., 0., 0., 0., 0., 0., 0., 0., 0., 0., 0.],
"errSysMinus":
[0., 0., 0., 0., 0., 0., 0., 0., 0., 0., 0.],
"binMin":
[0.1, 0.15, 0.2, 0.25, 0.3, 0.35, 0.4, 0.45, 0.5, 0.6, 0.7],
"binMax":
[0.15, 0.2, 0.25, 0.3, 0.35, 0.4, 0.45, 0.5, 0.6, 0.7, 0.8]
},
"imageblobslnk":NULL,"scoreslnk":2,"accesslnk":1,
"parnames":["theta interval for secondary particle"], "parvalues":["0.55-0.75"]
},
{
"trid":1,"testlnk":0,"referencelnk":45,"mcdetaillnk":1,
"beamlnk":49,"targetlnk":73,"observablelnk":8,"secondarylnk":-211,"reactionlnk":1,
"datatable":{
"dtid":1,"datatypeslnk":2,
"title":"Production of pi- in pi- on Ta interactions at 12GeV/c, 0.75<theta<0.95 [rad]",
"npoints":0,
"nbins":[10],
"axisTitle":["momentum of pi- [GeV/c]","Cross section [mb/(GeV/c/rad)]"],
"val":
[2510, 3400, 2960, 2650, 2260, 1960, 1670, 1540, 1290, 1050],
"errStatPlus":
[260, 105, 75, 65, 50, 40, 35, 30, 35, 50],
"errStatMinus":
[260, 105, 75, 65, 50, 40, 35, 30, 35, 50],
"errSysPlus":
[0., 0., 0., 0., 0., 0., 0., 0., 0., 0.],
"errSysMinus":
[0., 0., 0., 0., 0., 0., 0., 0., 0., 0.],
"binMin":
[0.1, 0.15, 0.2, 0.25, 0.3, 0.35, 0.4, 0.45, 0.5, 0.6],
"binMax":
[0.15, 0.2, 0.25, 0.3, 0.35, 0.4, 0.45, 0.5, 0.6, 0.7]
},
"imageblobslnk":NULL,"scoreslnk":2,"accesslnk":1,
"parnames":["theta interval for secondary particle"], "parvalues":["0.75-0.95"]
},
{
"trid":1,"testlnk":0,"referencelnk":45,"mcdetaillnk":1,
"beamlnk":49,"targetlnk":73,"observablelnk":8,"secondarylnk":-211,"reactionlnk":1,
"datatable":{
"dtid":1,"datatypeslnk":2,
"title":"Production of pi- in pi- on Ta interactions at 12GeV/c, 0.95<theta<1.15 [rad]",
"npoints":0,
"nbins":[9],
"axisTitle":["momentum of pi- [GeV/c]","Cross section [mb/(GeV/c/rad)]"],
"val":
[2860, 3270, 2520, 2130, 1670, 1370, 1180, 1040, 820],
"errStatPlus":
[220, 85, 60, 55, 45, 30, 25, 20, 25],
"errStatMinus":
[220, 85, 60, 55, 45, 30, 25, 20, 25],
"errSysPlus":
[0., 0., 0., 0., 0., 0., 0., 0., 0.],
"errSysMinus":
[0., 0., 0., 0., 0., 0., 0., 0., 0.],
"binMin":
[0.1, 0.15, 0.2, 0.25, 0.3, 0.35, 0.4, 0.45, 0.5],
"binMax":
[0.15, 0.2, 0.25, 0.3, 0.35, 0.4, 0.45, 0.5, 0.6]
},
"imageblobslnk":NULL,"scoreslnk":2,"accesslnk":1,
"parnames":["theta interval for secondary particle"], "parvalues":["0.95-1.15"]
},
{
"trid":1,"testlnk":0,"referencelnk":45,"mcdetaillnk":1,
"beamlnk":49,"targetlnk":73,"observablelnk":8,"secondarylnk":-211,"reactionlnk":1,
"datatable":{
"dtid":1,"datatypeslnk":2,
"title":"Production of pi- in pi- on Ta interactions at 12GeV/c, 1.15<theta<1.35 [rad]",
"npoints":0,
"nbins":[8],
"axisTitle":["momentum of pi- [GeV/c]","Cross section [mb/(GeV/c/rad)]"],
"val":
[3040, 2960, 2300, 1690, 1260, 970, 810, 670],
"errStatPlus":
[260, 95, 60, 50, 40, 25, 20, 15],
"errStatMinus":
[260, 95, 60, 50, 40, 25, 20, 15],
"errSysPlus":
[0., 0., 0., 0., 0., 0., 0., 0.],
"errSysMinus":
[0., 0., 0., 0., 0., 0., 0., 0.],
"binMin":
[0.1, 0.15, 0.2, 0.25, 0.3, 0.35, 0.4, 0.45],
"binMax":
[0.15, 0.2, 0.25, 0.3, 0.35, 0.4, 0.45, 0.5]
},
"imageblobslnk":NULL,"scoreslnk":2,"accesslnk":1,
"parnames":["theta interval for secondary particle"], "parvalues":["1.15-1.35"]
},
{
"trid":1,"testlnk":0,"referencelnk":45,"mcdetaillnk":1,
"beamlnk":49,"targetlnk":73,"observablelnk":8,"secondarylnk":-211,"reactionlnk":1,
"datatable":{
"dtid":1,"datatypeslnk":2,
"title":"Production of pi- in pi- on Ta interactions at 12GeV/c, 1.35<theta<1.55 [rad]",
"npoints":0,
"nbins":[8],
"axisTitle":["momentum of pi- [GeV/c]","Cross section [mb/(GeV/c/rad)]"],
"val":
[2910, 2580, 1860, 1280, 910, 680, 530, 420],
"errStatPlus":
[305, 115, 65, 50, 35, 20, 15, 15],
"errStatMinus":
[305, 115, 65, 50, 35, 20, 15, 15],
"errSysPlus":
[0., 0., 0., 0., 0., 0., 0., 0.],
"errSysMinus":
[0., 0., 0., 0., 0., 0., 0., 0.],
"binMin":
[0.1, 0.15, 0.2, 0.25, 0.3, 0.35, 0.4, 0.45],
"binMax":
[0.15, 0.2, 0.25, 0.3, 0.35, 0.4, 0.45, 0.5]
},
"imageblobslnk":NULL,"scoreslnk":2,"accesslnk":1,
"parnames":["theta interval for secondary particle"], "parvalues":["1.35-1.55"]
},
{
"trid":1,"testlnk":0,"referencelnk":45,"mcdetaillnk":1,
"beamlnk":49,"targetlnk":73,"observablelnk":8,"secondarylnk":-211,"reactionlnk":1,
"datatable":{
"dtid":1,"datatypeslnk":2,
"title":"Production of pi- in pi- on Ta interactions at 12GeV/c, 1.55<theta<1.75 [rad]",
"npoints":0,
"nbins":[8],
"axisTitle":["momentum of pi- [GeV/c]","Cross section [mb/(GeV/c/rad)]"],
"val":
[2500, 2180, 1440, 980, 670, 480, 370, 270],
"errStatPlus":
[270, 100, 55, 35, 25, 15, 10, 10],
"errStatMinus":
[270, 100, 55, 35, 25, 15, 10, 10],
"errSysPlus":
[0., 0., 0., 0., 0., 0., 0., 0.],
"errSysMinus":
[0., 0., 0., 0., 0., 0., 0., 0.],
"binMin":
[0.1, 0.15, 0.2, 0.25, 0.3, 0.35, 0.4, 0.45],
"binMax":
[0.15, 0.2, 0.25, 0.3, 0.35, 0.4, 0.45, 0.5]
},
"imageblobslnk":NULL,"scoreslnk":2,"accesslnk":1,
"parnames":["theta interval for secondary particle"], "parvalues":["1.55-1.75"]
},
{
"trid":1,"testlnk":0,"referencelnk":45,"mcdetaillnk":1,
"beamlnk":49,"targetlnk":73,"observablelnk":8,"secondarylnk":-211,"reactionlnk":1,
"datatable":{
"dtid":1,"datatypeslnk":2,
"title":"Production of pi- in pi- on Ta interactions at 12GeV/c, 1.75<theta<1.95 [rad]",
"npoints":0,
"nbins":[8],
"axisTitle":["momentum of pi- [GeV/c]","Cross section [mb/(GeV/c/rad)]"],
"val":
[2210, 1810, 1100, 670, 430, 310, 240, 190],
"errStatPlus":
[165, 50, 35, 25, 15, 10, 10, 10],
"errStatMinus":
[165, 50, 35, 25, 15, 10, 10, 10],
"errSysPlus":
[0., 0., 0., 0., 0., 0., 0., 0.],
"errSysMinus":
[0., 0., 0., 0., 0., 0., 0., 0.],
"binMin":
[0.1, 0.15, 0.2, 0.25, 0.3, 0.35, 0.4, 0.45],
"binMax":
[0.15, 0.2, 0.25, 0.3, 0.35, 0.4, 0.45, 0.5]
},
"imageblobslnk":NULL,"scoreslnk":2,"accesslnk":1,
"parnames":["theta interval for secondary particle"], "parvalues":["1.75-1.95"]
},
{
"trid":1,"testlnk":0,"referencelnk":45,"mcdetaillnk":1,
"beamlnk":49,"targetlnk":73,"observablelnk":8,"secondarylnk":-211,"reactionlnk":1,
"datatable":{
"dtid":1,"datatypeslnk":2,
"title":"Production of pi- in pi- on Ta interactions at 12GeV/c, 1.95<theta<2.15 [rad]",
"npoints":0,
"nbins":[8],
"axisTitle":["momentum of pi- [GeV/c]","Cross section [mb/(GeV/c/rad)]"],
"val":
[2030, 1440, 760, 510, 300, 210, 150, 120],
"errStatPlus":
[135, 40, 20, 20, 15, 10, 5, 5],
"errStatMinus":
[135, 40, 20, 20, 15, 10, 5, 5],
"errSysPlus":
[0., 0., 0., 0., 0., 0., 0., 0.],
"errSysMinus":
[0., 0., 0., 0., 0., 0., 0., 0.],
"binMin":
[0.1, 0.15, 0.2, 0.25, 0.3, 0.35, 0.4, 0.45],
"binMax":
[0.15, 0.2, 0.25, 0.3, 0.35, 0.4, 0.45, 0.5]
},
"imageblobslnk":NULL,"scoreslnk":2,"accesslnk":1,
"parnames":["theta interval for secondary particle"], "parvalues":["1.95-2.15"]
}
]}
